{
    "_id": "3jceS1GfWcSQ3tMY",
    "content": "<h1>Talisman Dabbler</h1>\n<p>The classic idea of magic is that of a hoary wizard, poring over a crumbling book of spells. But magic is so much more than that-it is thought, will, and action, and with the right talismans, you can make even the cut of a sword a deeply magical act. This all hinges on the small magical talismans you affix to your gear. You know how to make and use the perfect talismans for any job.</p>\n<h2 style=\"text-align: left;\">@Compendium[pf2e.feats-srd.Talisman Dabbler Dedication]{Talisman Dabbler Dedication} Feat 2</h2>\n<p>You are trained in the use of talismans and similar magical paraphernalia. This training might have occurred in a formal classroom or been an agglomeration of folk magic picked up over time. You can craft talismans and know the formulas for all common talismans in the Core Rulebook of your level or lower. You remember talisman formulas and don't need a formula book for them.</p>\n<p>Additionally, you carry a collection of magical baubles you can turn into temporary talismans. Each day during your daily preparations, you can make two talismans with an item level no higher than half your level. You must know each talisman's formula. A talisman created this way is a temporary item and loses its magic the next time you make your daily preparations if you haven't already used it.</p>\n<p>Finally, when you Affix a Talisman, you can (in any combination) affix or remove up to four talismans in the 10-minute span.</p>\n<p><strong>Special</strong> You can't select another dedication feat until you have gained two other feats from the Talisman Dabbler archetype.</p>\n<h2>@Compendium[pf2e.feats-srd.Quick Fix]{Quick Fix} Feat 4</h2>\n<p><strong>Prerequisites</strong> Talisman Dabbler Dedication</p>\n<hr />\n<p>You can attach a talisman using only a bit of glue and some string. You gain the Rapid Affixture skill feat (page 208), even if you don't meet the prerequisites. When you use it, you can affix or remove up to four talismans in 1 minute instead of just one. You gain the ability to Affix a Talisman as a 3-action activity from that feat at 12th level, regardless of your Crafting proficiency.</p>\n<h2>@Compendium[pf2e.feats-srd.Deeper Dabbler]{Deeper Dabbler} Feat 8</h2>\n<p><strong>Prerequisites</strong> Talisman Dabbler Dedication</p>\n<hr />\n<p>With some streamlining to your process and a deeper collection of talisman materials, you make a greater number of talismans every day. You can create two additional talismans during your daily preparations.</p>\n<p><strong>Special</strong> You can select this feat a second time if you are 14th level or higher.</p>\n<h2>@Compendium[pf2e.feats-srd.Talismanic Sage]{Talismanic Sage} Feat 14</h2>\n<p><strong>Prerequisites</strong> Talisman Dabbler Dedication</p>\n<hr />\n<p>You have forgotten more about talismans than lesser warriors have ever known. Normally, affixing more than one talisman to an item causes the talismans to be suppressed, but when you Affix a Talisman, you can specially treat one item you're working on, allowing it to have two active talismans at once. This special treatment ends if you use Affix a Talisman to treat a new item for this ability.</p>\n<p><span id=\"ctl00_MainContent_DetailedOutput\"></span></p>",
    "flags": {},
    "name": "Talisman Dabbler",
    "permission": {
        "default": 0
    }
}