{
    "_id": "ZG9ZJ5BZrZ9MS3h3",
    "data": {
        "attributes": {
            "ac": {
                "value": 24
            },
            "hardness": 0,
            "hasHealth": true,
            "hp": {
                "details": "",
                "max": 60,
                "temp": 0,
                "tempmax": 0,
                "value": 60
            },
            "stealth": {
                "details": "(expert)",
                "value": 24
            }
        },
        "creatureType": "",
        "details": {
            "description": "The restless spirits of clergy who once inhabited this now-defiled temple of Aroden remain within the sanctuary and pulpit.",
            "disable": "DC 26 Occultism (expert) to exorcise the spirits, or Deception or DC 28 Religion (trained) to imitate the Arodenite faith and render the haunt harmless until it resets",
            "isComplex": false,
            "level": 6,
            "reset": "The spirits return in 1d8 hours as long as any xulgaths remain in Moonstone Hall.",
            "routine": ""
        },
        "flavourText": "",
        "nethysUrl": "",
        "recallKnowledgeText": "",
        "saves": {
            "fortitude": {
                "rank": 0,
                "saveDetail": "",
                "value": 13
            },
            "reflex": {
                "rank": 0,
                "saveDetail": "",
                "value": null
            },
            "will": {
                "rank": 0,
                "saveDetail": "",
                "value": 15
            }
        },
        "schema": {
            "version": {
                "value": ""
            }
        },
        "sidebarText": "",
        "source": {
            "value": ""
        },
        "statusEffects": [],
        "traits": {
            "ci": [],
            "di": {
                "custom": "",
                "selected": {},
                "value": [
                    "critical-hits",
                    "object-immunities",
                    "precision-damage"
                ]
            },
            "dr": [],
            "dv": [
                {
                    "exceptions": "",
                    "label": "Positive",
                    "type": "positive",
                    "value": "10"
                }
            ],
            "traits": {
                "custom": "",
                "value": [
                    "haunt"
                ]
            }
        }
    },
    "effects": [],
    "flags": {
        "pf2e": {
            "editHazard": {
                "value": true
            }
        },
        "pf2e_updatednpcsheet": {
            "npcNotes": {
                "value": ""
            }
        }
    },
    "items": [
        {
            "_id": "lp862sClvRojxe2C",
            "data": {
                "actionCategory": {
                    "value": ""
                },
                "actionType": {
                    "value": "reaction"
                },
                "actions": {
                    "value": ""
                },
                "description": {
                    "chat": "",
                    "unidentified": "",
                    "value": "<p><strong>Trigger</strong>  A non-Arodenite creature approaches within 5 feet of the lectern;</p>\n<p><strong> Effect</strong>  A spectral minister appears before the pulpit, resembling an ever-shifting amalgamation of several past priests. The spectral minister delivers fervent exhortations about faithlessness. Each creature on the dais must succeed at a DC 24 Will save or become @Compendium[pf2e.conditionitems.Drained]{Drained} 2. On a critical failure, the creature is drained 4.</p>"
                },
                "rarity": {
                    "value": "common"
                },
                "requirements": {
                    "value": ""
                },
                "rules": [],
                "skill_requirement": {
                    "skill": {
                        "rank": "",
                        "skill": ""
                    }
                },
                "skill_requirements": {
                    "rank": "",
                    "skill": ""
                },
                "source": {
                    "value": ""
                },
                "traits": {
                    "custom": "",
                    "value": [
                        "divine",
                        "necromancy"
                    ]
                },
                "trigger": {
                    "value": ""
                },
                "usage": {
                    "value": "held-in-one-hand"
                },
                "weapon": {
                    "value": ""
                }
            },
            "effects": [],
            "flags": {},
            "img": "systems/pf2e/icons/actions/Reaction.png",
            "name": "Phantom Sermon",
            "sort": 100000,
            "type": "action"
        }
    ],
    "name": "Echoes of Faith",
    "permission": {
        "default": 0
    },
    "token": {
        "actorId": "ZG9ZJ5BZrZ9MS3h3",
        "actorLink": false,
        "bar1": {
            "attribute": "attributes.hp"
        },
        "bar2": {},
        "brightLight": 0,
        "brightSight": 0,
        "dimLight": 0,
        "dimSight": 0,
        "displayBars": 20,
        "displayName": 20,
        "disposition": -1,
        "flags": {},
        "height": 1,
        "img": "icons/svg/mystery-man.svg",
        "lightAlpha": 1,
        "lightAngle": 360,
        "lightAnimation": {
            "intensity": 5,
            "speed": 5
        },
        "lockRotation": false,
        "name": "Echoes of Faith",
        "randomImg": false,
        "rotation": 0,
        "scale": 1,
        "sightAngle": 360,
        "tint": null,
        "vision": false,
        "width": 1
    },
    "type": "hazard"
}