{
    "_id": "j91X7x0XSomq8d60",
    "data": {
        "active": true,
        "alsoApplies": {
            "linked": [
                {
                    "condition": "Flat-Footed"
                }
            ],
            "unlinked": []
        },
        "base": "Prone",
        "description": {
            "chat": "",
            "unidentified": "",
            "value": "<p>You're lying on the ground. You are <a class=\"entity-link\" draggable=\"true\" data-pack=\"pf2e.conditionitems\" data-id=\"AJh5ex99aV6VTggg\"> Flat-Footed</a> and take a -2 circumstance penalty to attack rolls. The only move actions you can use while you're prone are <a class=\"entity-link\" draggable=\"true\" data-pack=\"pf2e.actionspf2e\" data-id=\"Tj055UcNm6UEgtCg\"> Crawl</a> and <a class=\"entity-link\" draggable=\"true\" data-pack=\"pf2e.actionspf2e\" data-id=\"OdIUybJ3ddfL7wzj\"> Stand</a>. Standing up ends the prone condition. You can <a class=\"entity-link\" draggable=\"true\" data-pack=\"pf2e.actionspf2e\" data-id=\"ust1jJSCZQUhBZIz\"> Take Cover</a> while prone to hunker down and gain cover against ranged attacks, even if you don't have an object to get behind, gaining a +4 circumstance bonus to AC against ranged attacks (but you remain flat-footed).<br><br>If you would be knocked prone while you're <a class=\"entity-link\" draggable=\"true\" data-pack=\"pf2e.actionspf2e\" data-id=\"pprgrYQ1QnIDGZiy\"> Climbing</a> or <a class=\"entity-link\" draggable=\"true\" data-pack=\"pf2e.actionspf2e\" data-id=\"cS9nfDRGD83bNU1p\"> Flying</a>, you fall (see pages 463-464 for the rules on falling). You can't be knocked prone when <a class=\"entity-link\" draggable=\"true\" data-pack=\"pf2e.actionspf2e\" data-id=\"c8TGiZ48ygoSPofx\"> Swimming</a>.</p>"
        },
        "duration": {
            "perpetual": true,
            "text": "",
            "value": 0
        },
        "group": "",
        "hud": {
            "img": {
                "useStatusName": true,
                "value": "systems/pf2e/icons/conditions-2/prone.png"
            },
            "selectable": true,
            "statusName": "prone"
        },
        "modifiers": [
            {
                "group": "attack-roll",
                "type": "circumstance",
                "value": -2
            }
        ],
        "overrides": [],
        "rarity": {
            "value": "common"
        },
        "references": {
            "children": [],
            "immunityFrom": [],
            "overriddenBy": [],
            "overrides": []
        },
        "removable": true,
        "rules": [],
        "source": {
            "value": ""
        },
        "sources": {
            "hud": false
        },
        "traits": {
            "value": []
        },
        "usage": {
            "value": "held-in-one-hand"
        },
        "value": {
            "immutable": false,
            "isValued": false,
            "modifiers": [],
            "value": 1
        }
    },
    "effects": [],
    "flags": {
        "pf2e": {
            "condition": true
        }
    },
    "img": "systems/pf2e/icons/conditions/prone.png",
    "name": "Prone",
    "permission": {
        "default": 0
    },
    "type": "condition"
}
