{
    "_id": "VcDeM8A5oI6VqhbM",
    "data": {
        "active": true,
        "alsoApplies": {
            "linked": [
                {
                    "condition": "Flat-Footed"
                },
                {
                    "condition": "Immobilized"
                }
            ],
            "unlinked": []
        },
        "base": "Restrained",
        "description": {
            "chat": "",
            "unidentified": "",
            "value": "<p>You're tied up and can barely move, or a creature has you pinned. You have the <a class=\"entity-link\" draggable=\"true\" data-pack=\"pf2e.conditionitems\" data-id=\"AJh5ex99aV6VTggg\"> Flat-Footed</a> and <a class=\"entity-link\" draggable=\"true\" data-pack=\"pf2e.conditionitems\" data-id=\"eIcWbB5o3pP6OIMe\"> Immobilized</a> conditions, and you can't use any actions with the attack or manipulate traits except to attempt to <a class=\"entity-link\" draggable=\"true\" data-pack=\"pf2e.actionspf2e\" data-id=\"SkZAQRkLLkmBQNB9\"> Escape</a> or <a class=\"entity-link\" draggable=\"true\" data-pack=\"pf2e.actionspf2e\" data-id=\"SjmKHgI7a5Z9JzBx\"> Force Open</a> your bonds. Restrained overrides <a class=\"entity-link\" draggable=\"true\" data-pack=\"pf2e.conditionitems\" data-id=\"kWc1fhmv9LBiTuei\"> Grabbed</a>.</p>"
        },
        "duration": {
            "perpetual": true,
            "text": "",
            "value": 0
        },
        "group": "",
        "hud": {
            "img": {
                "useStatusName": true,
                "value": "systems/pf2e/icons/conditions-2/restrained.png"
            },
            "selectable": true,
            "statusName": "restrained"
        },
        "modifiers": [],
        "overrides": [
            "Grabbed"
        ],
        "rarity": {
            "value": "common"
        },
        "references": {
            "children": [],
            "immunityFrom": [],
            "overriddenBy": [],
            "overrides": []
        },
        "removable": true,
        "rules": [],
        "source": {
            "value": ""
        },
        "sources": {
            "hud": false
        },
        "traits": {
            "value": []
        },
        "usage": {
            "value": "held-in-one-hand"
        },
        "value": {
            "immutable": false,
            "isValued": false,
            "modifiers": [],
            "value": 1
        }
    },
    "effects": [],
    "flags": {
        "pf2e": {
            "condition": true
        }
    },
    "img": "systems/pf2e/icons/conditions/restrained.png",
    "name": "Restrained",
    "permission": {
        "default": 0
    },
    "type": "condition"
}
