{
    "_id": "64WHEiUYl5Bp9Rmo",
    "content": "<p><span id=\"ctl00_MainContent_DetailedOutput\">Your art is your greatest passion, whatever form it takes. Adventuring might help you find inspiration, or simply be a way to survive until you become a world-famous artist.<br /></span></p>\n<p><span id=\"ctl00_MainContent_DetailedOutput\">Choose two ability boosts. One must be to <strong>Dexterity</strong> or <strong>Charisma</strong>, and one is a free ability boost.<br /></span></p>\n<p><span id=\"ctl00_MainContent_DetailedOutput\">You're trained in the Crafting skill and the Art Lore skill. You gain the @Compendium[pf2e.feats-srd.Specialty Crafting]{Specialty Crafting} skill feat.</span></p>",
    "flags": {},
    "name": "Artist",
    "permission": {
        "default": 0
    }
}