{
    "_id": "QjEpaKn5x9INfcfY",
    "content": "<p>You grew up breeding and training the famous horses of the Atteran Ranches in northern Nidal. You may even be sympathetic to the Desnan dissidents who hide there from the Umbral Court.</p>\n<p>Choose two ability boosts. One must be to <strong>Strength</strong>  or <strong>Dexterity</strong>, and one is a free ability boost.</p>\n<p>You're trained in the Nature skill and the Animal Lore skill. You gain the @Compendium[pf2e.feats-srd.Train Animal]{Train Animal} skill feat.</p>",
    "flags": {},
    "name": "Atteran Rancher",
    "permission": {
        "default": 0
    }
}