{
    "_id": "xKVVXEDgNeJAuIcX",
    "content": "<p><span id=\"ctl00_MainContent_DetailedOutput\">You're skilled at shouting to catch and keep the attention of passersby. A few well-timed and forcefully spoken words not only get people to notice you but also engage them to respond to you. You may have previously worked as a crier or in a more formal barker capacity with Mistress Dusklight's Celestial Menagerie. Either way, your ability to bully a crowd is impressive.<br /></span></p>\n<p><span id=\"ctl00_MainContent_DetailedOutput\">Choose two ability boosts. One must be to <strong>Constitution</strong> or <strong>Charisma</strong>, and one is a free ability boost.<br /></span></p>\n<p><span id=\"ctl00_MainContent_DetailedOutput\">You're trained in the </span><u>Intimidation</u> skill, and the <u>Crowd Lore</u> skill. You gain the @Compendium[pf2e.feats-srd.Group Coercion]{Group Coercion} skill feat.</p>",
    "flags": {},
    "name": "Barker",
    "permission": {
        "default": 0
    }
}