{
    "_id": "ckPq968bni6JxpA6",
    "content": "<p><span id=\"ctl00_MainContent_DetailedOutput\">Bringing in lawbreakers lined your pockets. Maybe you had an altruistic motive and sought to bring in criminals to make the streets safer, or maybe the coin was motivation enough. Your techniques for hunting down criminals transfer easily to the life of an adventurer.<br /></span></p>\n<p><span id=\"ctl00_MainContent_DetailedOutput\">Choose two ability boosts. One must be to <strong>Strength</strong> or <strong>Wisdom</strong>, and one is a free ability boost.<br /></span></p>\n<p><span id=\"ctl00_MainContent_DetailedOutput\">You're trained in the Survival skill and the Legal Lore skill. You gain the @Compendium[pf2e.feats-srd.Experienced Tracker]{Experienced Tracker} skill feat.</span></p>",
    "flags": {},
    "name": "Bounty Hunter",
    "permission": {
        "default": 0
    }
}