{
    "_id": "fAibW4s5hrHEaLrT",
    "content": "<p>Whether you come from Westcrown or elsewhere, you hold the values of pre-Thrune Cheliax dear. You disdain the infernal government, but you are proud of your country and do not consider yourself a rebel.</p>\n<p>Choose two ability boosts. One must be to <strong>Strength</strong> or <strong>Charisma</strong>, and one is a free ability boost.</p>\n<p>You're trained in the Diplomacy skill and the Westcrown Lore skill. You gain the @Compendium[pf2e.feats-srd.Group Impression]{Group Impression} skill feat.</p>",
    "flags": {},
    "name": "Child of Westcrown",
    "permission": {
        "default": 0
    }
}