{
    "_id": "Vuzq4NkLghj6dy2c",
    "content": "<p><span id=\"ctl00_MainContent_DetailedOutput\">You solved crimes as a police inspector or took jobs for wealthy clients as a private investigator. You might have become an adventurer as part of your next big mystery, but likely it was due to the consequences or aftermath of a prior case.<br /></span></p>\n<p><span id=\"ctl00_MainContent_DetailedOutput\">Choose two ability boosts. One must be to <strong>Intelligence</strong> or <strong>Wisdom</strong>, and one is a free ability boost.<br /></span></p>\n<p><span id=\"ctl00_MainContent_DetailedOutput\">You're trained in the Society skill and the Underworld Lore skill. You gain the @Compendium[pf2e.feats-srd.Streetwise]{Streetwise} skill feat.</span></p>",
    "flags": {},
    "name": "Detective",
    "permission": {
        "default": 0
    }
}