{
    "_id": "VnoaNi40DBN0ZV8y",
    "content": "<p><span id=\"ctl00_MainContent_DetailedOutput\">In the chaotic rush of battle, you learned to adapt to rapidly changing conditions as you administered to battle casualties. You patched up soldiers, guards, or other combatants, and learned a fair amount about the logistics of war.<br /></span></p>\n<p><span id=\"ctl00_MainContent_DetailedOutput\">Choose two ability boosts. One must be to <strong>Constitution</strong> or <strong>Wisdom</strong>, and one is a free ability boost.<br /></span></p>\n<p><span id=\"ctl00_MainContent_DetailedOutput\">You're trained in the Medicine skill and the Warfare Lore skill. You gain the @Compendium[pf2e.feats-srd.Battle Medicine]{Battle Medicine} skill feat.</span></p>",
    "flags": {},
    "name": "Field Medic",
    "permission": {
        "default": 0
    }
}