{
    "_id": "9d5Mo7qNSpDyKWzY",
    "content": "<p><strong>Prerequisites</strong>: Leshy ancestry</p>\n<p>You are a leshy from Finadar Forest, originally created under the corruption of a cyclopean monolith. Though the Pathfinder Society managed to sever the monolith's connection, freeing the forest and your people from its influence, you retain a trace, unnerving connection to the Abyss.</p>\n<p>Choose two ability boosts. One must be to Constitution or Charisma, and one is a free ability boost.</p>\n<p>You're trained in the Intimidation skill and the Abyssal Lore skill. You gain the Intimidating Glare skill feat.</p>",
    "flags": {},
    "name": "Finadar Leshy",
    "permission": {
        "default": 0
    }
}
