{
    "_id": "huFMFGKbBoPB4bRc",
    "content": "<p><span id=\"ctl00_MainContent_DetailedOutput\">The bloody games of the arena taught you the art of combat. Before you attained true fame, you departed-or escaped-the arena to explore the world. Your skill at drawing both blood and a crowd's attention pay off in a new adventuring life.<br /></span></p>\n<p><span id=\"ctl00_MainContent_DetailedOutput\">Choose two ability boosts. One must be to <strong>Strength</strong> or <strong>Charisma</strong>, and one is a free ability boost.<br /></span></p>\n<p><span id=\"ctl00_MainContent_DetailedOutput\">You're trained in the Performance skill and the Gladiatorial Lore skill. You gain the @Compendium[pf2e.feats-srd.Impressive Performance]{Impressive Performance} skill feat.</span></p>",
    "flags": {},
    "name": "Gladiator",
    "permission": {
        "default": 0
    }
}