{
    "_id": "5vym5sPIxlDEEjGc",
    "content": "<p><span id=\"ctl00_MainContent_DetailedOutput\">You served in the guard, out of either patriotism or the need for coin. Either way, you know how to get a difficult suspect to talk. However you left the guard, you might think of adventuring as a way to use your skills on a wider stage.<br /></span></p>\n<p><span id=\"ctl00_MainContent_DetailedOutput\">Choose two ability boosts. One must be to <strong>Strength</strong> or <strong>Charisma</strong>, and one is a free ability boost.<br /></span></p>\n<p><span id=\"ctl00_MainContent_DetailedOutput\">You're trained in the</span> Intimidation skill, and the Legal Lore skill or Warfare Lore skill. You gain the @Compendium[pf2e.feats-srd.Quick Coercion]{Quick Coercion} skill feat.</p>",
    "flags": {},
    "name": "Guard",
    "permission": {
        "default": 0
    }
}