{
    "_id": "AbPoIrl7CUSenbL8",
    "content": "<p><span id=\"ctl00_MainContent_DetailedOutput\">As a formally trained apothecary or a rural practitioner of folk medicine, you learned the healing properties of various herbs. You're adept at collecting the right natural cures in all sorts of environments and preparing them properly.<br /></span></p>\n<p><span id=\"ctl00_MainContent_DetailedOutput\">Choose two ability boosts. One must be to <strong>Constitution</strong> or <strong>Wisdom</strong>, and one is a free ability boost.<br /></span></p>\n<p><span id=\"ctl00_MainContent_DetailedOutput\">You're trained in the Nature skill and the Herbalism Lore skill. You gain the @Compendium[pf2e.feats-srd.Natural Medicine]{Natural Medicine} skill feat.</span></p>",
    "flags": {},
    "name": "Herbalist",
    "permission": {
        "default": 0
    }
}