{
    "_id": "HmC4y8ENahNKp5Tl",
    "content": "<p>You grew up in an untamed region of the Isle of Kortos, and you know how to survive in the wild.</p>\n<p>Choose two ability boosts. One must be to <strong>Constitution</strong> or <strong>Wisdom</strong>, and one is a free ability boost.</p>\n<p>You're trained in the Survival skill and a Lore skill related to the terrain type associated with your home region (such as Hills Lore or Mountains Lore). You gain the @Compendium[pf2e.feats-srd.Survey Wildlife]{Survey Wildlife} skill feat.</p>",
    "flags": {},
    "name": "Inlander",
    "permission": {
        "default": 0
    }
}