{
    "_id": "hDUQWHMVi4pRh2D7",
    "content": "<p>You managed to escape the devastation that the Whispering Tyrant brought to your nation, but you lost everything to the lich-king's minions, including your home and many friends and family.</p>\n<p>Choose two ability boosts. One must be to <strong>Constitution</strong>  or <strong>Wisdom</strong>, and one is a free ability boost.</p>\n<p>You're trained in the Medicine skill and the Undead Lore skill. You gain the @Compendium[pf2e.feats-srd.Battle Medicine]{Battle Medicine} skill feat.</p>",
    "flags": {},
    "name": "Lastwall Survivor",
    "permission": {
        "default": 0
    }
}