{
    "_id": "LPZmM7UnWddi80gB",
    "content": "<p><span id=\"ctl00_MainContent_DetailedOutput\">You delight crowds by reading minds, telling futures, and contacting spirits. Although much of your work is misdirection and showmanship, your cons have inadvertently awakened a genuine awareness of magic in your mind. This new sense is both thrilling and frightening, and you hope that you can hone it further in the Circus of Wayward Wonders.<br /></span></p>\n<p><span id=\"ctl00_MainContent_DetailedOutput\">Choose two ability boosts. One must be to <strong>Intelligence</strong> or <strong>Wisdom</strong>, and one is a free ability boost.<br /></span></p>\n<p><span id=\"ctl00_MainContent_DetailedOutput\">You're trained in the Arcana skill and the Scam Lore skill. You gain the @Compendium[pf2e.feats-srd.Arcane Sense]{Arcane Sense} skill feat.</span></p>",
    "flags": {},
    "name": "Mystic Seer",
    "permission": {
        "default": 0
    }
}