{
    "_id": "O4BXvhZpMvpmQEUs",
    "content": "<p>Your initiations into the Nexian mysteries and the philosophies of the Arclords of Nex grant you a preternatural comprehension of the arcane underpinnings of existence.</p>\n<p>Choose two ability boosts. One must be to <strong>Intelligence</strong> or <strong>Wisdom</strong>, and one is a free ability boost.</p>\n<p>You're trained in the Arcana skill and a Lore skill related to one plane of your choice (other than the Material Plane). You gain the @Compendium[pf2e.feats-srd.Arcane Sense]{Arcane Sense} skill feat.</p>",
    "flags": {},
    "name": "Nexian Mystic",
    "permission": {
        "default": 0
    }
}