{
    "_id": "shwAcaWydDHBqR1X",
    "content": "<p>Whether you're a fascinated outsider or a local proud of your nation's storied past, you're a devoted student of Osirion's history. You might be a traveling professor, a member of a society like the Pathfinders or the Esoteric Order of the Palatine Eye, or even a simple tomb robber cashing in on the glories of the past.</p>\n<p>Choose two ability boosts. One must be to <strong>Constitution</strong>  or <strong>Intelligence</strong>, and one is a free ability boost.</p>\n<p>You're trained in the Occultism skill and the Ancient Osirion Lore skill. You gain the @Compendium[pf2e.feats-srd.Oddity Identification]{Oddity Identification} skill feat.</p>",
    "flags": {},
    "name": "Osirionologist",
    "permission": {
        "default": 0
    }
}