{
    "_id": "Axidv6oBgolUazAt",
    "content": "<p><span id=\"docs-internal-guid-f461245a-7fff-8353-4b68-857341efee49\">In your youth, you made several pilgrimages to important shrines and holy sites. You might have been a mendicant friar, a seller of holy relics (real or fraudulent), or just a simple farmer following the dictates of your faith. Whatever the aims of your wanderings now, your faith still protects you on the road. </span></p>\n<p><span id=\"docs-internal-guid-f461245a-7fff-8353-4b68-857341efee49\">Choose two ability boosts. One must be to <strong>Wisdom</strong> or <strong>Charisma</strong>, and one is a free ability boost. </span></p>\n<p><span id=\"docs-internal-guid-f461245a-7fff-8353-4b68-857341efee49\">You're trained in the Religion skill and the Lore skill for your patron deity. You gain the @Compendium[pf2e.feats-srd.Pilgrim's Token]{Pilgrim's Token} skill feat (page 208). </span></p>",
    "flags": {},
    "name": "Pilgrim",
    "permission": {
        "default": 0
    }
}