{
    "_id": "1bd25sY8k1moRcca",
    "content": "<p><span id=\"docs-internal-guid-fbd8b643-7fff-86d6-f2c9-d8ef6a302004\">Some ailments can't be cured by herbs alone. You learned ritual remedies as well, calling on nature spirits to soothe aches and ward off the evil eye. Taking up with adventurers has given you company on the road, as well as protection from those who would brand you a fake-or worse. </span></p>\n<p><span id=\"docs-internal-guid-fbd8b643-7fff-86d6-f2c9-d8ef6a302004\">Choose two ability boosts. One must be to <strong>Intelligence</strong> or <strong>Wisdom</strong>, and one is a free ability boost. </span></p>\n<p><span id=\"docs-internal-guid-fbd8b643-7fff-86d6-f2c9-d8ef6a302004\">You're trained in the Occultism skill and the Herbalism Lore skill. You gain the @Compendium[pf2e.feats-srd.Root Magic]{Root Magic} skill feat (page 208).</span></p>",
    "flags": {},
    "name": "Root Worker",
    "permission": {
        "default": 0
    }
}