{
    "_id": "uEoo4fcZvXj1IC39",
    "content": "<p><span id=\"ctl00_MainContent_DetailedOutput\">You heard the call of the sea from a young age. Perhaps you signed onto a merchant's vessel, joined the navy, or even fell in with a crew of pirates and scalawags.<br /></span></p>\n<p><span id=\"ctl00_MainContent_DetailedOutput\">Choose two ability boosts. One must be to <strong>Strength</strong> or <strong>Dexterity</strong>, and one is a free ability boost.<br /></span></p>\n<p><span id=\"ctl00_MainContent_DetailedOutput\">You're trained in the Athletics skill and the Sailing Lore skill. You gain the @Compendium[pf2e.feats-srd.Underwater Marauder]{Underwater Marauder} skill feat.</span></p>",
    "flags": {},
    "name": "Sailor",
    "permission": {
        "default": 0
    }
}