{
    "_id": "nhsqxxBfkcOMZBTp",
    "content": "<p>You are from Nidal, and regardless of your personal values, Zon-Kuthon has a claim on your soul due to an ancient pact. The Midnight Lord's unsettling influence is bred deep into your bones.</p>\n<p>Choose two ability boosts. One must be to <strong>Intelligence</strong> or <strong>Wisdom</strong>, and one is a free ability boost.</p>\n<p>You're trained in the Intimidation skill and the Shadow Plane Lore skill. You gain the @Compendium[pf2e.feats-srd.Quick Coercion]{Quick Coercion} skill feat.</p>",
    "flags": {},
    "name": "Shadow Haunted",
    "permission": {
        "default": 0
    }
}