{
    "_id": "At7nhCMEu2i2bKj9",
    "content": "<p>You are a member of a Shoanti quah and have gone through its coming of age ceremony, gaining the traditional tattoo of your quah and earning your adult name.</p>\n<p>Choose two ability boosts. One must be to <strong>Strength</strong> or <strong>Wisdom</strong>, and one is a free ability boost.</p>\n<p>You're trained in the Athletics skill and the Quah Lore skill. You gain the @Compendium[pf2e.feats-srd.Combat Climber]{Combat Climber} skill feat.</p>",
    "flags": {},
    "name": "Shoanti Name Bearer",
    "permission": {
        "default": 0
    }
}