{
    "_id": "psz1WHMGUNFOPG37",
    "content": "<p>You've managed to eke out an existence in the storm-wracked Sodden Lands and have become an expert at scavenging food and tools.</p>\n<p>Choose two ability boosts. One must be to <strong>Constitution</strong>  or <strong>Wisdom</strong>, and one is a free ability boost.</p>\n<p>You're trained in the Survival skill and the Swamp Lore skill. You gain the @Compendium[pf2e.feats-srd.Forager]{Forager} skill feat.</p>",
    "flags": {},
    "name": "Sodden Scavenger",
    "permission": {
        "default": 0
    }
}