{
    "_id": "qxvr3Hbv9Olk1EZF",
    "content": "<p><span id=\"docs-internal-guid-b591df53-7fff-f04c-5176-479d5d543fa9\">You trained at the feet of a knight, maintaining their gear and supporting them at tourneys and in battle. Now you search for a challenge that will prove you worthy of full knighthood, or you've spurned pomp and ceremony to test yourself in honest, albeit less formal, combat. </span></p>\n<p><span id=\"docs-internal-guid-b591df53-7fff-f04c-5176-479d5d543fa9\">Choose two ability boosts. One must be to <strong>Strength</strong> or <strong>Constitution</strong>, and one is a free ability boost. </span></p>\n<p><span id=\"docs-internal-guid-b591df53-7fff-f04c-5176-479d5d543fa9\">You're trained in the Athletics skill and your choice of the Heraldry Lore or Warfare Lore skill. You gain the @Compendium[pf2e.feats-srd.Armor Assist]{Armor Assist} skill feat (page 203).</span></p>",
    "flags": {},
    "name": "Squire",
    "permission": {
        "default": 0
    }
}