{
    "_id": "u13zJhBdawMYLGTk",
    "content": "<p>Through luck or through skill, you managed to survive a catastrophic maritime disaster, such as a shipwreck or being thrown overboard. You have a keen sense for weather or situations that are similar to the one you escaped.</p>\n<p>Choose two ability boosts. One must be to <strong>Strength</strong> or <strong>Wisdom</strong>, and one is a free ability boost.</p>\n<p>You're trained in the Survival skill and the Weather Lore skill. You gain the @Compendium[pf2e.feats-srd.Forager]{Forager} skill feat.</p>",
    "flags": {},
    "name": "Storm Survivor",
    "permission": {
        "default": 0
    }
}