{
    "_id": "PKVDSZaBcflUL1Za",
    "content": "<p>You have spent your youth wandering the lands of Varisia and beyond among the brightly painted wagons of a Varisian caravan. You have heard endless tales of your people's history and lore, and have learned many songs and stories from the disparate people you have met.</p>\n<p>Choose two ability boosts. One must be to <strong>Dexterity</strong> or <strong>Charisma</strong>, and one is a free ability boost.</p>\n<p>You're trained in the Performance skill and the Circus Lore skill. You gain the @Compendium[pf2e.feats-srd.Fascinating Performance]{Fascinating Performance} skill feat.</p>",
    "flags": {},
    "name": "Varisian Wanderer",
    "permission": {
        "default": 0
    }
}