{
    "_id": "FeYe3gQtkUsxpW1I",
    "content": "<p><span id=\"ctl00_MainContent_DetailedOutput\">In your younger days, you waded into battle as a mercenary, a warrior defending a nomadic people, or a member of a militia or army. You might have wanted to break out from the regimented structure of these forces, or you could have always been as independent a warrior as you are now.<br /></span></p>\n<p><span id=\"ctl00_MainContent_DetailedOutput\">Choose two ability boosts. One must be to <strong>Strength</strong> or <strong>Constitution</strong>, and one is a free ability boost.<br /></span></p>\n<p><span id=\"ctl00_MainContent_DetailedOutput\">You're trained in the </span><u>Intimidation</u> skill, and the <u>Warfare Lore</u> skill. You gain the @Compendium[pf2e.feats-srd.Intimidating Glare]{Intimidating Glare} skill feat.</p>",
    "flags": {},
    "name": "Warrior",
    "permission": {
        "default": 0
    }
}