{
    "_id": "kSaUlWgYMywIRV3C",
    "data": {
        "brokenThreshold": {
            "value": 0
        },
        "bulkCapacity": {
            "value": ""
        },
        "collapsed": {
            "value": false
        },
        "containerId": {
            "value": ""
        },
        "description": {
            "chat": "",
            "unidentified": "",
            "value": "<p>When you would die from the @Compendium[pf2e.conditionitems.Dying]{Dying} condition (typically at <a tabindex=\"0\" title=\"\" role=\"button\" data-trigger=\"focus\" data-toggle=\"popover\" data-boundary=\"window\" data-placement=\"auto\" data-html=\"true\" data-content=\"<p>You are bleeding out or otherwise at death's door. While you have this condition, you are unconscious. <em>Dying</em> always includes a value, and if it ever reaches <em>dying</em> 4, you die. If you're <em>dying</em>, you must attempt a recovery check (page 459) at the start of your turn each round to determine whether you get better or worse. Your <em>dying</em> condition increases by 1 if you take damage while <em>dying</em>, or by 2 if you take damage from an enemy's critical hit or a critical failure on your save.</p> <p>If you lose the <em>dying</em> condition by succeeding at a recovery check and are still at 0 Hit Points, you remain unconscious, but you can wake up as described in that condition. You lose the <em>dying</em> condition automatically and wake up if you ever have 1 Hit Point or more. Any time you lose the <em>dying</em> condition, you gain the wounded 1 condition, or increase your wounded condition value by 1 if you already have that condition.</p>\" data-original-title=\"<strong>condition: dying</strong>\">dying</a> 4), this aeon stone automatically activates and reduces your dying value to 1 less than would normally kill you (typically to dying 3). The stone then permanently turns into a dull gray aeon stone. You can benefit from this ability only once per day, even if you have multiple such stones.</p>\n<p>The resonant power allows you to cast 1st-level @Compendium[pf2e.spells-srd.Heal]{Heal} as a <a tabindex=\"0\" title=\"\" role=\"button\" data-trigger=\"focus\" data-toggle=\"popover\" data-boundary=\"window\" data-placement=\"auto\" data-html=\"true\" data-content=\"<p>The power of the <em>divine</em> is steeped in faith, the unseen, and belief in a power source from beyond the Material Plane. Clerics are the most iconic <em>divine</em> spellcasters, beseeching the gods to grant them their magic.</p> <p><em>Divine</em> sorcerers can use the blood of their celestial or fiendish ancestors as a <em>divine</em> conduit, and champions call upon their gods to grant them martial prowess through <em>divine</em> guidance.</p>\" data-original-title=\"<strong>magical tradition: divine</strong>\">divine</a> innate spell once per day.</p>"
        },
        "equipped": {
            "value": false
        },
        "equippedBulk": {
            "value": ""
        },
        "hardness": {
            "value": 0
        },
        "hp": {
            "value": 0
        },
        "identified": {
            "value": true
        },
        "invested": {
            "value": false
        },
        "level": {
            "value": "7"
        },
        "maxHp": {
            "value": 0
        },
        "negateBulk": {
            "value": "0"
        },
        "preciousMaterial": {
            "value": ""
        },
        "preciousMaterialGrade": {
            "value": ""
        },
        "price": {
            "value": "350 gp"
        },
        "quantity": {
            "value": "1"
        },
        "rarity": {
            "value": "common"
        },
        "rules": [],
        "source": {
            "value": ""
        },
        "stackGroup": {
            "value": ""
        },
        "traits": {
            "custom": "",
            "rarity": {
                "value": "uncommon"
            },
            "usage": {
                "value": "worn"
            },
            "value": [
                "invested",
                "magical",
                "transmutation"
            ]
        },
        "usage": {
            "value": "held-in-one-hand"
        },
        "weight": {
            "value": "-"
        }
    },
    "flags": {},
    "img": "systems/pf2e/icons/equipment/worn-items/other-worn-items/aeon-stone-tourmaline-sphere.jpg",
    "name": "Aeon Stone (Tourmaline Sphere)",
    "permission": {
        "default": 0
    },
    "type": "equipment"
}