{
    "_id": "qZUo5SmGxp5BlqFN",
    "data": {
        "brokenThreshold": {
            "value": 0
        },
        "bulkCapacity": {
            "value": ""
        },
        "collapsed": {
            "value": false
        },
        "containerId": {
            "value": ""
        },
        "description": {
            "chat": "",
            "unidentified": "",
            "value": "<p><span id=\"ctl00_MainContent_DetailedOutput\">Viciously sharp spiked chains wrap around this <a class=\"entity-link\" draggable=\"true\" data-pack=\"pf2e.equipment-srd\" data-id=\"ewQZ0VeL38v3qFnN\"> Studded Leather Armor</a> that can be used to magically harm the wearer and channel supernatural abilities without somehow tearing at the leather itself.<br /><br />The <em>barbed vest</em> doesn't fuse to you in the usual way. It can be removed and discarded, but 1 day after doing so, you feel driven to recollect the vest at any cost until the curse is removed with a <a class=\"entity-link\" draggable=\"true\" data-pack=\"pf2e.spells-srd\" data-id=\"OyFCwQuw8XRazsNr\"> Remove Curse</a> spell.<br /><br />Anytime you activate the <em>barbed vest</em>, its chains tighten around you, dealing <a class=\"inline-roll roll\" title=\"persistent piercing damage\" data-mode=\"roll\" data-flavor=\"persistent piercing damage\" data-formula=\"1d6\"> 1d6</a> persistent piercing damage. You can remove this persistent damage as normal, but only after deactivating the item's magic as a single action.<br /><br /><strong>Activate</strong> <span style=\"font-family: 'Pathfinder2eActions'; font-size: 1.8em; display: inline;\">2</span> Interact; </span></p>\n<p><span id=\"ctl00_MainContent_DetailedOutput\"><strong>Frequency</strong> once per day; </span></p>\n<p><span id=\"ctl00_MainContent_DetailedOutput\"><strong>Effect</strong> The <em>barbed vest</em> casts <a class=\"entity-link\" draggable=\"true\" data-pack=\"pf2e.spells-srd\" data-id=\"Fq9yCbqI2RDt6Orw\"> Spiritual Weapon</a>, summoning a <a class=\"entity-link\" draggable=\"true\" data-pack=\"pf2e.equipment-srd\" data-id=\"zi9ovfoRp2fMhfpO\"> Spiked Chain</a> to fight for you. </span></p>"
        },
        "equipped": {
            "value": false
        },
        "equippedBulk": {
            "value": "1"
        },
        "hardness": {
            "value": 0
        },
        "hp": {
            "value": 0
        },
        "identified": {
            "value": true
        },
        "invested": {
            "value": false
        },
        "level": {
            "value": "10"
        },
        "maxHp": {
            "value": 0
        },
        "negateBulk": {
            "value": "0"
        },
        "preciousMaterial": {
            "value": ""
        },
        "preciousMaterialGrade": {
            "value": ""
        },
        "price": {
            "value": "-"
        },
        "quantity": {
            "value": "1"
        },
        "rarity": {
            "value": "common"
        },
        "rules": [],
        "source": {
            "value": ""
        },
        "stackGroup": {
            "value": ""
        },
        "traits": {
            "custom": "",
            "rarity": {
                "value": "rare"
            },
            "usage": {
                "value": "held-in-one-hand"
            },
            "value": [
                "cursed",
                "invested",
                "magical",
                "necromancy"
            ]
        },
        "usage": {
            "value": "held-in-one-hand"
        },
        "weight": {
            "value": "2"
        }
    },
    "effects": [],
    "flags": {
        "core": {
            "sourceId": "Item.fSqYVm1grACDNaf9"
        }
    },
    "img": "systems/pf2e/icons/equipment/cursed-items/barbed-vest.jpg",
    "name": "Barbed Vest",
    "permission": {
        "default": 0
    },
    "type": "equipment"
}
