{
    "_id": "ifsBwfIhd6UcoUCI",
    "data": {
        "brokenThreshold": {
            "value": 0
        },
        "bulkCapacity": {
            "value": ""
        },
        "collapsed": {
            "value": false
        },
        "containerId": {
            "value": ""
        },
        "description": {
            "chat": "",
            "unidentified": "",
            "value": "<p>Different versions of this belt are customized to appear to suit specific trades, so a belt used for carpentry would look somewhat different than a belt for baking.</p>\n<p><strong>Activate</strong> <span style=\"font-family: 'Pathfinder2eActions'; font-size: 1.8em; display: inline;\">D</span> envision, Interact</p>\n<p><strong>Effect</strong> You place an object of up to 1 Bulk into the belt, transforming that object into a tool befitting the trade for which the belt was created. As long as there are enough transformed items, the belt can be used as artisan's tools for that trade.</p>\n<p>Each object remains transformed until it has been removed from the belt for 24 hours or someone uses a single Interact action to return it to its normal form.</p>"
        },
        "equipped": {
            "value": false
        },
        "equippedBulk": {
            "value": ""
        },
        "hardness": {
            "value": 0
        },
        "hp": {
            "value": 0
        },
        "identified": {
            "value": true
        },
        "invested": {
            "value": false
        },
        "level": {
            "value": "6"
        },
        "maxHp": {
            "value": 0
        },
        "negateBulk": {
            "value": ""
        },
        "preciousMaterial": {
            "value": ""
        },
        "preciousMaterialGrade": {
            "value": ""
        },
        "price": {
            "value": "220 gp"
        },
        "quantity": {
            "value": "1"
        },
        "rarity": {
            "value": "common"
        },
        "rules": [],
        "source": {
            "value": ""
        },
        "stackGroup": {
            "value": ""
        },
        "traits": {
            "custom": "",
            "rarity": {
                "value": "rare"
            },
            "usage": {
                "value": "wornbelt"
            },
            "value": [
                "invested",
                "magical",
                "transmutation"
            ]
        },
        "usage": {
            "value": "held-in-one-hand"
        },
        "weight": {
            "value": "1"
        }
    },
    "flags": {},
    "img": "systems/pf2e/icons/equipment/worn-items/other-worn-items/bellflower-toolbelt.jpg",
    "name": "Bellflower Toolbelt",
    "permission": {
        "default": 0
    },
    "type": "equipment"
}
