{
    "_id": "LDVqBvMNNcRBucW1",
    "data": {
        "brokenThreshold": {
            "value": 0
        },
        "bulkCapacity": {
            "value": ""
        },
        "collapsed": {
            "value": false
        },
        "containerId": {
            "value": ""
        },
        "description": {
            "chat": "",
            "unidentified": "",
            "value": "<p>A <em>bi-resonant wayfinder</em> is inlaid with intricate platinum wires in a complex array of conduits for magical energy. These conduits control the resonant interference of aeon stones.</p>\n<p>A <em>bi-resonant wayfinder</em> works just like a regular @Compendium[pf2e.equipment-srd.Wayfinder]{Wayfinder} except it has two aeon stone slots, and the aeon stones in both slots grant their resonant powers without interfering with each other. The <em>bi-resonant wayfinder</em> and the two aeon stones count as two items toward your investiture limit.</p>"
        },
        "equipped": {
            "value": false
        },
        "equippedBulk": {
            "value": ""
        },
        "hardness": {
            "value": 0
        },
        "hp": {
            "value": 0
        },
        "identified": {
            "value": true
        },
        "invested": {
            "value": false
        },
        "level": {
            "value": "6"
        },
        "maxHp": {
            "value": 0
        },
        "negateBulk": {
            "value": ""
        },
        "preciousMaterial": {
            "value": ""
        },
        "preciousMaterialGrade": {
            "value": ""
        },
        "price": {
            "value": "200 gp"
        },
        "quantity": {
            "value": "1"
        },
        "rarity": {
            "value": "common"
        },
        "rules": [],
        "source": {
            "value": ""
        },
        "stackGroup": {
            "value": ""
        },
        "traits": {
            "custom": "",
            "rarity": {
                "value": "uncommon"
            },
            "usage": {
                "value": "worn"
            },
            "value": [
                "evocation",
                "illusion",
                "invested",
                "magical"
            ]
        },
        "usage": {
            "value": "held-in-one-hand"
        },
        "weight": {
            "value": "-"
        }
    },
    "flags": {},
    "img": "systems/pf2e/icons/equipment/worn-items/other-worn-items/bi-resonant-wayfinder.jpg",
    "name": "Bi-Resonant Wayfinder",
    "permission": {
        "default": 0
    },
    "type": "equipment"
}