{
    "_id": "x04huvOBBXmExTDl",
    "data": {
        "activation": {
            "condition": "",
            "cost": 0,
            "type": ""
        },
        "autoDestroy": {
            "_deprecated": true,
            "value": true
        },
        "autoUse": {
            "_deprecated": true,
            "value": true
        },
        "brokenThreshold": {
            "value": 0
        },
        "bulkCapacity": {
            "value": ""
        },
        "charges": {
            "_deprecated": true,
            "max": "1",
            "value": "1"
        },
        "collapsed": {
            "value": false
        },
        "consumableType": {
            "value": "potion"
        },
        "consume": {
            "_deprecated": true,
            "value": "6d6"
        },
        "containerId": {
            "value": ""
        },
        "description": {
            "chat": "",
            "unidentified": "",
            "value": "<p>This liquid contains blood from a black dragon. For 1 hour after you imbibe the concoction, you can unleash a black dragon's breath weapon. The potency of the breath depends on the potion's type, based on the age of the dragon whose blood was used to make the potion.</p>\n<p>Exhaling dragon breath uses a single action. You create a 30-foot line of acid which deals <a class=\"inline-roll roll\" data-mode=\"roll\" data-flavor=\"\" data-formula=\"6d6\" title=\"6d6\"><i class=\"fas fa-dice-d20\"></i> 6d6</a> acid damage. All creatures in the area must attempt a DC 29 basic Reflex save.</p>\n<p>After you use the breath weapon, you can't do so again for <a class=\"inline-roll roll\" data-mode=\"roll\" data-flavor=\"\" data-formula=\"1d4\" title=\"1d4\"><i class=\"fas fa-dice-d20\"></i> 1d4</a> rounds.</p>"
        },
        "duration": {
            "units": "",
            "value": null
        },
        "equipped": {
            "value": false
        },
        "equippedBulk": {
            "value": ""
        },
        "hardness": {
            "value": 0
        },
        "hp": {
            "value": 0
        },
        "identified": {
            "value": true
        },
        "invested": {
            "value": false
        },
        "level": {
            "value": "12"
        },
        "maxHp": {
            "value": 0
        },
        "negateBulk": {
            "value": "0"
        },
        "preciousMaterial": {
            "value": ""
        },
        "preciousMaterialGrade": {
            "value": ""
        },
        "price": {
            "value": "400 gp"
        },
        "quantity": {
            "value": "1"
        },
        "range": {
            "long": null,
            "units": "",
            "value": null
        },
        "rarity": {
            "value": "common"
        },
        "rules": [],
        "source": {
            "value": ""
        },
        "stackGroup": {
            "value": ""
        },
        "target": {
            "type": "",
            "units": "",
            "value": null
        },
        "traits": {
            "custom": "",
            "rarity": {
                "value": "common"
            },
            "usage": {
                "value": "held-in-one-hand"
            },
            "value": [
                "consumable",
                "evocation",
                "magical",
                "potion"
            ]
        },
        "usage": {
            "value": "held-in-one-hand"
        },
        "uses": {
            "autoDestroy": true,
            "autoUse": true,
            "max": 0,
            "per": null,
            "value": 0
        },
        "weight": {
            "value": "L"
        }
    },
    "flags": {},
    "img": "systems/pf2e/icons/equipment/consumables/potions/black-dragons-breath-potion.jpg",
    "name": "Black Dragon's Breath Potion (Adult)",
    "permission": {
        "default": 0
    },
    "type": "consumable"
}
