{
    "_id": "br4eClrcGeLTL6Ba",
    "data": {
        "brokenThreshold": {
            "value": 0
        },
        "bulkCapacity": {
            "value": ""
        },
        "collapsed": {
            "value": false
        },
        "containerId": {
            "value": ""
        },
        "description": {
            "chat": "",
            "unidentified": "",
            "value": "<p>This platinum choker bears characters from three language's alphabet, and it gives knowledge of those languages and the associated culture's customs.</p>\n<p>You gain a +2 item bonus to Society checks and the ability to understand, speak, and write the chosen languages.</p>\n<p>Your excellent elocution reduces the DC of the flat check to perform an auditory action while deafened from 5 to 3.</p>\n<p><strong>Craft Requirements</strong> The choker bears characters from three languages and grants fluency in all three.</p>\n<hr>\n<p>Automatically applied effects:</p>\n<ul>\n<li>+2 item bonus to Society checks</li>\n</ul>"
        },
        "equipped": {
            "value": false
        },
        "equippedBulk": {
            "value": ""
        },
        "hardness": {
            "value": 0
        },
        "hp": {
            "value": 0
        },
        "identified": {
            "value": true
        },
        "invested": {
            "value": false
        },
        "level": {
            "value": "10"
        },
        "maxHp": {
            "value": 0
        },
        "negateBulk": {
            "value": "0"
        },
        "preciousMaterial": {
            "value": ""
        },
        "preciousMaterialGrade": {
            "value": ""
        },
        "price": {
            "value": "850 gp"
        },
        "quantity": {
            "value": "1"
        },
        "rarity": {
            "value": "common"
        },
        "rules": [
            {
                "key": "PF2E.RuleElement.FlatModifier",
                "selector": "society",
                "type": "item",
                "value": 2
            }
        ],
        "source": {
            "value": ""
        },
        "stackGroup": {
            "value": ""
        },
        "traits": {
            "custom": "",
            "rarity": {
                "value": "common"
            },
            "usage": {
                "value": "worncollar"
            },
            "value": [
                "enchantment",
                "invested",
                "magical"
            ]
        },
        "usage": {
            "value": "held-in-one-hand"
        },
        "weight": {
            "value": "L"
        }
    },
    "flags": {},
    "img": "systems/pf2e/icons/equipment/worn-items/other-worn-items/choker-of-elocution.jpg",
    "name": "Choker of Elocution (Greater)",
    "permission": {
        "default": 0
    },
    "type": "equipment"
}
