{
    "_id": "KlkPJgiCiHpuyNpv",
    "data": {
        "brokenThreshold": {
            "value": 0
        },
        "bulkCapacity": {
            "value": ""
        },
        "collapsed": {
            "value": false
        },
        "containerId": {
            "value": ""
        },
        "description": {
            "chat": "",
            "unidentified": "",
            "value": "<p>Chronicler wayfinders bear a mystical connection to the Pathfinder Chronicles themselves, granting them the ability to assist in situations where unusual lore is needed by drawing on lore from a particular topic. Each chronicler wayfinder is attuned to a specific Lore skill, chosen at the time of creation. In addition to the effects of a @Compendium[pf2e.equipment-srd.Wayfinder]{Wayfinder}, a chronicler wayfinder has the following activation.</p>\n<hr />\n<p><strong>Activate</strong> <span style=\"font-family: 'Pathfinder2eActions'; font-size: 1.8em; display: inline;\">A</span> Envision</p>\n<p><strong>Effect</strong> You tap into the Pathfinder Chronicles on the chronicler wayfinder's attuned topic, gaining the effects of a Recall Knowledge action with the chosen Lore skill. For the Lore check's modifier, use whichever is better of +12 or your own modifier, using your level as your proficiency bonus even if you're untrained in the attuned Lore skill.</p>"
        },
        "equipped": {
            "value": false
        },
        "equippedBulk": {
            "value": ""
        },
        "hardness": {
            "value": 0
        },
        "hp": {
            "value": 0
        },
        "identified": {
            "value": true
        },
        "invested": {
            "value": false
        },
        "level": {
            "value": "6"
        },
        "maxHp": {
            "value": 0
        },
        "negateBulk": {
            "value": "0"
        },
        "preciousMaterial": {
            "value": ""
        },
        "preciousMaterialGrade": {
            "value": ""
        },
        "price": {
            "value": "200 gp"
        },
        "quantity": {
            "value": "1"
        },
        "rarity": {
            "value": "common"
        },
        "rules": [],
        "source": {
            "value": ""
        },
        "stackGroup": {
            "value": ""
        },
        "traits": {
            "rarity": {
                "value": "uncommon"
            },
            "usage": {
                "value": "worn"
            },
            "value": []
        },
        "usage": {
            "value": "held-in-one-hand"
        },
        "weight": {
            "value": "-"
        }
    },
    "effects": [],
    "flags": {
        "core": {
            "sourceId": "Item.80lANbKbA3YwjyqS"
        }
    },
    "img": "systems/pf2e/icons/equipment/worn-items/other-worn-items/wayfinder.jpg",
    "name": "Chronicler Wayfinder",
    "permission": {
        "default": 0
    },
    "type": "equipment"
}