{
    "_id": "adNgRqqmkDDKhMRT",
    "data": {
        "description": {
            "chat": "",
            "unidentified": "",
            "value": "<div><strong>Armor</strong> hide armor<br /><strong>Weapons</strong> 4 javelins<br /><strong>Gear</strong> adventurer's pack, grappling hook<br /><strong>Options</strong>  @Compendium[pf2e.equipment-srd.Greataxe]{greataxe} (2 gp), @Compendium[pf2e.equipment-srd.Greatclub]{greatclub} (1 gp), @Compendium[pf2e.equipment-srd.Greatsword]{greatsword} (2 gp), or @Compendium[pf2e.equipment-srd.Battle Axe]{battle axe} and @Compendium[pf2e.equipment-srd.Steel Shield]{steel shield} (3 gp)</div>"
        },
        "equippedBulk": {
            "value": ""
        },
        "items": {
            "1am1x": {
                "id": "JNt7GmLCCVz5BiEI",
                "img": "systems/pf2e/icons/equipment/weapons/javelin.jpg",
                "isContainer": false,
                "items": {},
                "name": "Javelin",
                "pack": "pf2e.equipment-srd",
                "quantity": 4
            },
            "99ree": {
                "id": "AnwzlOs0njF9Jqnr",
                "img": "systems/pf2e/icons/equipment/armor/hide.jpg",
                "isContainer": false,
                "items": {},
                "name": "Hide",
                "pack": "pf2e.equipment-srd",
                "quantity": 1
            },
            "aa9k8": {
                "id": "6DCy7tEF1cxaIJMy",
                "img": "systems/pf2e/icons/equipment/adventuring-gear/grapling-hook.jpg",
                "isContainer": false,
                "items": {},
                "name": "Grappling Hook",
                "pack": "pf2e.equipment-srd",
                "quantity": 1
            },
            "zspks": {
                "id": "2req0jGaxz8hScdB",
                "img": "systems/pf2e/icons/equipment/adventuring-gear/adventurers-pack.jpg",
                "isContainer": true,
                "items": {},
                "name": "Adventurer's Pack",
                "pack": "pf2e.equipment-srd",
                "quantity": 1
            }
        },
        "price": {
            "value": "4 gp"
        },
        "rarity": {
            "value": "common"
        },
        "source": {
            "value": ""
        },
        "traits": {
            "custom": "",
            "rarity": {
                "value": "common"
            },
            "value": [
                "barbarian"
            ]
        },
        "usage": {
            "value": "held-in-one-hand"
        },
        "weight": {
            "value": "-"
        }
    },
    "effects": [],
    "flags": {},
    "img": "systems/pf2e/icons/equipment/adventuring-gear/classkit-barbarian.jpg",
    "name": "Class Kit (Barbarian)",
    "permission": {
        "default": 0
    },
    "type": "kit"
}