{
    "_id": "gCvGa77UZjhsbuOJ",
    "data": {
        "description": {
            "chat": "",
            "unidentified": "",
            "value": "<div><strong>Armor</strong> leather armor</div>\n<div><strong>Weapons</strong> 4 javelins, longspear</div>\n<div><strong>Gear</strong> adventurer's pack, holly and mistletoe</div>\n<div><strong>Options</strong> @Compendium[pf2e.equipment-srd.Healer's Tools]{healer's tools} (5 gp)</div>"
        },
        "equippedBulk": {
            "value": ""
        },
        "items": {
            "bs5r8": {
                "id": "4tIVTg9wj56RrveA",
                "img": "systems/pf2e/icons/equipment/armor/leather-armor.jpg",
                "isContainer": false,
                "items": {},
                "name": "Leather Armor",
                "pack": "pf2e.equipment-srd",
                "quantity": 1
            },
            "iktfr": {
                "id": "2req0jGaxz8hScdB",
                "img": "systems/pf2e/icons/equipment/adventuring-gear/adventurers-pack.jpg",
                "isContainer": true,
                "items": {},
                "name": "Adventurer's Pack",
                "pack": "pf2e.equipment-srd",
                "quantity": 1
            },
            "ps8tg": {
                "id": "QbOlqr4lSkeOEfty",
                "img": "systems/pf2e/icons/equipment/adventuring-gear/holly-and-mistletoe.jpg",
                "isContainer": false,
                "items": {},
                "name": "Holly and Mistletoe",
                "pack": "pf2e.equipment-srd",
                "quantity": 1
            },
            "rrupu": {
                "id": "aXuJh4i8HqSu6NYV",
                "img": "systems/pf2e/icons/equipment/weapons/longspear.jpg",
                "isContainer": false,
                "items": {},
                "name": "Longspear",
                "pack": "pf2e.equipment-srd",
                "quantity": 1
            },
            "wlnkn": {
                "id": "JNt7GmLCCVz5BiEI",
                "img": "systems/pf2e/icons/equipment/weapons/javelin.jpg",
                "isContainer": false,
                "items": {},
                "name": "Javelin",
                "pack": "pf2e.equipment-srd",
                "quantity": 4
            }
        },
        "price": {
            "value": "4 gp, 4 sp"
        },
        "rarity": {
            "value": "common"
        },
        "source": {
            "value": ""
        },
        "traits": {
            "custom": "",
            "rarity": {
                "value": "common"
            },
            "value": [
                "druid"
            ]
        },
        "usage": {
            "value": "held-in-one-hand"
        },
        "weight": {
            "value": "-"
        }
    },
    "effects": [],
    "flags": {},
    "img": "systems/pf2e/icons/equipment/adventuring-gear/classkit-druid.jpg",
    "name": "Class Kit (Druid)",
    "permission": {
        "default": 0
    },
    "type": "kit"
}