{
    "_id": "8YnlhfZSQ89FjDZ2",
    "data": {
        "brokenThreshold": {
            "value": 0
        },
        "bulkCapacity": {
            "value": ""
        },
        "collapsed": {
            "value": false
        },
        "containerId": {
            "value": ""
        },
        "description": {
            "chat": "",
            "unidentified": "",
            "value": "<p>This small pendant is usually shaped like a humanoid skull or small animal skull.</p>\n<p><strong>Activate</strong> <span style=\"font-family: 'Pathfinder2eActions'; font-size: 1.8em; display: inline;\">3</span> Interact;</p>\n<p><strong>Frequency</strong> three times per day;</p>\n<p><strong>Effect</strong> You become undetectable to undead creatures for 10 minutes. Undead can't see, hear, or smell you, nor detect you with sensory capabilities such as scent or tremorsense. A creature can attempt a single DC 18 Will saving throw to ignore this effect. If an undead has reason to believe that undetected opponents are present, it can still attempt to Seek or Strike you. If you attempt to use a positive spell to damage undead, use <em>Command Undead</em>, touch or damage an undead creature, or attack any creature while warded in this manner, the pendant's effects immediately end. An undead creature who observes you in this manner or one who succeeds at the Will save is immune to the corpseward pendant for 24 hours.</p>"
        },
        "equipped": {
            "value": false
        },
        "equippedBulk": {
            "value": ""
        },
        "hardness": {
            "value": 0
        },
        "hp": {
            "value": 0
        },
        "identified": {
            "value": true
        },
        "invested": {
            "value": false
        },
        "level": {
            "value": "5"
        },
        "maxHp": {
            "value": 0
        },
        "negateBulk": {
            "value": "0"
        },
        "preciousMaterial": {
            "value": ""
        },
        "preciousMaterialGrade": {
            "value": ""
        },
        "price": {
            "value": "150 gp"
        },
        "quantity": {
            "value": "1"
        },
        "rarity": {
            "value": "common"
        },
        "rules": [],
        "source": {
            "value": ""
        },
        "stackGroup": {
            "value": ""
        },
        "traits": {
            "custom": "",
            "rarity": {
                "value": "uncommon"
            },
            "usage": {
                "value": "wornamulet"
            },
            "value": [
                "abjuration",
                "invested",
                "magical"
            ]
        },
        "usage": {
            "value": "held-in-one-hand"
        },
        "weight": {
            "value": "-"
        }
    },
    "flags": {},
    "img": "systems/pf2e/icons/equipment/worn-items/other-worn-items/corpseward-pendant.jpg",
    "name": "Corpseward Pendant",
    "permission": {
        "default": 0
    },
    "type": "equipment"
}
