{
    "_id": "8qUja4YdvewN4es0",
    "data": {
        "activation": {
            "condition": "",
            "cost": 0,
            "type": ""
        },
        "autoDestroy": {
            "_deprecated": true,
            "value": true
        },
        "autoUse": {
            "_deprecated": true,
            "value": true
        },
        "brokenThreshold": {
            "value": 0
        },
        "bulkCapacity": {
            "value": ""
        },
        "charges": {
            "_deprecated": true,
            "max": "1",
            "value": "1"
        },
        "collapsed": {
            "value": false
        },
        "consumableType": {
            "value": "poison"
        },
        "consume": {
            "_deprecated": true,
            "value": null
        },
        "containerId": {
            "value": ""
        },
        "description": {
            "chat": "",
            "unidentified": "",
            "value": "<p><strong>Activate</strong> <span style=\"font-family: 'Pathfinder2eActions'; font-size: 1.8em; display: inline;\">2</span> Interact;</p>\n<p>This poison is made from toxic spores of death knell mushrooms, which are reduced to a gray powder and suffused with necromantic energy. If you're reduced to 0 Hit Points while under the effect of <em>death knell powder</em>, you must succeed at a DC 34 Will save or die (this is a death effect). If you die, a random creature adjacent to you is bolstered by your departing life force and gains 20 temporary HP and a +1 status bonus to attack and damage rolls for 10 minutes.</p>\n<hr />\n<p><span id=\"ctl00_MainContent_DetailedOutput\"><strong>Saving Throw</strong> DC 34 Fortitude; </span></p>\n<p><span id=\"ctl00_MainContent_DetailedOutput\"><strong>Maximum Duration</strong> 6 rounds; </span></p>\n<p><span id=\"ctl00_MainContent_DetailedOutput\"><strong>Stage 1</strong> [[/r 7d6 #poison]] poison damage (1 round); </span></p>\n<p><span id=\"ctl00_MainContent_DetailedOutput\"><strong>Stage 2</strong> [[/r 9d6 #poison]] poison damage (1 round); </span></p>\n<p><strong>Stage 3</strong> [[/r 12d6 #poison]] poison damage (1 round)</p>\n<hr />\n<p><span id=\"ctl00_MainContent_DetailedOutput\"><strong>Craft Requirements</strong> Supply one casting of @Compendium[pf2e.spells-srd.Death Knell]{Death Knell}.</span></p>"
        },
        "duration": {
            "units": "",
            "value": null
        },
        "equipped": {
            "value": false
        },
        "equippedBulk": {
            "value": ""
        },
        "hardness": {
            "value": 0
        },
        "hp": {
            "value": 0
        },
        "identified": {
            "value": true
        },
        "invested": {
            "value": false
        },
        "level": {
            "value": "14"
        },
        "maxHp": {
            "value": 0
        },
        "negateBulk": {
            "value": "0"
        },
        "preciousMaterial": {
            "value": ""
        },
        "preciousMaterialGrade": {
            "value": ""
        },
        "price": {
            "value": "625 gp"
        },
        "quantity": {
            "value": "1"
        },
        "range": {
            "long": null,
            "units": "",
            "value": null
        },
        "rarity": {
            "value": "common"
        },
        "rules": [],
        "source": {
            "value": ""
        },
        "stackGroup": {
            "value": ""
        },
        "target": {
            "type": "",
            "units": "",
            "value": null
        },
        "traits": {
            "custom": "",
            "rarity": {
                "value": "uncommon"
            },
            "usage": {
                "value": "held-in-one-hand"
            },
            "value": [
                "consumable",
                "divine",
                "injury",
                "poison"
            ]
        },
        "usage": {
            "value": "held-in-one-hand"
        },
        "uses": {
            "autoDestroy": true,
            "autoUse": true,
            "max": 0,
            "per": null,
            "value": 0
        },
        "weight": {
            "value": "L"
        }
    },
    "effects": [],
    "flags": {
        "core": {
            "sourceId": "Item.HR3oixjEIeeW8TvJ"
        }
    },
    "img": "systems/pf2e/icons/equipment/alchemical-items/alchemical-poisons/death-knell-powder.jpg",
    "name": "Death Knell Powder",
    "permission": {
        "default": 0
    },
    "type": "consumable"
}