{
    "_id": "DA3HgyEBGEbtRNOo",
    "data": {
        "brokenThreshold": {
            "value": 0
        },
        "bulkCapacity": {
            "value": ""
        },
        "collapsed": {
            "value": false
        },
        "containerId": {
            "value": ""
        },
        "description": {
            "chat": "",
            "unidentified": "",
            "value": "<p>You can pull a dueling cape you're wearing from your shoulder and wrap it around your arm with an @Compendium[pf2e.actionspf2e.Interact]{Interact} action.</p>\n<p>While wielding the dueling cape this way, the cape uses that arm and hand, and you can't hold anything else in that hand.</p>\n<p>While you do so, you can spend an action to hold it in a protective position, giving you a +1 circumstance bonus to AC and to Deception checks to @Compendium[pf2e.actionspf2e.Feint]{Feint} until the start of your next turn.</p>\n<p>@Compendium[pf2e.spell-effects.Effect: Dueling Cape]{Effect: Dueling Cape}</p>"
        },
        "equipped": {
            "value": false
        },
        "equippedBulk": {
            "value": ""
        },
        "hardness": {
            "value": 0
        },
        "hp": {
            "value": 0
        },
        "identified": {
            "value": true
        },
        "invested": {
            "value": false
        },
        "level": {
            "value": "0"
        },
        "maxHp": {
            "value": 0
        },
        "negateBulk": {
            "value": "0"
        },
        "preciousMaterial": {
            "value": ""
        },
        "preciousMaterialGrade": {
            "value": ""
        },
        "price": {
            "value": "5 sp"
        },
        "quantity": {
            "value": "1"
        },
        "rarity": {
            "value": "common"
        },
        "rules": [],
        "source": {
            "value": ""
        },
        "stackGroup": {
            "value": ""
        },
        "traits": {
            "rarity": {
                "value": "common"
            },
            "usage": {
                "value": "worncloak"
            },
            "value": []
        },
        "usage": {
            "value": "held-in-one-hand"
        },
        "weight": {
            "value": "L"
        }
    },
    "effects": [],
    "flags": {},
    "img": "systems/pf2e/icons/equipment/adventuring-gear/dueling-cape.jpg",
    "name": "Dueling Cape",
    "permission": {
        "default": 0
    },
    "type": "equipment"
}