{
    "_id": "kwo4VKC9Qkplusxs",
    "data": {
        "brokenThreshold": {
            "value": 0
        },
        "bulkCapacity": {
            "value": ""
        },
        "collapsed": {
            "value": false
        },
        "containerId": {
            "value": ""
        },
        "description": {
            "chat": "",
            "unidentified": "",
            "value": "<p><span>This enormous, multifaceted prism normally rests on a pedestal, eerily refracting many-colored lights even when no light source is present. In reality, the prism refracts the four magical essences into the visible spectrum. A creature adjacent to the prism can adjust its facets with an Interact action to change between two polarities. Two essences flow from two input streams into the prism, where the prism combines them into a single output stream; alternatively, a single essence flows from one input stream into the prism and is split into two output streams. A creature that enters and stays within an input essence stream for 1 minute is slowly encased in solid magic, at which point it is paralyzed until anyone reverses the prism's flow or finishes activating the prism. A creature stepping into an output essence stream is gently pushed back and out of the stream.<br></span></p>\n<p><span><strong>Activate</strong> <span style=\"font-family: 'Pathfinder2eActions'; font-size: 1.8em; display: inline;\">D</span> Interact; <strong>Effect</strong> You alter and rearrange the facets of the essence prism, adjusting the essences to select for a single quality, which might be associated with mental essence, like a personality trait; material essence, like a physical quality; vital essence, like a belief or instinct; or spiritual essence, like an alignment component such as good or lawful. You must succeed at a secret DC 30 skill check with a skill associated with a magical tradition that uses the essence you chose (for instance, Arcana or Occultism for mental essence, as arcane and occult magic both use mental essence). On a failure, you accidentally set the prism for some other quality.<br></span></p>\n<p><span><strong>Activate</strong> 1 minute (Interact); <strong>Requirements</strong> The prism has only one input stream, and a creature is encased in magic in the input stream; <strong>Effect</strong> Over the course of the next hour, the creature in the input stream has its essences refracted through the prism, creating two cocoons of magic in the output streams that each contain a new creature. At the end of the process, the original creature is gone, and the two new creatures break free of their cocoons. Each creature is part of the original, separated from the rest based on the last quality set by the prism's first activation. For instance, if you set the prism to &quot;good,&quot; one creature would have all the original creature's good aspects and the other would be the original creature's evil side. Unless you selected a physical quality, both new creatures look just like the original. The new creatures are usually 2 levels lower than the original, but if the original creature was strongly biased with respect to the quality you chose (for instance, if splitting out the good and evil side of a redeemer), the stronger creature is 1 level lower and the weaker creature is 3 or more levels lower. If calibrated correctly, this activation can also reverse the effect of the third activation.<br></span></p>\n<p><span><strong>Activate</strong> 1 minute (Interact); <strong>Requirements</strong> The prism has two input streams, and a creature is encased in magic in each of the input streams; <strong>Effect</strong> Over the course of the next hour, the essences of both creatures in the input streams are refracted through the prism, creating a cocoon of magic in the output stream that contains a new creature. At the end of the process, the original creatures are gone, and the new creature breaks free of its cocoon. The new creature is an amalgam of the originals, with a new personality blended from both, and is usually 1 or 2 levels higher than the higher level of the original creatures unless the lower-level creature was much weaker. This activation also reverses the effect of the second activation.</span></p>\n<p><span><strong>Destruction</strong> Forcing the <em>essence prism</em> to combine two incompatible demigods destroys the prism, though it might also result in a new divinity.</span></p>"
        },
        "equipped": {
            "value": false
        },
        "equippedBulk": {
            "value": ""
        },
        "hardness": {
            "value": 0
        },
        "hp": {
            "value": 0
        },
        "identified": {
            "value": true
        },
        "invested": {
            "value": false
        },
        "level": {
            "value": "28"
        },
        "maxHp": {
            "value": 0
        },
        "negateBulk": {
            "value": ""
        },
        "preciousMaterial": {
            "value": ""
        },
        "preciousMaterialGrade": {
            "value": ""
        },
        "price": {
            "value": ""
        },
        "quantity": {
            "value": "1"
        },
        "rarity": {
            "value": "common"
        },
        "source": {
            "value": ""
        },
        "stackGroup": {
            "value": ""
        },
        "traits": {
            "custom": "",
            "rarity": {
                "value": "unique"
            },
            "usage": {
                "value": "held-in-one-hand"
            },
            "value": [
                "artifact",
                "transmutation"
            ]
        },
        "usage": {
            "value": "held-in-one-hand"
        },
        "weight": {
            "value": "5"
        }
    },
    "flags": {},
    "img": "systems/pf2e/icons/equipment/artifacts/essence-prism.jpg",
    "name": "Essence Prism",
    "permission": {
        "default": 0
    },
    "type": "equipment"
}
