{
    "_id": "efFe4EK7ThUrH446",
    "data": {
        "activation": {
            "condition": "",
            "cost": 0,
            "type": ""
        },
        "autoDestroy": {
            "_deprecated": true,
            "label": "Destroy on Empty",
            "type": "Boolean",
            "value": true
        },
        "autoUse": {
            "_deprecated": true,
            "label": "Consume on Use",
            "type": "Boolean",
            "value": true
        },
        "brokenThreshold": {
            "value": 0
        },
        "bulkCapacity": {
            "value": ""
        },
        "charges": {
            "_deprecated": true,
            "label": "Charges",
            "max": 1,
            "type": "Number",
            "value": 1
        },
        "collapsed": {
            "value": false
        },
        "consumableType": {
            "label": "Consumable Type",
            "type": "String",
            "value": "other"
        },
        "consume": {
            "_deprecated": true,
            "label": "Roll on Consume",
            "type": "String",
            "value": "1d6"
        },
        "containerId": {
            "value": ""
        },
        "description": {
            "chat": "",
            "label": "Description",
            "type": "String",
            "unidentified": "",
            "value": "<p><span>This vial contains water blessed by a good deity. You activate a vial of <em>holy water</em> by throwing it as a Strike. It's a simple thrown weapon with a range increment of 20 feet. Unlike an alchemical bomb, it doesn't add the manipulate trait to the attack made with it.<br></span></p>\n<p><span><em>Holy water</em> deals 1d6 good damage and 1 good splash damage. It damages only fiends, undead, and creatures that have a weakness to good damage.<br></span></p>\n<p><span><strong>Activate</strong> <span style=\"font-family: 'Pathfinder2eActions'; font-size: 1.8em; display: inline;\">A</span> Strike</span></p>"
        },
        "duration": {
            "units": "",
            "value": null
        },
        "equipped": {
            "value": false
        },
        "equippedBulk": {
            "value": ""
        },
        "hardness": {
            "value": 0
        },
        "hp": {
            "value": 0
        },
        "identified": {
            "value": true
        },
        "invested": {
            "value": false
        },
        "level": {
            "label": "Item Level",
            "type": "Number",
            "value": 1
        },
        "maxHp": {
            "value": 0
        },
        "negateBulk": {
            "value": "0"
        },
        "preciousMaterial": {
            "value": ""
        },
        "preciousMaterialGrade": {
            "value": ""
        },
        "price": {
            "label": "Price",
            "type": "String",
            "value": "3 gp"
        },
        "quantity": {
            "label": "Quantity",
            "type": "Number",
            "value": 1
        },
        "range": {
            "long": null,
            "units": "",
            "value": null
        },
        "rarity": {
            "value": "common"
        },
        "source": {
            "label": "Source",
            "type": "String",
            "value": ""
        },
        "stackGroup": {
            "value": ""
        },
        "target": {
            "type": "",
            "units": "",
            "value": null
        },
        "traits": {
            "custom": "",
            "rarity": {
                "value": "common"
            },
            "usage": {
                "value": "held-in-one-hand"
            },
            "value": [
                "consumable",
                "divine",
                "good",
                "splash"
            ]
        },
        "usage": {
            "value": "held-in-one-hand"
        },
        "uses": {
            "autoDestroy": true,
            "autoUse": true,
            "max": 0,
            "per": null,
            "value": 0
        },
        "weight": {
            "label": "Bulk",
            "type": "Number",
            "value": "L"
        }
    },
    "flags": {},
    "img": "systems/pf2e/icons/equipment/consumables/other-consumables/holy-water.jpg",
    "name": "Holy Water",
    "permission": {
        "default": 0
    },
    "type": "consumable"
}
