{
    "_id": "SUbYk6B1iPoGyyjh",
    "data": {
        "armor": {
            "value": "2"
        },
        "armorType": {
            "value": "shield"
        },
        "brokenThreshold": {
            "value": 45
        },
        "bulkCapacity": {
            "value": ""
        },
        "check": {
            "value": "0"
        },
        "collapsed": {
            "value": false
        },
        "containerId": {
            "value": ""
        },
        "description": {
            "chat": "",
            "unidentified": "",
            "value": "<p>An indestructible shield is a high-grade adamantine shield (Hardness 13, HP 90) that can withstand just about any damage. It can be damaged only by a disintegrate spell (roll damage as if against a creature that failed its save) or by an artifact tied to destruction, such as a sphere of annihilation.</p>\n<hr />\n<p><span><strong>Craft Requirements</strong> The raw materials must include at least 4,400 gp of adamantine.</span></p>"
        },
        "dex": {
            "value": "0"
        },
        "equipped": {
            "value": false
        },
        "equippedBulk": {
            "value": ""
        },
        "group": {
            "value": ""
        },
        "hardness": {
            "value": 13
        },
        "hp": {
            "value": 90
        },
        "identified": {
            "value": true
        },
        "invested": {
            "value": false
        },
        "level": {
            "value": "18"
        },
        "maxHp": {
            "value": 90
        },
        "negateBulk": {
            "value": "0"
        },
        "potencyRune": {
            "value": ""
        },
        "preciousMaterial": {
            "value": "adamantine"
        },
        "preciousMaterialGrade": {
            "value": "high"
        },
        "price": {
            "value": "24,000 gp"
        },
        "property1": {
            "critDamage": "",
            "critDamageType": "",
            "critDice": 0,
            "critDie": "",
            "damageType": "",
            "dice": 0,
            "die": "",
            "value": ""
        },
        "property2": {
            "critDamage": "",
            "critDamageType": "",
            "critDice": 0,
            "critDie": "",
            "damageType": "",
            "dice": 0,
            "die": "",
            "value": ""
        },
        "property3": {
            "critDamage": "",
            "critDamageType": "",
            "critDice": 0,
            "critDie": "",
            "damageType": "",
            "dice": 0,
            "die": "",
            "value": ""
        },
        "propertyRune1": {
            "value": ""
        },
        "propertyRune2": {
            "value": ""
        },
        "propertyRune3": {
            "value": ""
        },
        "propertyRune4": {
            "value": ""
        },
        "quantity": {
            "value": "1"
        },
        "rarity": {
            "value": "common"
        },
        "resiliencyRune": {
            "value": ""
        },
        "source": {
            "value": ""
        },
        "speed": {
            "value": "0"
        },
        "stackGroup": {
            "value": ""
        },
        "strength": {
            "value": "0"
        },
        "traits": {
            "custom": "",
            "rarity": {
                "value": "rare"
            },
            "value": [
                "abjuration",
                "magical"
            ]
        },
        "usage": {
            "value": "held-in-one-hand"
        },
        "weight": {
            "value": "1"
        }
    },
    "flags": {},
    "img": "systems/pf2e/icons/equipment/shields/specific-shields/indestructible-shield.jpg",
    "name": "Indestructible Shield",
    "permission": {
        "default": 0
    },
    "type": "armor"
}
