{
    "_id": "Vz7nITDWjrXmyoJn",
    "data": {
        "MAP": {
            "value": ""
        },
        "ability": {
            "label": "Offensive Ability",
            "type": "String",
            "value": "str"
        },
        "bonus": {
            "label": "Item Bonus",
            "type": "String",
            "value": 0
        },
        "bonusDamage": {
            "value": 0
        },
        "brokenThreshold": {
            "value": 0
        },
        "bulkCapacity": {
            "value": ""
        },
        "collapsed": {
            "value": false
        },
        "containerId": {
            "value": ""
        },
        "damage": {
            "damageType": "slashing",
            "dice": 1,
            "die": "d8",
            "label": "damage",
            "type": "String",
            "value": ""
        },
        "description": {
            "chat": "",
            "label": "Description",
            "type": "String",
            "unidentified": "",
            "value": "<p>The hilt of this +3 major striking @Compendium[pf2e.equipment-srd.Axiomatic]{Axiomatic} @Compendium[pf2e.equipment-srd.Spell-Storing]{Spell-Storing} longsword is simple and elegant. The blade itself is made of throneglass-a clear, jewellike crafting material with a razor-sharp edge, capable of absorbing psychic magic and redirecting it at the wielder's enemies. Whenever the Kortos Diamond is in an area of dim or brighter light, it glows faintly, as if reflecting the light of a setting sun.</p>\n<p>While wielding the Kortos Diamond, you gain a +2 item bonus on saving throws against mental effects. You can never harm yourself with the Kortos Diamond, even if confused.</p>\n<p>If you ever travel farther than 100 miles from the Isle of Kortos while in possession of the Kortos Diamond, the sword becomes impossibly heavy; you are encumbered as long as you carry the sword and remain outside of this area. If you relinquish the Kortos Diamond while away from Kortos, the sword gradually makes its way back to the isle over the course of a year.</p>\n<p><strong>Activate</strong> (Single Action) Interact; <strong>Effect</strong> You attempt a melee Strike with the Kortos Diamond against a creature within reach. On a hit, you deal damage as normal and the target's mind is inflicted with a powerful disruptive energy. When the creature attempts to Cast a Spell, it must attempt a DC 44 Will save; on a failure, the spell fails and both the spell and the actions spent to cast it are lost. This effect lasts for up to 1 minute.</p>\n<hr />\n<p><strong>Activate</strong> (Free Action) envision</p>\n<p><strong>Frequency</strong> once per round</p>\n<p><strong>Trigger</strong> You damage an aberration with the Kortos Diamond</p>\n<p><strong>Effect</strong> You deal an additional [[/r 2d8]] force damage to the struck creature.</p>\n<hr />\n<p><strong>Activate</strong> (Two Actions) command, Interact</p>\n<p><strong>Frequency</strong> once per day</p>\n<p><strong>Effect</strong> You hold the Kortos Diamond aloft and proclaim your might in a booming voice. You cast @Compendium[pf2e.spells-srd.Overwhelming Presence]{Overwhelming Presence} (DC 42).</p>\n<hr />\n<p><strong>Destruction</strong> A deity who ascended to divinity via the Test of the Starstone can damage and destroy the Kortos Diamond as if it were not an artifact.</p>\n<hr />\n<p>Automatically applied effects:</p>\n<ul>\n<li>+2 item bonus on saving throws against mental effects</li>\n</ul>"
        },
        "equipped": {
            "value": false
        },
        "equippedBulk": {
            "value": ""
        },
        "group": {
            "label": "Weapon Group",
            "type": "String",
            "value": "sword"
        },
        "hands": {
            "label": "Hands",
            "type": "String",
            "value": ""
        },
        "hardness": {
            "value": 0
        },
        "hp": {
            "value": 0
        },
        "identified": {
            "value": true
        },
        "invested": {
            "value": false
        },
        "level": {
            "label": "Item Level",
            "type": "Number",
            "value": 22
        },
        "maxHp": {
            "value": 0
        },
        "negateBulk": {
            "value": "0"
        },
        "potencyRune": {
            "value": "3"
        },
        "preciousMaterial": {
            "value": ""
        },
        "preciousMaterialGrade": {
            "value": ""
        },
        "price": {
            "label": "Price",
            "type": "String",
            "value": ""
        },
        "property1": {
            "critDamage": "",
            "critDamageType": "",
            "critDice": null,
            "critDie": "",
            "criticalConditionType": "",
            "criticalConditionValue": null,
            "damageType": "",
            "dice": null,
            "die": "",
            "label": "Primary Property",
            "strikeConditionType": "",
            "strikeConditionValue": null,
            "type": "String",
            "value": ""
        },
        "property2": {
            "critDamage": "",
            "critDamageType": "",
            "critDice": 0,
            "critDie": "",
            "damageType": "",
            "dice": 0,
            "die": "",
            "label": "Secondary Property",
            "type": "String",
            "value": ""
        },
        "property3": {
            "critDamage": "",
            "critDamageType": "",
            "critDice": 0,
            "critDie": "",
            "damageType": "",
            "dice": 0,
            "die": "",
            "label": "Tertiary Property",
            "type": "String",
            "value": ""
        },
        "propertyRune1": {
            "value": "axiomatic"
        },
        "propertyRune2": {
            "value": "spellStoring"
        },
        "propertyRune3": {
            "value": ""
        },
        "propertyRune4": {
            "value": ""
        },
        "quantity": {
            "label": "Quantity",
            "type": "Number",
            "value": 1
        },
        "range": {
            "label": "Weapon Range",
            "type": "String",
            "value": "melee"
        },
        "rarity": {
            "value": "common"
        },
        "reload": {
            "label": "Reload",
            "type": "String",
            "value": ""
        },
        "rules": [
            {
                "key": "PF2E.RuleElement.FlatModifier",
                "label": "Kortos Diamond (vs. mental)",
                "predicate": {
                    "all": [
                        "mental"
                    ]
                },
                "selector": "saving-throw",
                "type": "item",
                "value": 2
            }
        ],
        "source": {
            "label": "Source",
            "type": "String",
            "value": ""
        },
        "splashDamage": {
            "value": null
        },
        "stackGroup": {
            "value": ""
        },
        "strikingRune": {
            "value": "majorStriking"
        },
        "traits": {
            "custom": "",
            "label": "Weapon Traits",
            "rarity": {
                "value": "unique"
            },
            "type": "String",
            "value": [
                "artifact",
                "divine",
                "evocation",
                "versatile-p"
            ]
        },
        "usage": {
            "value": "held-in-one-hand"
        },
        "weaponType": {
            "label": "Weapon Category",
            "type": "String",
            "value": "martial"
        },
        "weight": {
            "label": "Bulk",
            "type": "Number",
            "value": "1"
        }
    },
    "effects": [],
    "flags": {},
    "img": "systems/pf2e/icons/equipment/artifacts/kortos-diamond.jpg",
    "name": "Kortos Diamond",
    "permission": {
        "default": 0
    },
    "type": "weapon"
}