{
    "_id": "vHZSx5f093Wrivzn",
    "data": {
        "armor": {
            "label": "AC Bonus",
            "type": "Number",
            "value": 2
        },
        "armorType": {
            "label": "Armor Category",
            "type": "String",
            "value": "light"
        },
        "brokenThreshold": {
            "value": null
        },
        "bulkCapacity": {
            "value": ""
        },
        "check": {
            "label": "Check Penalty",
            "type": "String",
            "value": "-1"
        },
        "collapsed": {
            "value": false
        },
        "containerId": {
            "value": ""
        },
        "description": {
            "chat": "",
            "label": "Description",
            "type": "String",
            "unidentified": "",
            "value": "<p><span>This <em>+1 silver chain </em>shirt has a collar adorned with stitched images of the phases of the moon. You can see in moonlight as though you had low-light vision.<br /></span></p>\n<p><span><strong>Activate</strong> <span style=\"font-family: 'Pathfinder2eActions'; font-size: 1.8em; display: inline;\">A</span> Interact; <strong>Frequency</strong> one per day; <strong>Effect</strong> You touch the stitched image of the new moon on the armor's collar and suppress the dazzled condition for 1 minute. <br /></span></p>\n<p><span><strong>Craft Requirements</strong> The initial raw materials must include 33 gp of silver.</span></p>"
        },
        "dex": {
            "label": "Dex Modifier Cap",
            "type": "String",
            "value": "3"
        },
        "equipped": {
            "label": "Equipped",
            "type": "Boolean",
            "value": false
        },
        "equippedBulk": {
            "value": "2"
        },
        "group": {
            "label": "Group",
            "type": "String",
            "value": "chain"
        },
        "hardness": {
            "value": null
        },
        "hp": {
            "value": null
        },
        "identified": {
            "value": true
        },
        "invested": {
            "value": false
        },
        "level": {
            "label": "Item Level",
            "type": "Number",
            "value": 7
        },
        "maxHp": {
            "value": null
        },
        "negateBulk": {
            "value": "0"
        },
        "potency": {
            "label": "Armor Potency",
            "type": "String"
        },
        "potencyRune": {
            "value": "1"
        },
        "preciousMaterial": {
            "value": "silver"
        },
        "preciousMaterialGrade": {
            "value": "low"
        },
        "price": {
            "label": "Price",
            "type": "String",
            "value": "360 gp"
        },
        "property1": {
            "critDamage": "",
            "critDamageType": "",
            "critDice": 0,
            "critDie": "",
            "damageType": "",
            "dice": 0,
            "die": "",
            "label": "Property Rune 1",
            "type": "Number",
            "value": ""
        },
        "property2": {
            "critDamage": "",
            "critDamageType": "",
            "critDice": 0,
            "critDie": "",
            "damageType": "",
            "dice": 0,
            "die": "",
            "label": "Property Rune 2",
            "type": "Number",
            "value": ""
        },
        "property3": {
            "critDamage": "",
            "critDamageType": "",
            "critDice": 0,
            "critDie": "",
            "damageType": "",
            "dice": 0,
            "die": "",
            "label": "Property Rune 3",
            "type": "Number",
            "value": ""
        },
        "propertyRune1": {
            "value": ""
        },
        "propertyRune2": {
            "value": ""
        },
        "propertyRune3": {
            "value": ""
        },
        "propertyRune4": {
            "value": ""
        },
        "quantity": {
            "label": "Quantity",
            "type": "Number",
            "value": 1
        },
        "rarity": {
            "value": "common"
        },
        "resiliencyRune": {
            "value": ""
        },
        "resilient": {
            "label": "Resilient",
            "type": "String"
        },
        "source": {
            "label": "Source",
            "type": "String",
            "value": ""
        },
        "speed": {
            "label": "Speed Penalty",
            "type": "String",
            "value": ""
        },
        "stackGroup": {
            "value": ""
        },
        "strength": {
            "label": "Required Strength",
            "type": "String",
            "value": "12"
        },
        "traits": {
            "custom": "",
            "label": "Traits",
            "rarity": {
                "value": "common"
            },
            "type": "String",
            "value": [
                "divination",
                "flexible",
                "invested",
                "magical",
                "noisy"
            ]
        },
        "usage": {
            "value": "held-in-one-hand"
        },
        "weight": {
            "label": "Bulk",
            "type": "Number",
            "value": "3"
        }
    },
    "flags": {},
    "img": "systems/pf2e/icons/equipment/armor/specific-magic-armor/moonlit-chain.jpg",
    "name": "Moonlit Chain",
    "permission": {
        "default": 0
    },
    "type": "armor"
}
