{
    "_id": "GDSclGF1yk0sw86V",
    "data": {
        "armor": {
            "label": "AC Bonus",
            "type": "Number",
            "value": 4
        },
        "armorType": {
            "label": "Armor Category",
            "type": "String",
            "value": "medium"
        },
        "brokenThreshold": {
            "value": null
        },
        "bulkCapacity": {
            "value": ""
        },
        "check": {
            "label": "Check Penalty",
            "type": "String",
            "value": "-2"
        },
        "collapsed": {
            "value": false
        },
        "containerId": {
            "value": ""
        },
        "description": {
            "chat": "",
            "label": "Description",
            "type": "String",
            "unidentified": "",
            "value": "<p><span class=\"fontstyle0\">This +1 resilient breastplate is constructed from the salvaged armor plating of one of Numeria's large robots. It protects the wearer from harsh elements and common laser fire, granting the wearer fire resistance 5.</span></p>\n<p><span class=\"fontstyle0\"><strong>Activate</strong> <span style=\"font-family: 'Pathfinder2eActions'; font-size: 1.8em; display: inline;\">1</span> command; </span></p>\n<p><span class=\"fontstyle0\"><strong>Frequency</strong> once per day; </span></p>\n<p><span class=\"fontstyle0\"><strong>Effect</strong> You activate the remnants of mysterious technology within the breastplate to encase yourself in an electric field. For 1 minute, adjacent creatures that hit you with a melee Strike, as well as creatures that touch you or hit you with an unarmed attack, take [[/r 1d10]] electricity damage per hit.</span></p>"
        },
        "dex": {
            "label": "Dex Modifier Cap",
            "type": "String",
            "value": "1"
        },
        "equipped": {
            "label": "Equipped",
            "type": "Boolean",
            "value": false
        },
        "equippedBulk": {
            "value": "2"
        },
        "group": {
            "label": "Group",
            "type": "String",
            "value": "plate"
        },
        "hardness": {
            "value": null
        },
        "hp": {
            "value": null
        },
        "identified": {
            "value": true
        },
        "invested": {
            "value": false
        },
        "level": {
            "label": "Item Level",
            "type": "Number",
            "value": 10
        },
        "maxHp": {
            "value": null
        },
        "negateBulk": {
            "value": "0"
        },
        "potency": {
            "label": "Armor Potency",
            "type": "String"
        },
        "potencyRune": {
            "value": "1"
        },
        "preciousMaterial": {
            "value": ""
        },
        "preciousMaterialGrade": {
            "value": ""
        },
        "price": {
            "label": "Price",
            "type": "String",
            "value": "900 gp"
        },
        "property1": {
            "critDamage": "",
            "critDamageType": "",
            "critDice": 0,
            "critDie": "",
            "damageType": "",
            "dice": 0,
            "die": "",
            "label": "Property Rune 1",
            "type": "Number",
            "value": ""
        },
        "property2": {
            "critDamage": "",
            "critDamageType": "",
            "critDice": 0,
            "critDie": "",
            "damageType": "",
            "dice": 0,
            "die": "",
            "label": "Property Rune 2",
            "type": "Number",
            "value": ""
        },
        "property3": {
            "critDamage": "",
            "critDamageType": "",
            "critDice": 0,
            "critDie": "",
            "damageType": "",
            "dice": 0,
            "die": "",
            "label": "Property Rune 3",
            "type": "Number",
            "value": ""
        },
        "propertyRune1": {
            "value": ""
        },
        "propertyRune2": {
            "value": ""
        },
        "propertyRune3": {
            "value": ""
        },
        "propertyRune4": {
            "value": ""
        },
        "quantity": {
            "label": "Quantity",
            "type": "Number",
            "value": 1
        },
        "rarity": {
            "value": "common"
        },
        "resiliencyRune": {
            "value": "resilient"
        },
        "resilient": {
            "label": "Resilient",
            "type": "String"
        },
        "rules": [],
        "source": {
            "label": "Source",
            "type": "String",
            "value": ""
        },
        "speed": {
            "label": "Speed Penalty",
            "type": "String",
            "value": "-5 ft"
        },
        "stackGroup": {
            "value": ""
        },
        "strength": {
            "label": "Required Strength",
            "type": "String",
            "value": "16"
        },
        "traits": {
            "label": "Traits",
            "rarity": {
                "value": "common"
            },
            "type": "String",
            "value": ""
        },
        "usage": {
            "value": "held-in-one-hand"
        },
        "weight": {
            "label": "Bulk",
            "type": "Number",
            "value": "3"
        }
    },
    "effects": [],
    "flags": {},
    "img": "systems/pf2e/icons/equipment/armor/specific-magic-armor/numerian-steel-breastplate.jpg",
    "name": "Numerian Steel Breastplate",
    "permission": {
        "default": 0
    },
    "type": "armor"
}
