{
    "_id": "sZxPKnLtspXPRDNb",
    "data": {
        "brokenThreshold": {
            "value": 0
        },
        "bulkCapacity": {
            "value": ""
        },
        "collapsed": {
            "value": false
        },
        "containerId": {
            "value": ""
        },
        "description": {
            "chat": "",
            "unidentified": "",
            "value": "<p>This coin usually resembles ancient currency. An intricate matrix of gold and platinum wires inside the coin causes it to float an inch in the air and spin if placed on a wayfinder.</p>\n<p><strong>Activate</strong> <span style=\"font-family: 'Pathfinder2eActions'; font-size: 1.8em; display: inline;\">A</span> command; <strong>Requirements</strong> The coin is levitating above a @Compendium[pf2e.equipment-srd.Wayfinder]{Wayfinder}</p>\n<p><strong>Effect</strong><em> Y</em>ou give the coin a message of 25 words or fewer. The message repeats in your voice the next time the coin is floated above a <em>wayfinder</em>. A <em>Pathfinder's coin</em> can hold only one message at a time, and it replays its message only once.<em> </em></p>"
        },
        "equipped": {
            "value": false
        },
        "equippedBulk": {
            "value": ""
        },
        "hardness": {
            "value": 0
        },
        "hp": {
            "value": 0
        },
        "identified": {
            "value": true
        },
        "invested": {
            "value": false
        },
        "level": {
            "value": "2"
        },
        "maxHp": {
            "value": 0
        },
        "negateBulk": {
            "value": ""
        },
        "preciousMaterial": {
            "value": ""
        },
        "preciousMaterialGrade": {
            "value": ""
        },
        "price": {
            "value": "30 gp"
        },
        "quantity": {
            "value": "1"
        },
        "rarity": {
            "value": "common"
        },
        "rules": [],
        "source": {
            "value": ""
        },
        "stackGroup": {
            "value": ""
        },
        "traits": {
            "custom": "",
            "rarity": {
                "value": "uncommon"
            },
            "usage": {
                "value": "held-in-one-hand"
            },
            "value": [
                "illusion",
                "magical"
            ]
        },
        "usage": {
            "value": "held-in-one-hand"
        },
        "weight": {
            "value": "-"
        }
    },
    "effects": [],
    "flags": {},
    "img": "systems/pf2e/icons/equipment/held-items/pathfinderss-coin.jpg",
    "name": "Pathfinder's Coin",
    "permission": {
        "default": 0
    },
    "type": "equipment"
}
