{
    "_id": "oSltacqbeotmzLNJ",
    "data": {
        "brokenThreshold": {
            "value": 0
        },
        "bulkCapacity": {
            "value": ""
        },
        "collapsed": {
            "value": false
        },
        "containerId": {
            "value": ""
        },
        "description": {
            "chat": "",
            "unidentified": "",
            "value": "<p><span>This heavy iron ring is shaped to look like the head of a ram, with curling horns.<br></span></p>\n<p><span><strong>Activate</strong> <span style=\"font-family: 'Pathfinder2eActions'; font-size: 1.8em; display: inline;\">A</span> or more (Interact); <strong>Frequency</strong> once per minute; <strong>Effect</strong> A ram-shaped blast of force slams into one foe that you can see within 60 feet. The number of actions you spend to Activate this Item (from 1 to 3) determines the intensity of the force. The blow deals 3d6 force damage per action spent and pushes the target 5 feet per action spent. The target must attempt a DC 32 Fortitude save. </span></p>\n<p><span>When you activate the ring using 3 actions, you can disperse the force into multiple magical rams, targeting all creatures in a 30-foot cone instead of one target within 60 feet.<br></span></p>\n<p><span><strong>Critical Success</strong> The target is unaffected.<br><strong>Success</strong> The target takes half damage and is pushed half the distance.<br><strong>Failure</strong> The target takes full damage and is pushed the full distance.<br><strong>Critical Failure</strong> The target takes double damage and is pushed twice the distance.</span></p>"
        },
        "equipped": {
            "value": false
        },
        "equippedBulk": {
            "value": ""
        },
        "hardness": {
            "value": 0
        },
        "hp": {
            "value": 0
        },
        "identified": {
            "value": true
        },
        "invested": {
            "value": false
        },
        "level": {
            "value": "13"
        },
        "maxHp": {
            "value": 0
        },
        "negateBulk": {
            "value": "0"
        },
        "preciousMaterial": {
            "value": ""
        },
        "preciousMaterialGrade": {
            "value": ""
        },
        "price": {
            "value": "2,700 gp"
        },
        "quantity": {
            "value": "1"
        },
        "rarity": {
            "value": "common"
        },
        "source": {
            "value": ""
        },
        "stackGroup": {
            "value": ""
        },
        "traits": {
            "custom": "",
            "rarity": {
                "value": "common"
            },
            "usage": {
                "value": "worn"
            },
            "value": [
                "evocation",
                "force",
                "invested",
                "magical"
            ]
        },
        "usage": {
            "value": "held-in-one-hand"
        },
        "weight": {
            "value": "-"
        }
    },
    "flags": {},
    "img": "systems/pf2e/icons/equipment/worn-items/other-worn-items/ring-of-the-ram.jpg",
    "name": "Ring of the Ram (Greater)",
    "permission": {
        "default": 0
    },
    "type": "equipment"
}
