{
    "_id": "nLvP7U50hLqz26Uy",
    "data": {
        "brokenThreshold": {
            "value": 0
        },
        "bulkCapacity": {
            "value": ""
        },
        "collapsed": {
            "value": false
        },
        "containerId": {
            "value": ""
        },
        "description": {
            "chat": "",
            "unidentified": "",
            "value": "<p><span>This ring seems like simple tarnished brass, but it enhances your curiosity about traps and devices of all kinds. You can use an Interact action to pull a set of thieves' tools from the ring. These tools appear in your hand and fold back into the ring if they would leave your possession. They grant you a +2 item bonus to Thievery checks to Disable a Device and to Pick a Lock, and the ring's insights grant you the same bonus to Crafting checks to Craft and Repair snares and traps.<br></span></p>\n<p><span><strong>Activate</strong> 10 minutes (Interact); <strong>Frequency</strong> once per day; <strong>Effect</strong> You create a 4th-level @Compendium[pf2e.spells-srd.Glyph of Warding]{Glyph of Warding} containing @Compendium[pf2e.spells-srd.Fireball]{Fireball}. You can have only one <em>glyph of warding</em> from a <em>ring of maniacal devices</em> active at a time, even if you have multiple rings, and the spell ends if you lose your investiture in the ring.</span></p>"
        },
        "equipped": {
            "value": false
        },
        "equippedBulk": {
            "value": ""
        },
        "hardness": {
            "value": 0
        },
        "hp": {
            "value": 0
        },
        "identified": {
            "value": true
        },
        "invested": {
            "value": false
        },
        "level": {
            "value": "11"
        },
        "maxHp": {
            "value": 0
        },
        "negateBulk": {
            "value": ""
        },
        "preciousMaterial": {
            "value": ""
        },
        "preciousMaterialGrade": {
            "value": ""
        },
        "price": {
            "value": "1,175 gp"
        },
        "quantity": {
            "value": "1"
        },
        "rarity": {
            "value": "common"
        },
        "source": {
            "value": ""
        },
        "stackGroup": {
            "value": ""
        },
        "traits": {
            "custom": "",
            "rarity": {
                "value": "common"
            },
            "usage": {
                "value": "worn"
            },
            "value": [
                "divination",
                "invested",
                "magical"
            ]
        },
        "usage": {
            "value": "held-in-one-hand"
        },
        "weight": {
            "value": "-"
        }
    },
    "flags": {},
    "img": "systems/pf2e/icons/equipment/worn-items/other-worn-items/ring-of-maniacal-devices.jpg",
    "name": "Ring of Maniacal Devices",
    "permission": {
        "default": 0
    },
    "type": "equipment"
}