{
    "_id": "QFAHoE7FJ9TPCGWL",
    "data": {
        "brokenThreshold": {
            "value": 0
        },
        "bulkCapacity": {
            "value": ""
        },
        "collapsed": {
            "value": false
        },
        "containerId": {
            "value": ""
        },
        "description": {
            "chat": "",
            "unidentified": "",
            "value": "<p>By using a rubbing set, you can quickly make a copy of carvings or etchings you find during your explorations, making them easier to accurately reproduce. This kit consists of a roll of thin onion-skin paper in a waterproof leather case, several thick wax crayons, and a bar of sealing wax that can be melted and used to temporarily hold the paper in place while you take the rubbing. Using the kit consumes the materials and provides a +1 item bonus on checks to document or reproduce artwork or writing that has been carved, etched, or otherwise physically added to a surface.</p>"
        },
        "equipped": {
            "value": false
        },
        "equippedBulk": {
            "value": ""
        },
        "hardness": {
            "value": 0
        },
        "hp": {
            "value": 0
        },
        "identified": {
            "value": true
        },
        "invested": {
            "value": false
        },
        "level": {
            "value": "0"
        },
        "maxHp": {
            "value": 0
        },
        "negateBulk": {
            "value": "0"
        },
        "preciousMaterial": {
            "value": ""
        },
        "preciousMaterialGrade": {
            "value": ""
        },
        "price": {
            "value": "1 gp"
        },
        "quantity": {
            "value": "1"
        },
        "rarity": {
            "value": "common"
        },
        "rules": [],
        "source": {
            "value": ""
        },
        "stackGroup": {
            "value": ""
        },
        "traits": {
            "rarity": {
                "value": "uncommon"
            },
            "usage": {
                "value": "held-in-two-hands"
            },
            "value": []
        },
        "usage": {
            "value": "held-in-one-hand"
        },
        "weight": {
            "value": "1"
        }
    },
    "effects": [],
    "flags": {
        "core": {
            "sourceId": "Item.odyXOSMUAuUYelMn"
        }
    },
    "img": "systems/pf2e/icons/equipment/adventuring-gear/rubbing-set.jpg",
    "name": "Rubbing Set",
    "permission": {
        "default": 0
    },
    "type": "equipment"
}
