{
    "_id": "A7TCZXIwyxdqYSas",
    "data": {
        "brokenThreshold": {
            "value": 0
        },
        "bulkCapacity": {
            "value": ""
        },
        "collapsed": {
            "value": false
        },
        "containerId": {
            "value": ""
        },
        "description": {
            "chat": "",
            "unidentified": "",
            "value": "<p><span>In true Iroran form, the simplicity of this small, inverted copper bell belies its flawlessness. When struck with a mallet (included with the singing bowl), it emits a harmonious tone that inspires bodily perfection in those who know how to hear it.<br></span></p>\n<p><span><strong>Activate</strong> <span style=\"font-family: 'Pathfinder2eActions'; font-size: 1.8em; display: inline;\">A</span> Interact (auditory); <strong>Effect</strong> While holding the <em>singing bowl of the versatile stance</em> with one hand, you strike the lip of it with a mallet held in the other. Anyone within 60 feet currently in a stance can spend a reaction to use one of their stance actions in order to change to a different stance. </span></p>"
        },
        "equipped": {
            "value": false
        },
        "equippedBulk": {
            "value": ""
        },
        "hardness": {
            "value": 0
        },
        "hp": {
            "value": 0
        },
        "identified": {
            "value": true
        },
        "invested": {
            "value": false
        },
        "level": {
            "value": "11"
        },
        "maxHp": {
            "value": 0
        },
        "negateBulk": {
            "value": ""
        },
        "preciousMaterial": {
            "value": ""
        },
        "preciousMaterialGrade": {
            "value": ""
        },
        "price": {
            "value": "1,175 gp"
        },
        "quantity": {
            "value": "1"
        },
        "rarity": {
            "value": "common"
        },
        "source": {
            "value": ""
        },
        "stackGroup": {
            "value": ""
        },
        "traits": {
            "custom": "",
            "rarity": {
                "value": "uncommon"
            },
            "usage": {
                "value": "held-in-one-hand"
            },
            "value": [
                "enchantment",
                "magical"
            ]
        },
        "usage": {
            "value": "held-in-one-hand"
        },
        "weight": {
            "value": "L"
        }
    },
    "flags": {},
    "img": "systems/pf2e/icons/equipment/held-items/singing-bowl-of-the-versatile-stance.jpg",
    "name": "Singing Bowl of the Versatile Stance",
    "permission": {
        "default": 0
    },
    "type": "equipment"
}
