{
    "_id": "x4l3JjePzROLDSK6",
    "data": {
        "brokenThreshold": {
            "value": 0
        },
        "bulkCapacity": {
            "value": ""
        },
        "collapsed": {
            "value": false
        },
        "containerId": {
            "value": ""
        },
        "description": {
            "chat": "",
            "unidentified": "",
            "value": "<p>These folding, wood-framed spectacles hold flat discs of cut crystal as lenses and are held in place with thin cords that wrap around each ear, with another strap holding them around the neck while not in use. While you are wearing the spectacles, you gain a +1 item bonus to checks to Decipher Writing.</p>\n<hr>\n<p><strong> Activate</strong> <span style=\"font-family: 'Pathfinder2eActions'; font-size: 1.8em; display: inline;\">A</span> Interact;</p>\n<p><strong>Frequency</strong> once per day;</p>\n<p><strong>Effect</strong> Unfolding the spectacles onto the bridge of the nose, you gain the effects of 2nd-level <a class=\"entity-link\" draggable=\"true\" data-pack=\"pf2e.spells-srd\" data-id=\"vTQvfYu2llKQedmY\"><i class=\"fas fa-suitcase\"></i> Comprehend Language</a> for one hour except that it applies to all languages you see rather than a single language, and it does not apply to language you hear.</p>"
        },
        "equipped": {
            "value": false
        },
        "equippedBulk": {
            "value": ""
        },
        "hardness": {
            "value": 0
        },
        "hp": {
            "value": 0
        },
        "identified": {
            "value": true
        },
        "invested": {
            "value": false
        },
        "level": {
            "value": "5"
        },
        "maxHp": {
            "value": 0
        },
        "negateBulk": {
            "value": "0"
        },
        "preciousMaterial": {
            "value": ""
        },
        "preciousMaterialGrade": {
            "value": ""
        },
        "price": {
            "value": "130 gp"
        },
        "quantity": {
            "value": "1"
        },
        "rarity": {
            "value": "common"
        },
        "rules": [],
        "source": {
            "value": ""
        },
        "stackGroup": {
            "value": ""
        },
        "traits": {
            "rarity": {
                "value": "uncommon"
            },
            "usage": {
                "value": "worneyepiece"
            },
            "value": []
        },
        "usage": {
            "value": "held-in-one-hand"
        },
        "weight": {
            "value": "-"
        }
    },
    "effects": [],
    "flags": {
        "core": {
            "sourceId": "Item.uvuGAyvAdlTx9gEB"
        }
    },
    "img": "systems/pf2e/icons/equipment/worn-items/other-worn-items/spectacles-of-understanding.jpg",
    "name": "Spectacles of Understanding",
    "permission": {
        "default": 0
    },
    "type": "equipment"
}
