{
    "_id": "aAGjV3wkopQ44VX3",
    "data": {
        "activation": {
            "condition": "",
            "cost": 0,
            "type": ""
        },
        "autoDestroy": {
            "_deprecated": true,
            "value": true
        },
        "autoUse": {
            "_deprecated": true,
            "value": true
        },
        "brokenThreshold": {
            "value": 0
        },
        "bulkCapacity": {
            "value": ""
        },
        "charges": {
            "_deprecated": true,
            "max": "1",
            "value": "1"
        },
        "collapsed": {
            "value": false
        },
        "consumableType": {
            "value": "ammo"
        },
        "consume": {
            "_deprecated": true,
            "value": ""
        },
        "containerId": {
            "value": ""
        },
        "description": {
            "chat": "",
            "unidentified": "",
            "value": "<p><span>Mystic patterns create a magic reservoir within this ammunition. You activate <em>spellstrike ammunition</em> by Casting a Spell into the ammunition. The spell must be of a spell level the ammunition can hold, and the spell must be able to target a creature other than the caster. A creature hit by activated <em>spellstrike ammunition</em> is targeted by the spell. If the creature isn't a valid target for the spell, the spell is lost.<br></span></p>\n<p><span>The ammunition affects only the target hit, even if the spell would normally affect more than one target. If the spell requires a spell attack roll, use the result of your ranged attack roll with the ammunition to determine the degree of success of the spell. If the spell requires a saving throw, the target attempts the save against your spell DC.<br></span></p>\n<p><span>The maximum level of spell the ammunition can hold determines its item level and Price.<br></span></p>\n<p><span><strong>Activate</strong> <span style=\"font-family: 'Pathfinder2eActions'; font-size: 1.8em; display: inline;\">D</span> Cast a Spell</span></p>\n<p><span>Maximum Spell Level 9th</span></p>"
        },
        "duration": {
            "units": "",
            "value": null
        },
        "equipped": {
            "value": false
        },
        "equippedBulk": {
            "value": ""
        },
        "hardness": {
            "value": 0
        },
        "hp": {
            "value": 0
        },
        "identified": {
            "value": true
        },
        "invested": {
            "value": false
        },
        "level": {
            "value": "19"
        },
        "maxHp": {
            "value": 0
        },
        "negateBulk": {
            "value": "0"
        },
        "preciousMaterial": {
            "value": ""
        },
        "preciousMaterialGrade": {
            "value": ""
        },
        "price": {
            "value": "8,000 gp"
        },
        "quantity": {
            "value": "1"
        },
        "range": {
            "long": null,
            "units": "",
            "value": null
        },
        "rarity": {
            "value": "common"
        },
        "source": {
            "value": ""
        },
        "stackGroup": {
            "value": ""
        },
        "target": {
            "type": "",
            "units": "",
            "value": null
        },
        "traits": {
            "custom": "",
            "rarity": {
                "value": "common"
            },
            "usage": {
                "value": "held-in-one-hand"
            },
            "value": [
                "consumable",
                "magical",
                "transmutation"
            ]
        },
        "usage": {
            "value": "held-in-one-hand"
        },
        "uses": {
            "autoDestroy": true,
            "autoUse": true,
            "max": 0,
            "per": null,
            "value": 0
        },
        "weight": {
            "value": "-"
        }
    },
    "flags": {},
    "img": "systems/pf2e/icons/equipment/consumables/ammunition/spellstrike-ammunition.jpg",
    "name": "Spellstrike Ammunition (Type IX)",
    "permission": {
        "default": 0
    },
    "type": "consumable"
}
