{
    "_id": "dRVDcmkaB2p8zPcs",
    "data": {
        "brokenThreshold": {
            "value": 0
        },
        "bulkCapacity": {
            "value": ""
        },
        "collapsed": {
            "value": false
        },
        "containerId": {
            "value": ""
        },
        "description": {
            "chat": "",
            "unidentified": "",
            "value": "<p><span>Woven from swaths of rich brocade silk and embroidered with ancient Azlanti script in golden thread, this stole imparts a noble appearance to even the homeliest of individuals when draped over the shoulders. While wearing a stole of civility, you receive a +2 item bonus to Diplomacy checks to Make an Impression with humans or Make a Request of humans, and a +2 item bonus to Intimidation checks against humans. The stole also grants you full understanding of the Azlanti language.<br></span></p>\n<p><span><strong>Activate</strong> <span style=\"font-family: 'Pathfinder2eActions'; font-size: 1.8em; display: inline;\">A</span> envision; <strong>Frequency</strong> once per day; <strong>Requirements</strong> you are a human; <strong>Effect</strong> You gain 10 temporary Hit Points, which last for 10 minutes. </span></p>"
        },
        "equipped": {
            "value": false
        },
        "equippedBulk": {
            "value": ""
        },
        "hardness": {
            "value": 0
        },
        "hp": {
            "value": 0
        },
        "identified": {
            "value": true
        },
        "invested": {
            "value": false
        },
        "level": {
            "value": "9"
        },
        "maxHp": {
            "value": 0
        },
        "negateBulk": {
            "value": ""
        },
        "preciousMaterial": {
            "value": ""
        },
        "preciousMaterialGrade": {
            "value": ""
        },
        "price": {
            "value": "700 gp"
        },
        "quantity": {
            "value": "1"
        },
        "rarity": {
            "value": "common"
        },
        "source": {
            "value": ""
        },
        "stackGroup": {
            "value": ""
        },
        "traits": {
            "custom": "",
            "rarity": {
                "value": "uncommon"
            },
            "usage": {
                "value": "held-in-one-hand"
            },
            "value": [
                "enchantment",
                "invested",
                "magical"
            ]
        },
        "usage": {
            "value": "held-in-one-hand"
        },
        "weight": {
            "value": "L"
        }
    },
    "flags": {},
    "img": "systems/pf2e/icons/equipment/worn-items/other-worn-items/stole-of-civility.jpg",
    "name": "Stole of Civility",
    "permission": {
        "default": 0
    },
    "type": "equipment"
}
