{
    "_id": "2VpuNz8EyXpvUf7P",
    "data": {
        "brokenThreshold": {
            "value": 0
        },
        "bulkCapacity": {
            "value": ""
        },
        "collapsed": {
            "value": false
        },
        "containerId": {
            "value": ""
        },
        "description": {
            "chat": "",
            "unidentified": "",
            "value": "<p><span id=\"ctl00_MainContent_DetailedOutput\">This gold necklace sports six bails, each with a different aeon stone. The backside of each bail is engraved with a single ancient Azlanti rune: Patience, Remembrance, Resilience, Tenacity, Wisdom, Invention.<br></span></p>\n<p><span id=\"ctl00_MainContent_DetailedOutput\">While a bail is active, you recall pieces of childhood memories, brief stories and lessons spoken to you by Aroden. The knowledge imparted by each bail carries a specific power but also allows you to access the invested and resonant powers of the <em>aeon stone</em> in the active bail's slot as though the stone orbited your head. Each day at dawn, a new bail becomes active; roll 1d6 to determine which bail is active, determined by the table below. Only one bail can be active at any time. <br></span></p>\n<p><span id=\"ctl00_MainContent_DetailedOutput\">Once per day, you can attempt to exchange the aeon stone in a given bail for another aeon stone with a successful DC 35 Arcana check.<br></span></p>\n<table style=\"width: 378px; user-select: text; color: #191813; font-size: 13px; height: 239px;\" border=\"1\">\n<tbody style=\"box-sizing: border-box; user-select: text;\">\n<tr style=\"box-sizing: border-box; user-select: text; height: 17px;\">\n<td style=\"box-sizing: border-box; user-select: text; color: white; height: 17px; width: 40px; text-align: center; background-color: #522e2c;\"><strong style=\"box-sizing: border-box; user-select: text;\">1D6</strong></td>\n<td style=\"box-sizing: border-box; user-select: text; color: white; width: 106px; text-align: center; background-color: #522e2c; height: 17px;\"><strong style=\"box-sizing: border-box; user-select: text;\">Bail</strong></td>\n<td style=\"box-sizing: border-box; user-select: text; color: white; width: 231px; text-align: center; background-color: #522e2c; height: 17px;\"><strong style=\"box-sizing: border-box; user-select: text;\">Default Aeon Stone</strong></td>\n</tr>\n<tr style=\"box-sizing: border-box; user-select: text; height: 17px;\">\n<td style=\"box-sizing: border-box; user-select: text; height: 17px; width: 40px; text-align: center; background-color: #f6f1e1;\">1</td>\n<td style=\"box-sizing: border-box; user-select: text; width: 106px; text-align: center; background-color: #f6f1e1; height: 17px;\">Patience</td>\n<td style=\"box-sizing: border-box; user-select: text; width: 231px; text-align: center; background-color: #f6f1e1; height: 17px;\"><span id=\"ctl00_MainContent_DetailedOutput\">Gold nodule</span></td>\n</tr>\n<tr style=\"height: 19px;\">\n<td style=\"box-sizing: border-box; user-select: text; width: 40px; text-align: center; background-color: #eee5c8; height: 19px;\"> </td>\n<td style=\"box-sizing: border-box; user-select: text; width: 337px; text-align: center; background-color: #eee5c8; height: 19px;\" colspan=\"2\"><span id=\"ctl00_MainContent_DetailedOutput\"><strong>Active Power</strong>: Telepathy with a range of 100 feet</span></td>\n</tr>\n<tr style=\"box-sizing: border-box; user-select: text; height: 17px;\">\n<td style=\"box-sizing: border-box; user-select: text; height: 17px; width: 40px; text-align: center; background-color: #f6f1e1;\">2</td>\n<td style=\"box-sizing: border-box; user-select: text; width: 106px; text-align: center; background-color: #f6f1e1; height: 17px;\">Rememberance</td>\n<td style=\"box-sizing: border-box; user-select: text; width: 231px; text-align: center; background-color: #f6f1e1; height: 17px;\"><span id=\"ctl00_MainContent_DetailedOutput\">Tourmaline sphere</span></td>\n</tr>\n<tr style=\"height: 19px;\">\n<td style=\"box-sizing: border-box; user-select: text; width: 40px; text-align: center; background-color: #eee5c8; height: 19px;\"> </td>\n<td style=\"box-sizing: border-box; user-select: text; width: 337px; text-align: center; background-color: #eee5c8; height: 19px;\" colspan=\"2\"><span id=\"ctl00_MainContent_DetailedOutput\"><strong>Active Power</strong>: Cast @Compendium[pf2e.spells-srd.Hypercognition]{Hypercognition} at will</span></td>\n</tr>\n<tr style=\"box-sizing: border-box; user-select: text; height: 17px;\">\n<td style=\"box-sizing: border-box; user-select: text; height: 17px; width: 40px; text-align: center; background-color: #f6f1e1;\">3</td>\n<td style=\"box-sizing: border-box; user-select: text; width: 106px; text-align: center; background-color: #f6f1e1; height: 17px;\">Resilience</td>\n<td style=\"box-sizing: border-box; user-select: text; width: 231px; text-align: center; background-color: #f6f1e1; height: 17px;\"><span id=\"ctl00_MainContent_DetailedOutput\">Clear spindle</span></td>\n</tr>\n<tr style=\"height: 19px;\">\n<td style=\"box-sizing: border-box; user-select: text; width: 40px; text-align: center; background-color: #eee5c8; height: 19px;\"> </td>\n<td style=\"box-sizing: border-box; user-select: text; width: 337px; text-align: center; background-color: #eee5c8; height: 19px;\" colspan=\"2\"><span id=\"ctl00_MainContent_DetailedOutput\"><strong>Active Power</strong>: Worn armor gains the antimagic property rune</span></td>\n</tr>\n<tr style=\"box-sizing: border-box; user-select: text; height: 19px;\">\n<td style=\"box-sizing: border-box; user-select: text; height: 19px; width: 40px; text-align: center; background-color: #f6f1e1;\">4</td>\n<td style=\"box-sizing: border-box; user-select: text; width: 106px; text-align: center; background-color: #f6f1e1; height: 19px;\">Tenacity</td>\n<td style=\"box-sizing: border-box; user-select: text; width: 231px; text-align: center; background-color: #f6f1e1; height: 19px;\"><span id=\"ctl00_MainContent_DetailedOutput\">Pink rhomboid</span></td>\n</tr>\n<tr style=\"height: 19px;\">\n<td style=\"box-sizing: border-box; user-select: text; width: 40px; text-align: center; background-color: #eee5c8; height: 19px;\"> </td>\n<td style=\"box-sizing: border-box; user-select: text; width: 337px; text-align: center; background-color: #eee5c8; height: 19px;\" colspan=\"2\"><span id=\"ctl00_MainContent_DetailedOutput\"><strong>Active Power</strong>: Wielded weapons gain the vorpal property rune</span></td>\n</tr>\n<tr style=\"height: 19px;\">\n<td style=\"box-sizing: border-box; user-select: text; width: 40px; text-align: center; background-color: #f6f1e1; height: 19px;\">5</td>\n<td style=\"box-sizing: border-box; user-select: text; width: 106px; text-align: center; background-color: #f6f1e1; height: 19px;\">Wisdom</td>\n<td style=\"box-sizing: border-box; user-select: text; width: 231px; text-align: center; background-color: #f6f1e1; height: 19px;\"><span id=\"ctl00_MainContent_DetailedOutput\">Orange prism</span></td>\n</tr>\n<tr style=\"height: 19px;\">\n<td style=\"box-sizing: border-box; user-select: text; width: 40px; text-align: center; background-color: #eee5c8; height: 19px;\"> </td>\n<td style=\"box-sizing: border-box; user-select: text; width: 337px; text-align: center; background-color: #eee5c8; height: 19px;\" colspan=\"2\"><span id=\"ctl00_MainContent_DetailedOutput\"><strong>Active Power</strong>: Skill checks for downtime activities or to Recall Knowledge are one degree of success higher</span></td>\n</tr>\n<tr style=\"height: 19px;\">\n<td style=\"box-sizing: border-box; user-select: text; width: 40px; text-align: center; background-color: #f6f1e1; height: 19px;\">6</td>\n<td style=\"box-sizing: border-box; user-select: text; width: 106px; text-align: center; background-color: #f6f1e1; height: 19px;\">Invention</td>\n<td style=\"box-sizing: border-box; user-select: text; width: 231px; text-align: center; background-color: #f6f1e1; height: 19px;\"><span id=\"ctl00_MainContent_DetailedOutput\">Lavender and green ellipsoid</span></td>\n</tr>\n<tr style=\"height: 19px;\">\n<td style=\"box-sizing: border-box; user-select: text; width: 40px; text-align: center; background-color: #eee5c8; height: 19px;\"> </td>\n<td style=\"box-sizing: border-box; user-select: text; width: 337px; text-align: center; background-color: #eee5c8; height: 19px;\" colspan=\"2\"><span id=\"ctl00_MainContent_DetailedOutput\"><strong>Active Power</strong>: You can craft items up to 5 levels higher than your actual level</span></td>\n</tr>\n</tbody>\n</table>\n<p><strong>Destruction</strong> The memories and lessons that echo through the <em>Tears of the Last Azlanti</em> give clues about steps needed to destroy the artifact. After you have gained the power of each of the six aeon stones at least once, you are granted visions of six locations across Golarion. At each of these locations, you must replace one of the necklace's aeon stones with a <em>dull gray aeon stone</em>. Once the final stone is replaced, the powers of the necklace are drawn into its new stones. These stones become pieces of throneglass, and the chain and bails disintegrate.</p>"
        },
        "equipped": {
            "value": false
        },
        "equippedBulk": {
            "value": ""
        },
        "hardness": {
            "value": 0
        },
        "hp": {
            "value": 0
        },
        "identified": {
            "value": true
        },
        "invested": {
            "value": false
        },
        "level": {
            "value": "25"
        },
        "maxHp": {
            "value": 0
        },
        "negateBulk": {
            "value": "0"
        },
        "preciousMaterial": {
            "value": ""
        },
        "preciousMaterialGrade": {
            "value": ""
        },
        "price": {
            "value": ""
        },
        "quantity": {
            "value": "1"
        },
        "rarity": {
            "value": "common"
        },
        "source": {
            "value": ""
        },
        "stackGroup": {
            "value": ""
        },
        "traits": {
            "custom": "",
            "rarity": {
                "value": "unique"
            },
            "usage": {
                "value": "wornnecklace"
            },
            "value": [
                "arcane",
                "artifact",
                "invested",
                "transmutation"
            ]
        },
        "usage": {
            "value": "held-in-one-hand"
        },
        "weight": {
            "value": "L"
        }
    },
    "flags": {},
    "img": "systems/pf2e/icons/equipment/artifacts/tears-of-the-last-azlanti.jpg",
    "name": "Tears of the Last Azlanti",
    "permission": {
        "default": 0
    },
    "type": "equipment"
}