{
    "_id": "uM0OlCC1Sh6OLdNn",
    "data": {
        "MAP": {
            "value": ""
        },
        "ability": {
            "value": "str"
        },
        "bonus": {
            "value": 0
        },
        "bonusDamage": {
            "value": 0
        },
        "brokenThreshold": {
            "value": 0
        },
        "bulkCapacity": {
            "value": ""
        },
        "collapsed": {
            "value": false
        },
        "containerId": {
            "value": ""
        },
        "damage": {
            "damageType": "piercing",
            "dice": 1,
            "die": "d4",
            "value": ""
        },
        "description": {
            "chat": "",
            "unidentified": "",
            "value": "<p><span>This light knife is optimally balanced to be thrown accurately at a greater distance than a common dagger. While this comes at the cost of a significant cutting edge, the difference is worth it for characters focused on thrown weapons. </span></p>"
        },
        "equipped": {
            "value": false
        },
        "equippedBulk": {
            "value": ""
        },
        "group": {
            "value": "knife"
        },
        "hands": {
            "value": ""
        },
        "hardness": {
            "value": 0
        },
        "hp": {
            "value": 0
        },
        "identified": {
            "value": true
        },
        "invested": {
            "value": false
        },
        "level": {
            "value": "0"
        },
        "maxHp": {
            "value": 0
        },
        "negateBulk": {
            "value": "0"
        },
        "potencyRune": {
            "value": ""
        },
        "preciousMaterial": {
            "value": ""
        },
        "preciousMaterialGrade": {
            "value": ""
        },
        "price": {
            "value": "3 sp"
        },
        "property1": {
            "critDamage": "",
            "critDamageType": "",
            "critDice": null,
            "critDie": "",
            "criticalConditionType": "",
            "criticalConditionValue": null,
            "damageType": "",
            "dice": null,
            "die": "",
            "strikeConditionType": "",
            "strikeConditionValue": null,
            "value": ""
        },
        "property2": {
            "critDamage": "",
            "critDamageType": "",
            "critDice": 0,
            "critDie": "",
            "damageType": "",
            "dice": 0,
            "die": "",
            "value": ""
        },
        "property3": {
            "critDamage": "",
            "critDamageType": "",
            "critDice": 0,
            "critDie": "",
            "damageType": "",
            "dice": 0,
            "die": "",
            "value": ""
        },
        "propertyRune1": {
            "value": ""
        },
        "propertyRune2": {
            "value": ""
        },
        "propertyRune3": {
            "value": ""
        },
        "propertyRune4": {
            "value": ""
        },
        "quantity": {
            "value": "1"
        },
        "range": {
            "value": ""
        },
        "rarity": {
            "value": "common"
        },
        "reload": {
            "value": ""
        },
        "source": {
            "value": ""
        },
        "splashDamage": {
            "value": null
        },
        "stackGroup": {
            "value": ""
        },
        "strikingRune": {
            "value": ""
        },
        "traits": {
            "custom": "",
            "rarity": {
                "value": "uncommon"
            },
            "value": [
                "agile",
                "finesse",
                "thrown-20",
                "twin"
            ]
        },
        "usage": {
            "value": "held-in-one-hand"
        },
        "weaponType": {
            "value": "simple"
        },
        "weight": {
            "value": "L"
        }
    },
    "flags": {},
    "img": "systems/pf2e/icons/equipment/weapons/throwing-knife.jpg",
    "name": "Throwing Knife",
    "permission": {
        "default": 0
    },
    "type": "weapon"
}
