{
    "_id": "9Itj7SLzmWRzDilY",
    "data": {
        "brokenThreshold": {
            "value": 0
        },
        "bulkCapacity": {
            "value": ""
        },
        "collapsed": {
            "value": false
        },
        "containerId": {
            "value": ""
        },
        "description": {
            "chat": "",
            "unidentified": "",
            "value": "<p>You cease aging, and if you were older than young adult in age, you become a young adult again. You gain a +4 status bonus to saves against <em>death </em>effects and resistance to negative damage equal to half your level. Once per day, from any distance, Abrogail Thrune II can recite a mandatory appearance clause in your Thrune contract as a 3-action activity to summon you to her side, where you are <em>controlled </em>by Abrogail for 1 minute before you return.</p>\n<p><strong>Activate</strong> <span style=\"font-family: 'Pathfinder2eActions'; font-size: 1.8em; display: inline;\">2</span> Command;</p>\n<p><strong>Frequency</strong> once per day;</p>\n<p><strong>Effect</strong> You recite a hold harmless provision from your Thrune contract. Reduce your doomed value to 0. Abrogail Thrune II is immediately made aware that you have used this ability.</p>"
        },
        "equipped": {
            "value": false
        },
        "equippedBulk": {
            "value": ""
        },
        "hardness": {
            "value": 0
        },
        "hp": {
            "value": 0
        },
        "identified": {
            "value": true
        },
        "invested": {
            "value": false
        },
        "level": {
            "value": "20"
        },
        "maxHp": {
            "value": 0
        },
        "negateBulk": {
            "value": "0"
        },
        "preciousMaterial": {
            "value": ""
        },
        "preciousMaterialGrade": {
            "value": ""
        },
        "price": {
            "value": ""
        },
        "quantity": {
            "value": "1"
        },
        "rarity": {
            "value": "common"
        },
        "source": {
            "value": ""
        },
        "stackGroup": {
            "value": ""
        },
        "traits": {
            "custom": "",
            "rarity": {
                "value": "rare"
            },
            "usage": {
                "value": "held-in-one-hand"
            },
            "value": [
                "conjuration",
                "contract",
                "invested",
                "magical"
            ]
        },
        "usage": {
            "value": "held-in-one-hand"
        },
        "weight": {
            "value": "-"
        }
    },
    "flags": {},
    "img": "systems/pf2e/icons/equipment/other/infernal-contracts/unending-youth.jpg",
    "name": "Unending Youth",
    "permission": {
        "default": 0
    },
    "type": "equipment"
}
