{
    "_id": "LmveO9fSuEnkMKAH",
    "data": {
        "brokenThreshold": {
            "value": 0
        },
        "bulkCapacity": {
            "value": ""
        },
        "collapsed": {
            "value": false
        },
        "containerId": {
            "value": ""
        },
        "description": {
            "chat": "",
            "unidentified": "",
            "value": "<p><span id=\"ctl00_MainContent_DetailedOutput\">This bulky leather harness has four pockets across the chest. The pockets contain a set of @Compendium[pf2e.equipment-srd.Thieves' Tools (Infiltrator)]{Thieves' Tools (Infiltrator)}, @Compendium[pf2e.equipment-srd.Thieves' Tools (Infiltrator Picks)]{Thieves' Tools (Infiltrator Picks)}, a @Compendium[pf2e.equipment-srd.Crowbar (Levered)]{Crowbar (Levered)}, and a glass cutter. These items are magically bound to the harness; if they are more than 1 foot away from you, they disappear, then reappear in the harness at the next sunset. Broken or destroyed items similarly reappear, restored, in their proper pockets at sunset.<br><br><strong>Activate</strong> <span style=\"font-family: 'Pathfinder2eActions'; font-size: 1.8em; display: inline;\">2</span> Interact; <strong>Effect</strong> You cinch the harness to prepare for mischief. You gain a +1 item bonus to Stealth checks and a +10-foot item bonus to your Speed for 1 minute.</span></p>"
        },
        "equipped": {
            "value": false
        },
        "equippedBulk": {
            "value": ""
        },
        "hardness": {
            "value": 0
        },
        "hp": {
            "value": 0
        },
        "identified": {
            "value": true
        },
        "invested": {
            "value": false
        },
        "level": {
            "value": "6"
        },
        "maxHp": {
            "value": 0
        },
        "negateBulk": {
            "value": "0"
        },
        "preciousMaterial": {
            "value": ""
        },
        "preciousMaterialGrade": {
            "value": ""
        },
        "price": {
            "value": "230 gp"
        },
        "quantity": {
            "value": "1"
        },
        "rarity": {
            "value": "common"
        },
        "rules": [],
        "source": {
            "value": ""
        },
        "stackGroup": {
            "value": ""
        },
        "traits": {
            "custom": "",
            "rarity": {
                "value": "uncommon"
            },
            "usage": {
                "value": "wornbackpack"
            },
            "value": [
                "invested",
                "magical",
                "transmutation"
            ]
        },
        "usage": {
            "value": "held-in-one-hand"
        },
        "weight": {
            "value": "1"
        }
    },
    "flags": {},
    "img": "systems/pf2e/icons/equipment/worn-items/other-worn-items/vaultbreakers-harness.jpg",
    "name": "Vaultbreaker's Harness",
    "permission": {
        "default": 0
    },
    "type": "equipment"
}