{
    "_id": "KPWN5tGGkvZR7K3K",
    "data": {
        "brokenThreshold": {
            "value": 0
        },
        "bulkCapacity": {
            "value": ""
        },
        "collapsed": {
            "value": false
        },
        "containerId": {
            "value": ""
        },
        "description": {
            "chat": "",
            "unidentified": "",
            "value": "<p><span>This wand features a carved dragon's head at its top and a polished metal sphere set in its midsection.<br></span></p>\n<p><span><strong>Activate</strong> Cast a Spell; <strong>Frequency</strong> once per day, plus overcharge; <strong>Effect</strong> You cast @Compendium[pf2e.spells-srd.Magic Missile]{Magic Missile} of the indicated level. After you cast the spell, an additional missile or missiles are released from the wand at the start of each of your turns, as though you cast the 1-action version of <em>magic missile</em>. Choose targets each time. This lasts for 1 minute, until you're no longer wielding the wand, or until you try to activate the wand again.<br></span></p>\n<p><span><strong>Craft Requirements</strong> Supply a casting of <em>magic missile</em> of the appropriate level.</span></p>"
        },
        "equipped": {
            "value": false
        },
        "equippedBulk": {
            "value": ""
        },
        "hardness": {
            "value": 0
        },
        "hp": {
            "value": 0
        },
        "identified": {
            "value": true
        },
        "invested": {
            "value": false
        },
        "level": {
            "value": "5"
        },
        "maxHp": {
            "value": 0
        },
        "negateBulk": {
            "value": "0"
        },
        "preciousMaterial": {
            "value": ""
        },
        "preciousMaterialGrade": {
            "value": ""
        },
        "price": {
            "value": "160 gp"
        },
        "quantity": {
            "value": "1"
        },
        "rarity": {
            "value": "common"
        },
        "source": {
            "value": ""
        },
        "stackGroup": {
            "value": ""
        },
        "traits": {
            "custom": "",
            "rarity": {
                "value": "common"
            },
            "usage": {
                "value": "held-in-one-hand"
            },
            "value": [
                "evocation",
                "force",
                "magical",
                "wand"
            ]
        },
        "usage": {
            "value": "held-in-one-hand"
        },
        "weight": {
            "value": "L"
        }
    },
    "flags": {},
    "img": "systems/pf2e/icons/equipment/wands/specialty-wands/wand-of-manifold-missiles.jpg",
    "name": "Wand of Manifold Missiles (1st-Level Spell)",
    "permission": {
        "default": 0
    },
    "type": "equipment"
}