{
    "_id": "6FmhLLYH94xhucIs",
    "description": "Table of 18th-Level Permanent Items",
    "displayRoll": true,
    "flags": {
        "core": {
            "sourceId": "RollTable.oLr6fTbj9P7aa7zQ"
        }
    },
    "formula": "1d101",
    "img": "icons/svg/d20-grey.svg",
    "name": "18th-Level Permanent Items",
    "permission": {
        "default": 0
    },
    "replacement": true,
    "results": [
        {
            "_id": "lW5MoTpfiIkEd4nw",
            "drawn": false,
            "flags": {},
            "img": "icons/svg/d20-black.svg",
            "range": [
                1,
                6
            ],
            "resultId": "",
            "text": "Magic Armor (+3 Greater Resilient)",
            "type": 0,
            "weight": 6
        },
        {
            "_id": "gJB3UcpgtlC07O4k",
            "collection": "pf2e.equipment-srd",
            "drawn": false,
            "flags": {},
            "img": "systems/pf2e/icons/equipment/armor/specific-magic-armor/breastplate-of-command.jpg",
            "range": [
                7,
                12
            ],
            "resultId": "XKON66YXYLXlGPPg",
            "text": "Breastplate of Command (Greater)",
            "type": 2,
            "weight": 6
        },
        {
            "_id": "C6ippWC7SsXOvPgH",
            "drawn": false,
            "flags": {},
            "img": "icons/svg/d20-black.svg",
            "range": [
                13,
                18
            ],
            "resultId": "",
            "text": "Cold Iron Armor (High-Grade)",
            "type": 0,
            "weight": 6
        },
        {
            "_id": "iki3QHowi13s59GG",
            "drawn": false,
            "flags": {},
            "img": "icons/svg/d20-black.svg",
            "range": [
                19,
                24
            ],
            "resultId": "",
            "text": "Silver Armor (High-Grade)",
            "type": 0,
            "weight": 6
        },
        {
            "_id": "uPSAHbFjK7VEtKWc",
            "collection": "pf2e.equipment-srd",
            "drawn": false,
            "flags": {},
            "img": "systems/pf2e/icons/equipment/held-items/maestros-instrument.jpg",
            "range": [
                25,
                30
            ],
            "resultId": "rlDIbl6EQYXQpWVs",
            "text": "Maestro's Instrument (Greater)",
            "type": 2,
            "weight": 6
        },
        {
            "_id": "GF6rEmovclKcZMfK",
            "collection": "pf2e.equipment-srd",
            "drawn": false,
            "flags": {},
            "img": "systems/pf2e/icons/equipment/held-items/marvelous-medicines.jpg",
            "range": [
                31,
                36
            ],
            "resultId": "wYpWQCD2IYqDtqpc",
            "text": "Marvelous Medicines (Greater)",
            "type": 2,
            "weight": 6
        },
        {
            "_id": "BQpxVGxblvkDbMzz",
            "collection": "pf2e.equipment-srd",
            "drawn": false,
            "flags": {},
            "img": "systems/pf2e/icons/equipment/held-items/possibility-tome.jpg",
            "range": [
                37,
                42
            ],
            "resultId": "vZaXDOrp5Faxw5fS",
            "text": "Possibility Tome",
            "type": 2,
            "weight": 6
        },
        {
            "_id": "JIPeYjkfh6sqbvKh",
            "collection": "pf2e.equipment-srd",
            "drawn": false,
            "flags": {},
            "img": "systems/pf2e/icons/equipment/held-items/thurible-of-revelation.jpg",
            "range": [
                43,
                48
            ],
            "resultId": "VBCk7JXGsuG0cug1",
            "text": "Thurible of Revelation (Greater)",
            "type": 2,
            "weight": 6
        },
        {
            "_id": "9x7ts2ZyP0aalQWS",
            "collection": "pf2e.equipment-srd",
            "drawn": false,
            "flags": {},
            "img": "systems/pf2e/icons/equipment/runes/fundamental-armor-runes/armor-potency.jpg",
            "range": [
                49,
                54
            ],
            "resultId": "6ELjUFY0sEJ7nZlZ",
            "text": "Armor Potency (+3)",
            "type": 2,
            "weight": 6
        },
        {
            "_id": "UpaKSgXrKvWSjMPJ",
            "collection": "pf2e.equipment-srd",
            "drawn": false,
            "flags": {},
            "img": "systems/pf2e/icons/equipment/runes/armor-property-runes/armor-property-runes.jpg",
            "range": [
                55,
                60
            ],
            "resultId": "ujWnpVMkbTljMGN9",
            "text": "Fortification (Greater)",
            "type": 2,
            "weight": 6
        },
        {
            "_id": "zrymm07q77o0qDVi",
            "collection": "pf2e.equipment-srd",
            "drawn": false,
            "flags": {},
            "img": "systems/pf2e/icons/equipment/shields/specific-shields/indestructible-shield.jpg",
            "range": [
                61,
                61
            ],
            "resultId": "SUbYk6B1iPoGyyjh",
            "text": "Indestructible Shield",
            "type": 2,
            "weight": 1
        },
        {
            "_id": "kZuXo7VtlKcxFJSj",
            "collection": "pf2e.equipment-srd",
            "drawn": false,
            "flags": {},
            "img": "systems/pf2e/icons/equipment/shields/specific-shields/reflecting-shield.jpg",
            "range": [
                62,
                64
            ],
            "resultId": "La9qYc5NHsg423Jb",
            "text": "Reflecting Shield",
            "type": 2,
            "weight": 3
        },
        {
            "_id": "8HlZU8WjXzpPjaT0",
            "collection": "pf2e.equipment-srd",
            "drawn": false,
            "flags": {},
            "img": "systems/pf2e/icons/equipment/wands/specialty-wands/wand-of-slaying.jpg",
            "range": [
                65,
                70
            ],
            "resultId": "LnXYSaLxWMyAT3Ef",
            "text": "Wand of Slaying (8th-Level Spell)",
            "type": 2,
            "weight": 6
        },
        {
            "_id": "IuaIq8uMe5efm2ZD",
            "collection": "pf2e.equipment-srd",
            "drawn": false,
            "flags": {},
            "img": "systems/pf2e/icons/equipment/wands/specialty-wands/wand-of-widening.jpg",
            "range": [
                71,
                76
            ],
            "resultId": "20nQTcGzpUv8jJ6R",
            "text": "Wand of Widening (8th-Level Spell)",
            "type": 2,
            "weight": 6
        },
        {
            "_id": "DQXpEC3gEUXHrVDu",
            "drawn": false,
            "flags": {},
            "img": "icons/svg/d20-black.svg",
            "range": [
                77,
                77
            ],
            "resultId": "",
            "text": "Orichalcum Weapon, High-Grade",
            "type": 0,
            "weight": 1
        },
        {
            "_id": "ypwrqQs15lWnt7Kf",
            "collection": "pf2e.equipment-srd",
            "drawn": false,
            "flags": {},
            "img": "systems/pf2e/icons/equipment/weapons/specific-magic-weapons/storm-flash.jpg",
            "range": [
                78,
                83
            ],
            "resultId": "i9mxfSIBTTOwsSlx",
            "text": "Storm Flash (Greater)",
            "type": 2,
            "weight": 6
        },
        {
            "_id": "aqx18CDCK998paCE",
            "collection": "pf2e.equipment-srd",
            "drawn": false,
            "flags": {},
            "img": "systems/pf2e/icons/equipment/worn-items/other-worn-items/goggles-of-night.jpg",
            "range": [
                84,
                89
            ],
            "resultId": "rXXNw6dwVn96giDi",
            "text": "Goggles of Night (Major)",
            "type": 2,
            "weight": 6
        },
        {
            "_id": "spRTcttinnFogKjC",
            "collection": "pf2e.equipment-srd",
            "drawn": false,
            "flags": {},
            "img": "systems/pf2e/icons/equipment/worn-items/other-worn-items/inexplicable-apparatus.jpg",
            "range": [
                90,
                95
            ],
            "resultId": "V9iVPhIk980GT6A2",
            "text": "Inexplicable Apparatus",
            "type": 2,
            "weight": 6
        },
        {
            "_id": "8dlmyudY7oQ3nj3v",
            "collection": "pf2e.equipment-srd",
            "drawn": false,
            "flags": {},
            "img": "systems/pf2e/icons/equipment/worn-items/other-worn-items/ring-of-maniacal-devices.jpg",
            "range": [
                96,
                101
            ],
            "resultId": "Wkm2VYPsfGjWBtQe",
            "text": "Ring of Manical Devices (Greater)",
            "type": 2,
            "weight": 6
        }
    ]
}
