{
    "_id": "0WpkRFm8SyfwVCP6",
    "description": "Table of 4th-Level Consumables Items",
    "displayRoll": true,
    "flags": {
        "core": {
            "sourceId": "RollTable.FyBN3ls34kdWKE8y"
        }
    },
    "formula": "1d111",
    "img": "icons/svg/d20-grey.svg",
    "name": "4th-Level Consumables Items",
    "permission": {
        "default": 0
    },
    "replacement": true,
    "results": [
        {
            "_id": "mYq4p5qykRLe1Ok4",
            "collection": "pf2e.equipment-srd",
            "drawn": false,
            "flags": {},
            "img": "systems/pf2e/icons/equipment/consumables/ammunition/climbing-bolt.jpg",
            "range": [
                1,
                6
            ],
            "resultId": "n5L7HE9H8jn8ftQy",
            "text": "Climbing Bolt",
            "type": 2,
            "weight": 6
        },
        {
            "_id": "QN2b9QvvhEhXYHss",
            "collection": "pf2e.equipment-srd",
            "drawn": false,
            "flags": {},
            "img": "systems/pf2e/icons/equipment/consumables/ammunition/viper-arrow.jpg",
            "range": [
                7,
                12
            ],
            "resultId": "ilB279mxqXnlaSFj",
            "text": "Viper Arrow",
            "type": 2,
            "weight": 6
        },
        {
            "_id": "k455WZW8SCQLXbsv",
            "collection": "pf2e.equipment-srd",
            "drawn": false,
            "flags": {},
            "img": "systems/pf2e/icons/equipment/consumables/other-consumables/feather-token.jpg",
            "range": [
                13,
                18
            ],
            "resultId": "3Fmbw9wJkqZBV9De",
            "text": "Feather Token (Fan)",
            "type": 2,
            "weight": 6
        },
        {
            "_id": "oLZsd9xeniDUB97N",
            "collection": "pf2e.equipment-srd",
            "drawn": false,
            "flags": {},
            "img": "systems/pf2e/icons/equipment/alchemical-items/alchemical-elixirs/bombers-eye-elixir.jpg",
            "range": [
                19,
                24
            ],
            "resultId": "T4ouD4mVFHA3EHs6",
            "text": "Bomber's Eye Elixir (Lesser)",
            "type": 2,
            "weight": 6
        },
        {
            "_id": "zz0eL7k3QNTKNXc3",
            "collection": "pf2e.equipment-srd",
            "drawn": false,
            "flags": {},
            "img": "systems/pf2e/icons/equipment/alchemical-items/alchemical-elixirs/darkvision-elixir.jpg",
            "range": [
                25,
                30
            ],
            "resultId": "Y8115p3cmQJBqk5d",
            "text": "Darkvision Elixir (Moderate)",
            "type": 2,
            "weight": 6
        },
        {
            "_id": "dwXrm0DZwZ0Vtpyl",
            "collection": "pf2e.equipment-srd",
            "drawn": false,
            "flags": {},
            "img": "systems/pf2e/icons/equipment/alchemical-items/alchemical-elixirs/mistform-elixir.jpg",
            "range": [
                31,
                36
            ],
            "resultId": "GyO89RBVjAKFxsFm",
            "text": "Mistform Elixir (Lesser)",
            "type": 2,
            "weight": 6
        },
        {
            "_id": "ViMk7CeQzvGeYUrC",
            "collection": "pf2e.equipment-srd",
            "drawn": false,
            "flags": {},
            "img": "systems/pf2e/icons/equipment/alchemical-items/alchemical-elixirs/salamander-elixir.jpg",
            "range": [
                37,
                42
            ],
            "resultId": "Ekk7o1gPu8RotixD",
            "text": "Salamander Elixir (Lesser)",
            "type": 2,
            "weight": 6
        },
        {
            "_id": "rj2RuyHe7q9qcZ2d",
            "collection": "pf2e.equipment-srd",
            "drawn": false,
            "flags": {},
            "img": "systems/pf2e/icons/equipment/alchemical-items/alchemical-elixirs/stone-fist-elixir.jpg",
            "range": [
                43,
                48
            ],
            "resultId": "YcvSw7Zn3oyqlJaw",
            "text": "Stone Fist Elixir",
            "type": 2,
            "weight": 6
        },
        {
            "_id": "o3gZ97kIi4lo11BY",
            "collection": "pf2e.equipment-srd",
            "drawn": false,
            "flags": {},
            "img": "systems/pf2e/icons/equipment/alchemical-items/alchemical-elixirs/winter-wolf-elixir.jpg",
            "range": [
                49,
                54
            ],
            "resultId": "n9VrmK9Us0viv20P",
            "text": "Winter Wolf Elixir (Lesser)",
            "type": 2,
            "weight": 6
        },
        {
            "_id": "OtH5vWwuqo4ICMuF",
            "collection": "pf2e.equipment-srd",
            "drawn": false,
            "flags": {},
            "img": "systems/pf2e/icons/equipment/consumables/potions/barkskin-potion.jpg",
            "range": [
                55,
                60
            ],
            "resultId": "zC7LipQPHRYw2RXx",
            "text": "Barkskin Potion",
            "type": 2,
            "weight": 6
        },
        {
            "_id": "TbqN7piUhgo0OfAf",
            "collection": "pf2e.equipment-srd",
            "drawn": false,
            "flags": {},
            "img": "systems/pf2e/icons/equipment/consumables/potions/invisibility-potion.jpg",
            "range": [
                61,
                63
            ],
            "resultId": "bikFUFRLwfdvX2x2",
            "text": "Invisibility Potion",
            "type": 2,
            "weight": 3
        },
        {
            "_id": "l9CD8GKGvhWX8hAA",
            "collection": "pf2e.equipment-srd",
            "drawn": false,
            "flags": {},
            "img": "systems/pf2e/icons/equipment/consumables/potions/shrinking-potion.jpg",
            "range": [
                64,
                69
            ],
            "resultId": "FqbDpztscJfM4XMe",
            "text": "Shrinking Potion",
            "type": 2,
            "weight": 6
        },
        {
            "_id": "t5t1wLQE2o2FC0iI",
            "collection": "pf2e.equipment-srd",
            "drawn": false,
            "flags": {},
            "img": "systems/pf2e/icons/equipment/snares/biting-snare.jpg",
            "range": [
                70,
                75
            ],
            "resultId": "9EZb1hmSKOGrU4Cf",
            "text": "Biting Snare",
            "type": 2,
            "weight": 6
        },
        {
            "_id": "SaGLwztjSNglsrzf",
            "collection": "pf2e.equipment-srd",
            "drawn": false,
            "flags": {},
            "img": "systems/pf2e/icons/equipment/snares/hobbling-snare.jpg",
            "range": [
                76,
                78
            ],
            "resultId": "0lhh2l4kh3QrwYH9",
            "text": "Hobbling Snare",
            "type": 2,
            "weight": 3
        },
        {
            "_id": "vHNOIhldCiAlVI37",
            "collection": "pf2e.equipment-srd",
            "drawn": false,
            "flags": {},
            "img": "systems/pf2e/icons/equipment/snares/stalker-bane-snare.jpg",
            "range": [
                79,
                81
            ],
            "resultId": "s9dtRS2SRTqzGdOF",
            "text": "Stalker Bane Snare",
            "type": 2,
            "weight": 3
        },
        {
            "_id": "wDGaxAN4F6RLlPZV",
            "collection": "pf2e.equipment-srd",
            "drawn": false,
            "flags": {},
            "img": "systems/pf2e/icons/equipment/snares/trip-snare.jpg",
            "range": [
                82,
                87
            ],
            "resultId": "SWqzv0hYCIczICeR",
            "text": "Trip Snare",
            "type": 2,
            "weight": 6
        },
        {
            "_id": "WyvKXDRJxYg9a79P",
            "collection": "pf2e.equipment-srd",
            "drawn": false,
            "flags": {},
            "img": "systems/pf2e/icons/equipment/snares/warning-snare.jpg",
            "range": [
                88,
                93
            ],
            "resultId": "XU8u9F3uoesGDjgM",
            "text": "Warning Snare",
            "type": 2,
            "weight": 6
        },
        {
            "_id": "YNNBB0NEm00kqxhJ",
            "collection": "pf2e.equipment-srd",
            "drawn": false,
            "flags": {},
            "img": "systems/pf2e/icons/equipment/consumables/talismans/bloodseeker-beak.jpg",
            "range": [
                94,
                99
            ],
            "resultId": "k6D64EAjcKMf8NZB",
            "text": "Bloodseeker Beak",
            "type": 2,
            "weight": 6
        },
        {
            "_id": "WsS6m4J1WTXgwz5x",
            "collection": "pf2e.equipment-srd",
            "drawn": false,
            "flags": {},
            "img": "systems/pf2e/icons/equipment/consumables/talismans/dragon-turtle-scale.jpg",
            "range": [
                100,
                105
            ],
            "resultId": "GnXKCkgZQG0UmuHz",
            "text": "Dragon Turtle Scale",
            "type": 2,
            "weight": 6
        },
        {
            "_id": "vd0CCfRPIvDD5bR9",
            "collection": "pf2e.equipment-srd",
            "drawn": false,
            "flags": {},
            "img": "systems/pf2e/icons/equipment/consumables/talismans/fear-gem.jpg",
            "range": [
                106,
                111
            ],
            "resultId": "ZAtwiAPkk1zwCf82",
            "text": "Fear Gem",
            "type": 2,
            "weight": 6
        }
    ]
}
