{
    "_id": "E9ZNupg1p4yLpfrd",
    "description": "Table of 7th-Level Consumables Items",
    "displayRoll": true,
    "flags": {
        "core": {
            "sourceId": "RollTable.MWoishbCjfFWpZ0h"
        }
    },
    "formula": "1d75",
    "img": "icons/svg/d20-grey.svg",
    "name": "7th-Level Consumables Items",
    "permission": {
        "default": 0
    },
    "replacement": true,
    "results": [
        {
            "_id": "mYq4p5qykRLe1Ok4",
            "collection": "pf2e.equipment-srd",
            "drawn": false,
            "flags": {},
            "img": "systems/pf2e/icons/equipment/consumables/ammunition/spellstrike-ammunition.jpg",
            "range": [
                1,
                6
            ],
            "resultId": "mz0GbCF2WT1DSYac",
            "text": "Spellstrike Ammunition (Type III)",
            "type": 2,
            "weight": 6
        },
        {
            "_id": "QN2b9QvvhEhXYHss",
            "collection": "pf2e.equipment-srd",
            "drawn": false,
            "flags": {},
            "img": "systems/pf2e/icons/equipment/consumables/other-consumables/feather-token.jpg",
            "range": [
                7,
                12
            ],
            "resultId": "VvljzRwthKMgqUR3",
            "text": "Feather Token (Anchor)",
            "type": 2,
            "weight": 6
        },
        {
            "_id": "aPbhuQl16Dn83HR8",
            "collection": "pf2e.equipment-srd",
            "drawn": false,
            "flags": {},
            "img": "systems/pf2e/icons/equipment/alchemical-items/alchemical-elixirs/comprehension-elixir.jpg",
            "range": [
                13,
                18
            ],
            "resultId": "OcBPjVplvy2GbQ8P",
            "text": "Comprehension Elixir (Greater)",
            "type": 2,
            "weight": 6
        },
        {
            "_id": "3EqXFbXhBaS3HemC",
            "collection": "pf2e.equipment-srd",
            "drawn": false,
            "flags": {},
            "img": "systems/pf2e/icons/equipment/alchemical-items/alchemical-elixirs/leapers-elixir.jpg",
            "range": [
                19,
                24
            ],
            "resultId": "6eQvHNHf1IC2X5Rx",
            "text": "Leaper's Elixir (Greater)",
            "type": 2,
            "weight": 6
        },
        {
            "_id": "lLzSpPUauPOj4sfl",
            "collection": "pf2e.equipment-srd",
            "drawn": false,
            "flags": {},
            "img": "systems/pf2e/icons/equipment/alchemical-items/alchemical-poisons/giant-wasp-venom.jpg",
            "range": [
                25,
                30
            ],
            "resultId": "aBOPYlfHAcXUmhF7",
            "text": "Giant Wasp Venom",
            "type": 2,
            "weight": 6
        },
        {
            "_id": "bqsJMu7IB225fTYz",
            "collection": "pf2e.equipment-srd",
            "drawn": false,
            "flags": {},
            "img": "systems/pf2e/icons/equipment/alchemical-items/alchemical-poisons/malyass-root-paste.jpg",
            "range": [
                31,
                36
            ],
            "resultId": "76T49dJYfxIrPvQe",
            "text": "Malyass Root Paste",
            "type": 2,
            "weight": 6
        },
        {
            "_id": "xkxbqKf3zQN0HjG2",
            "drawn": false,
            "flags": {},
            "img": "icons/svg/d20-black.svg",
            "range": [
                37,
                42
            ],
            "resultId": "",
            "text": "Dragon's Breath Potion (Young)",
            "type": 0,
            "weight": 6
        },
        {
            "_id": "kQTbzpAKyDIdb9PY",
            "collection": "pf2e.equipment-srd",
            "drawn": false,
            "flags": {},
            "img": "systems/pf2e/icons/equipment/weapons/serum-of-sex-shift.jpg",
            "range": [
                43,
                48
            ],
            "resultId": "9ignmYCACjfzkxDQ",
            "text": "Serum of Sex Shift",
            "type": 2,
            "weight": 6
        },
        {
            "_id": "11E6i8082Hr9VbAI",
            "collection": "pf2e.equipment-srd",
            "drawn": false,
            "flags": {},
            "img": "systems/pf2e/icons/equipment/consumables/other-consumables/spell-scroll.jpg",
            "range": [
                49,
                54
            ],
            "resultId": "QSQZJ5BC3DeHv153",
            "text": "Scroll of 4th-level Spell",
            "type": 2,
            "weight": 6
        },
        {
            "_id": "61ajGdu6KUgCbRhV",
            "collection": "pf2e.equipment-srd",
            "drawn": false,
            "flags": {},
            "img": "systems/pf2e/icons/equipment/consumables/talismans/grim-trophy.jpg",
            "range": [
                55,
                60
            ],
            "resultId": "eEIWjTvZyKsKhYaz",
            "text": "Grim Trophy",
            "type": 2,
            "weight": 6
        },
        {
            "_id": "7SGOQT7AOrcdyFAN",
            "collection": "pf2e.equipment-srd",
            "drawn": false,
            "flags": {},
            "img": "systems/pf2e/icons/equipment/consumables/talismans/murderers-knot.jpg",
            "range": [
                61,
                66
            ],
            "resultId": "YGaO4HyH6jn3P731",
            "text": "Murderer's Knot",
            "type": 2,
            "weight": 6
        },
        {
            "_id": "k89jRhkpypFGiAtB",
            "collection": "pf2e.equipment-srd",
            "drawn": false,
            "flags": {},
            "img": "systems/pf2e/icons/equipment/consumables/talismans/swift-block-cabochon.jpg",
            "range": [
                67,
                69
            ],
            "resultId": "4tnPWyApPZP1P1yO",
            "text": "Swift Block Cabochon",
            "type": 2,
            "weight": 3
        },
        {
            "_id": "yNMZRnLghOhNPUR4",
            "collection": "pf2e.equipment-srd",
            "drawn": false,
            "flags": {},
            "img": "systems/pf2e/icons/equipment/alchemical-items/alchemical-tools/smokestick.jpg",
            "range": [
                70,
                75
            ],
            "resultId": "ehss8yPTXxiUdVlJ",
            "text": "Smokestick (Greater)",
            "type": 2,
            "weight": 6
        }
    ]
}
