{
    "_id": "Z025dWgZtawbuRLI",
    "data": {
        "actionCategory": {
            "value": ""
        },
        "actionType": {
            "value": "passive"
        },
        "actions": {
            "value": ""
        },
        "description": {
            "chat": "",
            "unidentified": "",
            "value": "<p>When a creature is exposed to a monster's disease, it attempts a Fortitude save or succumbs to the disease. The level of a disease is the level of the monster inflicting the disease. The disease follows the rules for afflictions found on page 457 of the <em>Pathfinder Core Rulebook.</em></p>"
        },
        "rarity": {
            "value": "common"
        },
        "requirements": {
            "value": ""
        },
        "skill_requirement": {
            "skill": {
                "rank": "",
                "skill": ""
            }
        },
        "skill_requirements": {
            "rank": "",
            "skill": ""
        },
        "source": {
            "value": ""
        },
        "traits": {
            "value": []
        },
        "trigger": {
            "value": ""
        },
        "usage": {
            "value": "held-in-one-hand"
        },
        "weapon": {
            "value": ""
        }
    },
    "flags": {},
    "img": "icons/svg/mystery-man.svg",
    "name": "Disease",
    "permission": {
        "default": 0
    },
    "type": "action"
}
