{
    "_id": "l7WhZMoYlQC8lELj",
    "data": {
        "attributes": {
            "ac": {
                "value": 0
            },
            "hardness": 0,
            "hasHealth": true,
            "hp": {
                "details": "",
                "max": 10,
                "temp": 0,
                "tempmax": 0,
                "value": 10
            },
            "stealth": {
                "details": "(Legendary)",
                "value": 40
            }
        },
        "creatureType": "",
        "customModifiers": {},
        "details": {
            "description": "A massive storm stirs in the skies above Breachill and Citadel Altaerein. As specific events begin during the three waves of the manifestation's retribution, the dragonstorm wreaks localized havoc.",
            "disable": "The dragonstorm can't be disabled-only endured. It ends only once the attack on Breachill and Citadel Altaerein is over.",
            "isComplex": false,
            "level": 18,
            "reset": "",
            "routine": ""
        },
        "flavourText": "",
        "nethysUrl": "",
        "recallKnowledgeText": "",
        "saves": {
            "fortitude": {
                "rank": 0,
                "saveDetail": "",
                "value": null
            },
            "reflex": {
                "rank": 0,
                "saveDetail": "",
                "value": null
            },
            "will": {
                "rank": 0,
                "saveDetail": "",
                "value": null
            }
        },
        "schema": {
            "version": {
                "value": ""
            }
        },
        "sidebarText": "",
        "source": {
            "value": ""
        },
        "statusEffects": [],
        "traits": {
            "ci": [],
            "di": {
                "custom": "",
                "selected": {},
                "value": []
            },
            "dr": [],
            "dv": [],
            "traits": {
                "custom": "Rare",
                "value": [
                    "environmental",
                    "magical",
                    "custom"
                ]
            }
        }
    },
    "flags": {
        "pf2e_updatednpcsheet": {
            "npcNotes": {
                "value": ""
            }
        }
    },
    "img": "icons/svg/mystery-man.svg",
    "items": [
        {
            "_id": "XzC7Tpe9v9HjnSor",
            "data": {
                "actionCategory": {
                    "value": ""
                },
                "actionType": {
                    "value": "reaction"
                },
                "actions": {
                    "value": ""
                },
                "description": {
                    "chat": "",
                    "unidentified": "",
                    "value": "<p><strong>Trigger</strong>: A new wave begins;</p>\n<p><strong>Effect</strong>: Roll [[/r 1d10]]  to determine which effect manifests from the following possibilities. The placement of these effects is guided by Dahak's will, and they should manifest in the most detrimental locations possible to the PCs.</p>"
                },
                "rarity": {
                    "value": "common"
                },
                "requirements": {
                    "value": ""
                },
                "skill_requirement": {
                    "skill": {
                        "rank": "",
                        "skill": ""
                    }
                },
                "skill_requirements": {
                    "rank": "",
                    "skill": ""
                },
                "source": {
                    "value": ""
                },
                "traits": {
                    "custom": "",
                    "selected": {
                        "air": "Air"
                    },
                    "value": [
                        "air"
                    ]
                },
                "trigger": {
                    "value": ""
                },
                "usage": {
                    "value": "held-in-one-hand"
                },
                "weapon": {
                    "value": ""
                }
            },
            "flags": {},
            "img": "systems/pf2e/icons/actions/Reaction.png",
            "name": "Localized Dragonstorm",
            "sort": 100000,
            "type": "action"
        },
        {
            "_id": "0dYMOi8x5GT5a1Yq",
            "data": {
                "actionCategory": {
                    "value": ""
                },
                "actionType": {
                    "value": "passive"
                },
                "actions": {
                    "value": ""
                },
                "description": {
                    "chat": "",
                    "unidentified": "",
                    "value": "<p>A torrent of acid drenches creatures in a 20-foot burst. Creatures in the area take [[/r 6d10 #acid]] acid damage (DC 42 basic Reflex save). Creatures that critically fail also take [[/r 5 #persistent acid]] persistent acid damage.</p>"
                },
                "rarity": {
                    "value": "common"
                },
                "requirements": {
                    "value": ""
                },
                "skill_requirement": {
                    "skill": {
                        "rank": "",
                        "skill": ""
                    }
                },
                "skill_requirements": {
                    "rank": "",
                    "skill": ""
                },
                "source": {
                    "value": ""
                },
                "traits": {
                    "custom": "",
                    "selected": {
                        "acid": "Acid"
                    },
                    "value": [
                        "acid"
                    ]
                },
                "trigger": {
                    "value": ""
                },
                "usage": {
                    "value": "held-in-one-hand"
                },
                "weapon": {
                    "value": ""
                }
            },
            "flags": {},
            "img": "icons/svg/mystery-man.svg",
            "name": "1-2 Acid Rain",
            "sort": 200000,
            "type": "action"
        },
        {
            "_id": "2tkYDAIULPFGgxZg",
            "data": {
                "actionCategory": {
                    "value": ""
                },
                "actionType": {
                    "value": "passive"
                },
                "actions": {
                    "value": ""
                },
                "description": {
                    "chat": "",
                    "unidentified": "",
                    "value": "<p>A barrage of freezing wind and hail assaults all creatures in a 20-foot burst. Creatures in the area take [[/r 3d10 #cold]] cold damage and [[/r 3d10 #bludgeoning]] bludgeoning damage (DC 42 basic Reflex save). Creatures that critically fail are @Compendium[pf2e.conditionitems.Slowed]{Slowed} 1 for 1 round.</p>"
                },
                "rarity": {
                    "value": "common"
                },
                "requirements": {
                    "value": ""
                },
                "skill_requirement": {
                    "skill": {
                        "rank": "",
                        "skill": ""
                    }
                },
                "skill_requirements": {
                    "rank": "",
                    "skill": ""
                },
                "source": {
                    "value": ""
                },
                "traits": {
                    "custom": "",
                    "selected": {
                        "cold": "Cold"
                    },
                    "value": [
                        "cold"
                    ]
                },
                "trigger": {
                    "value": ""
                },
                "usage": {
                    "value": "held-in-one-hand"
                },
                "weapon": {
                    "value": ""
                }
            },
            "flags": {},
            "img": "icons/svg/mystery-man.svg",
            "name": "3-4 Freezing Wind",
            "sort": 300000,
            "type": "action"
        },
        {
            "_id": "tmioSSIeBsfcu9eY",
            "data": {
                "actionCategory": {
                    "value": ""
                },
                "actionType": {
                    "value": "passive"
                },
                "actions": {
                    "value": ""
                },
                "description": {
                    "chat": "",
                    "unidentified": "",
                    "value": "<p>Several bolts of lightning strike all creatures in a 20-foot burst. Creatures in the area take [[/r 6d10 #electricity]] electricity damage (DC 42 basic Reflex save). Creatures that critically fail their saves become @Compendium[pf2e.conditionitems.Blinded]{Blinded} and @Compendium[pf2e.conditionitems.Deafened]{Deafened} for 1 round.</p>"
                },
                "rarity": {
                    "value": "common"
                },
                "requirements": {
                    "value": ""
                },
                "skill_requirement": {
                    "skill": {
                        "rank": "",
                        "skill": ""
                    }
                },
                "skill_requirements": {
                    "rank": "",
                    "skill": ""
                },
                "source": {
                    "value": ""
                },
                "traits": {
                    "custom": "",
                    "selected": {
                        "electricity": "Electricity"
                    },
                    "value": [
                        "electricity"
                    ]
                },
                "trigger": {
                    "value": ""
                },
                "usage": {
                    "value": "held-in-one-hand"
                },
                "weapon": {
                    "value": ""
                }
            },
            "flags": {},
            "img": "icons/svg/mystery-man.svg",
            "name": "5-6 Bolts of Lightning",
            "sort": 400000,
            "type": "action"
        },
        {
            "_id": "xN7xuZd6V7GrLGii",
            "data": {
                "actionCategory": {
                    "value": ""
                },
                "actionType": {
                    "value": "passive"
                },
                "actions": {
                    "value": ""
                },
                "description": {
                    "chat": "",
                    "unidentified": "",
                    "value": "<p>Gouts of flame fall on all creatures in a 20-foot burst. Creatures in the area take [[/r 6d10 #fire]] fire damage (DC 42 basic Reflex save). Creatures that critically fail their saves also take [[/r 5 #persistent fire]] persistent fire damage.</p>"
                },
                "rarity": {
                    "value": "common"
                },
                "requirements": {
                    "value": ""
                },
                "skill_requirement": {
                    "skill": {
                        "rank": "",
                        "skill": ""
                    }
                },
                "skill_requirements": {
                    "rank": "",
                    "skill": ""
                },
                "source": {
                    "value": ""
                },
                "traits": {
                    "custom": "",
                    "selected": {
                        "fire": "Fire"
                    },
                    "value": [
                        "fire"
                    ]
                },
                "trigger": {
                    "value": ""
                },
                "usage": {
                    "value": "held-in-one-hand"
                },
                "weapon": {
                    "value": ""
                }
            },
            "flags": {},
            "img": "icons/svg/mystery-man.svg",
            "name": "7-8 Flaming Vortex",
            "sort": 500000,
            "type": "action"
        },
        {
            "_id": "yRzCy4eBcJG8ydmJ",
            "data": {
                "actionCategory": {
                    "value": ""
                },
                "actionType": {
                    "value": "passive"
                },
                "actions": {
                    "value": ""
                },
                "description": {
                    "chat": "",
                    "unidentified": "",
                    "value": "<p>Poisonous mist rolls forth, covering a 20-foot burst for 1 round. Creatures within the mist become @Compendium[pf2e.conditionitems.Concealed]{Concealed}, and creatures outside it become concealed to creatures within it. Creatures within the mist take [[/r 6d10 #poison]] poison damage (DC 42 basic Fortitude save). Creatures that critically fail their saves become @Compendium[pf2e.conditionitems.Enfeebled]{Enfeebled} 2.</p>"
                },
                "rarity": {
                    "value": "common"
                },
                "requirements": {
                    "value": ""
                },
                "skill_requirement": {
                    "skill": {
                        "rank": "",
                        "skill": ""
                    }
                },
                "skill_requirements": {
                    "rank": "",
                    "skill": ""
                },
                "source": {
                    "value": ""
                },
                "traits": {
                    "custom": "",
                    "selected": {
                        "poison": "Poison"
                    },
                    "value": [
                        "poison"
                    ]
                },
                "trigger": {
                    "value": ""
                },
                "usage": {
                    "value": "held-in-one-hand"
                },
                "weapon": {
                    "value": ""
                }
            },
            "flags": {},
            "img": "icons/svg/mystery-man.svg",
            "name": "9-10 Poison Miasma",
            "sort": 600000,
            "type": "action"
        }
    ],
    "name": "Dragonstorm",
    "permission": {
        "default": 0
    },
    "token": {
        "actorData": {},
        "actorId": "l7WhZMoYlQC8lELj",
        "actorLink": false,
        "bar1": {
            "attribute": "attributes.hp"
        },
        "bar2": {},
        "brightLight": 0,
        "brightSight": 0,
        "dimLight": 0,
        "dimSight": 0,
        "displayBars": 20,
        "displayName": 20,
        "disposition": -1,
        "flags": {},
        "height": 1,
        "img": "icons/svg/mystery-man.svg",
        "lightAlpha": 1,
        "lightAngle": 360,
        "lockRotation": false,
        "name": "Dragonstorm",
        "randomImg": false,
        "rotation": 0,
        "scale": 1,
        "sightAngle": 360,
        "tint": null,
        "vision": false,
        "width": 1
    },
    "type": "hazard"
}