{
    "_id": "S9PZFOVe7zhORkUc",
    "data": {
        "actionCategory": {
            "value": "defensive"
        },
        "actionType": {
            "value": "reaction"
        },
        "actions": {
            "value": ""
        },
        "description": {
            "chat": "",
            "unidentified": "",
            "value": "<p><strong>Trigger</strong> An enemy casts a spell that targets you or an ally within 15 feet of you</p>\n<hr>\n<p>You interpose your shield's ward against the spell. Attempt a counteract check, using your Religion modifier as your counteract modifier. On a success, the spell is counteracted and your shield takes damage equal to four times the spell level as it absorbs and disperses the magical energy. On a failure, the shield takes damage equal to twice the spell's level.</p>"
        },
        "rarity": {
            "value": "common"
        },
        "requirements": {
            "value": ""
        },
        "rules": [],
        "skill_requirement": {
            "skill": {
                "rank": "3",
                "skill": "religion"
            }
        },
        "skill_requirements": {
            "rank": "",
            "skill": ""
        },
        "source": {
            "value": ""
        },
        "traits": {
            "selected": {},
            "value": []
        },
        "trigger": {
            "value": ""
        },
        "usage": {
            "value": "held-in-one-hand"
        },
        "weapon": {
            "value": ""
        }
    },
    "effects": [],
    "flags": {},
    "img": "systems/pf2e/icons/actions/Reaction.png",
    "name": "Absorb into the Aegis",
    "permission": {
        "default": 0
    },
    "type": "action"
}
