{
    "_id": "bp0Up04x3dzGK5bB",
    "data": {
        "actionCategory": {
            "value": ""
        },
        "actionType": {
            "value": "free"
        },
        "actions": {
            "value": ""
        },
        "description": {
            "chat": "",
            "unidentified": "",
            "value": "<p><strong>Trigger</strong> Your Strike hits a flat-footed creature and deals damage</p>\n<hr>\n<p>You apply one of the following debilitations, which lasts until the end of your next turn:</p>\n<ul>\n<li><strong>Debilitation</strong> The target takes a -10-foot status penalty to its Speeds.</li>\n<li><strong>Debilitation</strong> The target becomes <a class=\"entity-link\" draggable=\"true\" data-pack=\"pf2e.conditionitems\" data-id=\"MIRkyAjyBeXivMa7\"> Enfeebled</a> 1.</li>\n</ul>"
        },
        "rarity": {
            "value": "common"
        },
        "requirements": {
            "value": ""
        },
        "rules": [],
        "skill_requirement": {
            "skill": {
                "rank": "",
                "skill": ""
            }
        },
        "skill_requirements": {
            "rank": "",
            "skill": ""
        },
        "source": {
            "value": ""
        },
        "traits": {
            "custom": "",
            "value": [
                "rogue"
            ]
        },
        "trigger": {
            "value": ""
        },
        "usage": {
            "value": "held-in-one-hand"
        },
        "weapon": {
            "value": ""
        }
    },
    "effects": [],
    "flags": {},
    "img": "systems/pf2e/icons/actions/FreeAction.png",
    "name": "Debilitating Strike",
    "permission": {
        "default": 0
    },
    "type": "action"
}
