{
    "_id": "r5Uth6yvCoE4tr9z",
    "data": {
        "actionCategory": {
            "value": ""
        },
        "actionType": {
            "value": "reaction"
        },
        "actions": {
            "value": ""
        },
        "description": {
            "chat": "",
            "unidentified": "",
            "value": "<p><strong>Trigger</strong> An enemy within 15 feet damages you</p>\n<hr>\n<p>Bloodshed begets bloodshed as you drag your enemy toward oblivion. You increase the amount of damage you take by <a class=\"inline-roll roll\" title=\"1d6\" data-mode=\"roll\" data-flavor=\"\" data-formula=\"1d6\"> 1d6</a>, and you deal <a class=\"inline-roll roll\" title=\"1d6\" data-mode=\"roll\" data-flavor=\"\" data-formula=\"1d6\"> 1d6</a> damage to the triggering enemy, choosing evil or negative damage to deal to the enemy each time you use this reaction. In addition, until the end of your next turn, your <a class=\"entity-link\" draggable=\"true\" data-pack=\"pf2e.actionspf2e\" data-id=\"VjxZFuUXrCU94MWR\"> Strikes</a> against the triggering creature deal <a class=\"inline-roll roll\" title=\"2\" data-mode=\"roll\" data-flavor=\"\" data-formula=\"2\"> 2</a> extra damage of the type you chose.</p>\n<p>The damage you take and deal when you use this reaction increases to <a class=\"inline-roll roll\" title=\"2d6\" data-mode=\"roll\" data-flavor=\"\" data-formula=\"2d6\"> 2d6</a> at 5th level, <a class=\"inline-roll roll\" title=\"3d6\" data-mode=\"roll\" data-flavor=\"\" data-formula=\"3d6\"> 3d6</a> at 9th level, <a class=\"inline-roll roll\" title=\"4d6\" data-mode=\"roll\" data-flavor=\"\" data-formula=\"4d6\"> 4d6</a> at 12th level, <a class=\"inline-roll roll\" title=\"5d6\" data-mode=\"roll\" data-flavor=\"\" data-formula=\"5d6\"> 5d6</a> at 16th level, and <a class=\"inline-roll roll\" title=\"6d6\" data-mode=\"roll\" data-flavor=\"\" data-formula=\"6d6\"> 6d6</a> at 19th level. The extra damage on your Strikes increases to <a class=\"inline-roll roll\" title=\"4\" data-mode=\"roll\" data-flavor=\"\" data-formula=\"4\"> 4</a> at 9th level and <a class=\"inline-roll roll\" title=\"6\" data-mode=\"roll\" data-flavor=\"\" data-formula=\"6\"> 6</a> at 16th level.</p>"
        },
        "rarity": {
            "value": "common"
        },
        "requirements": {
            "value": ""
        },
        "rules": [],
        "skill_requirement": {
            "skill": {
                "rank": "",
                "skill": ""
            }
        },
        "skill_requirements": {
            "rank": "",
            "skill": ""
        },
        "source": {
            "value": ""
        },
        "traits": {
            "custom": "",
            "value": [
                "champion"
            ]
        },
        "trigger": {
            "value": ""
        },
        "usage": {
            "value": "held-in-one-hand"
        },
        "weapon": {
            "value": ""
        }
    },
    "effects": [],
    "flags": {},
    "img": "systems/pf2e/icons/actions/Reaction.png",
    "name": "Destructive Vengeance",
    "permission": {
        "default": 0
    },
    "type": "action"
}
