{
    "_id": "e2ePMDa7ixbLRryj",
    "data": {
        "actionCategory": {
            "value": ""
        },
        "actionType": {
            "value": "action"
        },
        "actions": {
            "value": ""
        },
        "description": {
            "chat": "",
            "unidentified": "",
            "value": "<p><span><strong>Prerequisites</strong>: Trained in Diplomacy<br><strong>Requirements</strong>: The target ally lost Stamina Points within the last round<br></span></p>\n<hr>\n<p>You give an ally within 30 feet a quick pep talk, helping them recover. Attempt a Diplomacy check. The DC is usually 15, though the GM might adjust it based on the circumstances. If you have expert proficiency in Diplomacy, you can instead attempt a DC 20 check to increase the Stamina Points recovered by 5; if you have master proficiency, you can attempt a DC 30 check to increase the Stamina Points by 15; if you have legendary proficiency, you can attempt a DC 40 check to increase the Stamina Points by 25. No matter the result, the ally is temporarily immune to Encouraging Words until they either <a class=\"entity-link\" draggable=\"true\" data-pack=\"pf2e.actionspf2e\" data-id=\"qc0VsZ0UesnurUUB\"> Take a Breather</a> or rest for the day.</p>\n<hr>\n<p><strong>Critical Success</strong>: The ally recovers <a class=\"inline-roll roll\" title=\"2d8\" data-mode=\"roll\" data-flavor=\"\" data-formula=\"2d8\"> 2d8</a> Stamina Points.</p>\n<p><strong>Success</strong> The ally recovers <a class=\"inline-roll roll\" title=\"1d8\" data-mode=\"roll\" data-flavor=\"\" data-formula=\"1d8\"> 1d8</a> Stamina Points.</p>\n<p><strong>Critical Failure</strong> The ally takes <a class=\"inline-roll roll\" title=\"mental\" data-mode=\"roll\" data-flavor=\"mental\" data-formula=\"1d8\"> 1d8</a> mental damage, but this can reduce only Stamina Points, never Hit Points.</p>"
        },
        "rarity": {
            "value": "common"
        },
        "requirements": {
            "value": ""
        },
        "rules": [],
        "skill_requirement": {
            "skill": {
                "rank": "",
                "skill": ""
            }
        },
        "skill_requirements": {
            "rank": "",
            "skill": ""
        },
        "source": {
            "value": ""
        },
        "traits": {
            "custom": "",
            "selected": {
                "auditory": "Auditory",
                "general": "General",
                "linguistic": "Linguistic",
                "mental": "Mental",
                "skill": "Skill"
            },
            "value": [
                "auditory",
                "general",
                "linguistic",
                "mental",
                "skill"
            ]
        },
        "trigger": {
            "value": ""
        },
        "usage": {
            "value": "held-in-one-hand"
        },
        "weapon": {
            "value": ""
        }
    },
    "effects": [],
    "flags": {},
    "img": "systems/pf2e/icons/actions/OneAction.png",
    "name": "Encouraging Words",
    "permission": {
        "default": 0
    },
    "type": "action"
}
