{
    "_id": "SjmKHgI7a5Z9JzBx",
    "data": {
        "actionCategory": {
            "value": ""
        },
        "actionType": {
            "label": "Action Type",
            "type": "String",
            "value": "action"
        },
        "actions": {
            "label": "Number of Actions",
            "type": "String",
            "value": "1"
        },
        "description": {
            "chat": "",
            "label": "Description",
            "type": "String",
            "unidentified": "",
            "value": "<p>Using your body, a lever, or some other tool, you attempt to forcefully open a door, window, container or heavy gate. With a high enough result, you can even smash through walls. Without a crowbar, prying something open takes a -2 item penalty to the Athletics check to Force Open.</p>\n<hr />\n<p><strong>Critical Success</strong> You open the door, window, container, or gate and can avoid damaging it in the process.</p>\n<p><strong>Success</strong> You break the door, window, container, or gate open, and it gains the broken condition. If it's especially sturdy, the GM might have it take damage but not be broken.</p>\n<p><strong>Critical Failure</strong> Your attempt jams the door, window, container, or gate shut, imposing a -2 circumstance penalty on future attempts to Force it Open.</p>\n<p></p>\n<h2>Sample Force Open Tasks</h2>\n<ul>\n<li><strong>Untrained</strong> fabric, flimsy glass</li>\n<li><strong>Trained</strong> ice, sturdy glass</li>\n<li><strong>Expert</strong> flimsy wooden door, wooden portcullis</li>\n<li><strong>Master</strong> sturdy wooden door, iron portcullis, metal bar</li>\n<li><strong>Legendary</strong> stone or iron door</li>\n</ul>"
        },
        "rarity": {
            "value": "common"
        },
        "requirements": {
            "label": "Requirements",
            "type": "String",
            "value": ""
        },
        "rules": [],
        "skill_requirement": {
            "label": "Skill Req.",
            "skill": {
                "rank": "0",
                "skill": "athletics",
                "type": "Number"
            },
            "type": "String"
        },
        "skill_requirements": {
            "rank": "",
            "skill": ""
        },
        "source": {
            "label": "Source",
            "type": "String",
            "value": ""
        },
        "traits": {
            "custom": "",
            "label": "Traits",
            "type": "String",
            "value": [
                "attack",
                "skill"
            ]
        },
        "trigger": {
            "label": "Trigger",
            "type": "String",
            "value": ""
        },
        "usage": {
            "value": "held-in-one-hand"
        },
        "weapon": {
            "label": "Associated Weapon",
            "type": "String",
            "value": ""
        }
    },
    "effects": [],
    "flags": {},
    "img": "systems/pf2e/icons/actions/OneAction.png",
    "name": "Force Open",
    "permission": {
        "default": 0
    },
    "type": "action"
}
