{
    "_id": "tuZnRWHixLArvaIf",
    "data": {
        "actionCategory": {
            "value": ""
        },
        "actionType": {
            "value": "reaction"
        },
        "actions": {
            "value": ""
        },
        "description": {
            "chat": "",
            "unidentified": "",
            "value": "<p><strong>Trigger</strong> An enemy damages your ally, and both are within 15 feet of you</p>\n<hr>\n<p>Your foe hesitates under the weight of sin as visions of redemption play in their mind's eye. The foe must choose one of the following options:</p>\n<ul>\n<li>The ally is unharmed by the triggering damage.</li>\n<li>The ally gains resistance to all damage against the triggering damage equal to 2 + your level. After the damaging effect is applied, the enemy becomes <a class=\"entity-link\" draggable=\"true\" data-pack=\"pf2e.conditionitems\" data-id=\"MIRkyAjyBeXivMa7\"> Enfeebled</a> 2 until the end of its next turn.</li>\n</ul>"
        },
        "rarity": {
            "value": "common"
        },
        "requirements": {
            "value": ""
        },
        "rules": [],
        "skill_requirement": {
            "skill": {
                "rank": "",
                "skill": ""
            }
        },
        "skill_requirements": {
            "rank": "",
            "skill": ""
        },
        "source": {
            "value": ""
        },
        "traits": {
            "custom": "",
            "value": [
                "champion"
            ]
        },
        "trigger": {
            "value": ""
        },
        "usage": {
            "value": "held-in-one-hand"
        },
        "weapon": {
            "value": ""
        }
    },
    "effects": [],
    "flags": {},
    "img": "systems/pf2e/icons/actions/Reaction.png",
    "name": "Glimpse of Redemption",
    "permission": {
        "default": 0
    },
    "type": "action"
}
