{
    "_id": "rSpCV0leurp2Bg2d",
    "data": {
        "actionCategory": {
            "value": ""
        },
        "actionType": {
            "value": "reaction"
        },
        "actions": {
            "value": ""
        },
        "description": {
            "chat": "",
            "unidentified": "",
            "value": "<p><strong>Prerequisites</strong>: At least one arcane or occult innate spell gained from a gnome heritage or gnome ancestry feat<br><strong>Frequency</strong>: Once per day<br><strong>Trigger</strong>: You are attacked by a foe</p>\n<hr>\n<p>The magic within you manifests as a natural reaction to threats. You gain the effects of <a class=\"entity-link\" draggable=\"true\" data-pack=\"pf2e.spells-srd\" data-id=\"j8vIoIEWElvpwkcI\"> Mirror Image</a> but with two images instead of three. The tradition of this action matches the tradition of your gnome ancestry options.</p>"
        },
        "rarity": {
            "value": "common"
        },
        "requirements": {
            "value": ""
        },
        "rules": [],
        "skill_requirement": {
            "skill": {
                "rank": "",
                "skill": ""
            }
        },
        "skill_requirements": {
            "rank": "",
            "skill": ""
        },
        "source": {
            "value": ""
        },
        "traits": {
            "custom": "",
            "selected": {},
            "value": [
                "gnome",
                "illusion",
                "visual"
            ]
        },
        "trigger": {
            "value": ""
        },
        "usage": {
            "value": "held-in-one-hand"
        },
        "weapon": {
            "value": ""
        }
    },
    "effects": [],
    "flags": {},
    "img": "systems/pf2e/icons/actions/Reaction.png",
    "name": "Instinctive Obfuscation",
    "permission": {
        "default": 0
    },
    "type": "action"
}
