{
    "_id": "7blmbDrQFNfdT731",
    "data": {
        "actionCategory": {
            "value": ""
        },
        "actionType": {
            "label": "Action Type",
            "type": "String",
            "value": "action"
        },
        "actions": {
            "label": "Number of Actions",
            "type": "String",
            "value": "1"
        },
        "description": {
            "chat": "",
            "label": "Description",
            "type": "String",
            "unidentified": "",
            "value": "<p><strong>Requirements</strong> You have at least one hand free. The target can't be more than one size larger than you</p>\n<hr>\n<p>You push an opponent away from you. Attempt an Athletics check against your opponent's Fortitude DC.</p>\n<hr>\n<p><strong>Critical Success</strong> You push your opponent up to 10 feet away from you. You can Stride after it, but you must move the same distance and in the same direction.</p>\n<p><strong>Success</strong> You push your opponent back 5 feet. You can Stride after it, but you must move the same distance and in the same direction.</p>\n<p><strong>Critical Failure</strong> You lose your balance, fall, and land <a class=\"entity-link\" draggable=\"true\" data-pack=\"pf2e.conditionitems\" data-id=\"j91X7x0XSomq8d60\"> Prone</a>.</p>"
        },
        "rarity": {
            "value": "common"
        },
        "requirements": {
            "label": "Requirements",
            "type": "String",
            "value": ""
        },
        "rules": [],
        "skill_requirement": {
            "label": "Skill Req.",
            "skill": {
                "rank": "0",
                "skill": "athletics",
                "type": "Number"
            },
            "type": "String"
        },
        "skill_requirements": {
            "rank": "",
            "skill": ""
        },
        "source": {
            "label": "Source",
            "type": "String",
            "value": ""
        },
        "traits": {
            "custom": "",
            "label": "Traits",
            "type": "String",
            "value": [
                "attack",
                "skill"
            ]
        },
        "trigger": {
            "label": "Trigger",
            "type": "String",
            "value": ""
        },
        "usage": {
            "value": "held-in-one-hand"
        },
        "weapon": {
            "label": "Associated Weapon",
            "type": "String",
            "value": ""
        }
    },
    "effects": [],
    "flags": {},
    "img": "systems/pf2e/icons/actions/OneAction.png",
    "name": "Shove",
    "permission": {
        "default": 0
    },
    "type": "action"
}
