{
    "_id": "BBj6jrdyff7QOgjH",
    "data": {
        "actionCategory": {
            "value": ""
        },
        "actionType": {
            "value": "passive"
        },
        "actions": {
            "value": ""
        },
        "description": {
            "chat": "",
            "unidentified": "",
            "value": "<p>In the heat of battle, you are capable of amazing feats of strength.</p>\n<p>While you are @Compendium[pf2e.actionspf2e.Rage]{Raging}, increase your encumbered and maximum Bulk limits by 2; you also gain a +1 status bonus to Athletics checks to lift heavy objects, @Compendium[pf2e.actionspf2e.Escape]{Escape}, and @Compendium[pf2e.actionspf2e.Force Open]{Force Open}.</p>"
        },
        "featType": {
            "value": "class"
        },
        "level": {
            "value": "1"
        },
        "prerequisites": {
            "value": [
                ""
            ]
        },
        "rarity": {
            "value": "common"
        },
        "source": {
            "value": ""
        },
        "traits": {
            "rarity": {
                "value": "common"
            },
            "value": [
                "barbarian",
                "rage"
            ]
        },
        "usage": {
            "value": ""
        }
    },
    "flags": {},
    "img": "systems/pf2e/icons/features/feats/feats.jpg",
    "name": "Adrenaline Rush",
    "permission": {
        "default": 0
    },
    "type": "feat"
}