{
    "_id": "PxTRE0mFEO3tyt8h",
    "data": {
        "actionCategory": {
            "value": ""
        },
        "actionType": {
            "value": "passive"
        },
        "actions": {
            "value": ""
        },
        "description": {
            "chat": "",
            "unidentified": "",
            "value": "<p>You gain one oracle feat. For meeting its prerequisites, your oracle level is equal to half your level.</p>\n<p><strong>Special</strong> You can select this feat more than once. Each time, you gain another oracle feat.</p>"
        },
        "featType": {
            "value": "archetype"
        },
        "level": {
            "value": "6"
        },
        "prerequisites": {
            "value": [
                "Basic Mysteries"
            ]
        },
        "rarity": {
            "value": "common"
        },
        "source": {
            "value": ""
        },
        "traits": {
            "custom": "",
            "rarity": {
                "value": "common"
            },
            "value": [
                "archetype"
            ]
        },
        "usage": {
            "value": ""
        }
    },
    "flags": {},
    "img": "systems/pf2e/icons/features/feats/feats.jpg",
    "name": "Advanced Mysteries",
    "permission": {
        "default": 0
    },
    "type": "feat"
}
