{
    "_id": "scNrNhnGTgPIzoj7",
    "data": {
        "actionCategory": {
            "value": ""
        },
        "actionType": {
            "value": "passive"
        },
        "actions": {
            "value": ""
        },
        "description": {
            "chat": "",
            "unidentified": "",
            "value": "<p>Long-lived elves have seen civilizations rise and fall, often at the hands of outside forces. As a result, they have developed a wariness of others who might seek to influence or control them.</p>\n<p>You've been trained to resist such manipulation, gaining a +2 circumstance bonus to saving throws against effects that would make you controlled, such as @Compendium[pf2e.spells-srd.Dominate]{Dominate}, and to Perception checks to @Compendium[pf2e.actionspf2e.Sense Motive]{Sense Motive} when trying to determine if a creature is under the influence of such an effect.</p>\n<p>When you roll a success on a saving throw against such an effect, you get a critical success instead.</p>"
        },
        "featType": {
            "value": "ancestry"
        },
        "level": {
            "value": "5"
        },
        "prerequisites": {
            "value": [
                ""
            ]
        },
        "rarity": {
            "value": "common"
        },
        "source": {
            "value": ""
        },
        "traits": {
            "rarity": {
                "value": "common"
            },
            "value": [
                "elf"
            ]
        },
        "usage": {
            "value": ""
        }
    },
    "flags": {},
    "img": "systems/pf2e/icons/features/feats/feats.jpg",
    "name": "Ancestral Suspicion",
    "permission": {
        "default": 0
    },
    "type": "feat"
}