{
    "_id": "bRftzbFvSF1pilIo",
    "data": {
        "actionCategory": {
            "value": ""
        },
        "actionType": {
            "value": "action"
        },
        "actions": {
            "value": "1"
        },
        "description": {
            "chat": "",
            "unidentified": "",
            "value": "<p>You forge a mystical connection with an ally using your body as a focus, allowing them to benefit from your magic.</p>\n<p>You place a blood rune on an adjacent ally that lasts for 1 minute. When you would gain a blood magic effect, you can forgo it, granting it to your ally instead.</p>\n<p>You can anoint only one ally at a time; if you place another rune, your previous designation ends.</p>"
        },
        "featType": {
            "value": "class"
        },
        "level": {
            "value": "2"
        },
        "prerequisites": {
            "value": [
                ""
            ]
        },
        "rarity": {
            "value": "common"
        },
        "source": {
            "value": ""
        },
        "traits": {
            "custom": "",
            "rarity": {
                "value": "common"
            },
            "value": [
                "manipulate",
                "sorcerer"
            ]
        },
        "usage": {
            "value": ""
        }
    },
    "flags": {},
    "img": "systems/pf2e/icons/features/feats/feats.jpg",
    "name": "Anoint Ally",
    "permission": {
        "default": 0
    },
    "type": "feat"
}
