{
    "_id": "7O0PrMoXd5L8dRfg",
    "data": {
        "actionCategory": {
            "value": ""
        },
        "actionType": {
            "value": "free"
        },
        "actions": {
            "value": null
        },
        "description": {
            "chat": "",
            "unidentified": "",
            "value": "<p><strong>Trigger</strong> You are about to roll a Perception, Society, or Thievery check for initiative.</p>\n<hr>\n<p>You visually or audibly warn your companions of danger, granting them a +1 circumstance bonus to their initiative rolls. Depending on whether you use gestures or call out, this free action gains either the visual or auditory trait.</p>"
        },
        "featType": {
            "value": "archetype"
        },
        "level": {
            "value": "6"
        },
        "prerequisites": {
            "value": [
                "Pathfinder Agent Dedication"
            ]
        },
        "rarity": {
            "value": "common"
        },
        "rules": [],
        "source": {
            "value": ""
        },
        "traits": {
            "custom": "",
            "rarity": {
                "value": "common"
            },
            "value": [
                "archetype"
            ]
        },
        "usage": {
            "value": "held-in-one-hand"
        }
    },
    "effects": [],
    "flags": {
        "core": {
            "sourceId": "Item.XIx7tC01Mz1F0hFp"
        }
    },
    "img": "systems/pf2e/icons/features/feats/feats.jpg",
    "name": "Archaeologist's Warning",
    "permission": {
        "default": 0
    },
    "type": "feat"
}
