{
    "_id": "YTZhLWtrEnV9Pjf2",
    "data": {
        "actionCategory": {
            "value": ""
        },
        "actionType": {
            "value": "reaction"
        },
        "actions": {
            "value": ""
        },
        "description": {
            "chat": "",
            "unidentified": "",
            "value": "<p><strong>Trigger</strong> A foe's Strike reduces you to 0 Hit Points; you were not at 1 Hit Point and you would not be killed.<br></span></p>\n<hr>\n<p>Your confidence borders on self-delusion, but it keeps you going against overwhelming odds. Attempt a Deception check against the attack DC of the triggering Strike. You take a penalty to this check equal to twice your wounded value, if any. If the triggering attack was a critical hit, use the result one degree of success worse than what you rolled.<br><br><strong>Critical Success</strong> You avoid being knocked out and remain at 1 Hit Point.<br><strong>Success</strong> You avoid being knocked out and remain at 1 Hit Point, but you increase your @Compendium[pf2e.conditionitems.Wounded]{Wounded} value by 1.</p>"
        },
        "featType": {
            "value": "archetype"
        },
        "level": {
            "value": "8"
        },
        "prerequisites": {
            "value": [
                "expert in Deception",
                "Firebrand Braggart Dedication"
            ]
        },
        "rarity": {
            "value": "common"
        },
        "source": {
            "value": ""
        },
        "traits": {
            "custom": "",
            "rarity": {
                "value": "common"
            },
            "value": [
                "archetype"
            ]
        },
        "usage": {
            "value": "held-in-one-hand"
        }
    },
    "flags": {},
    "img": "systems/pf2e/icons/features/feats/feats.jpg",
    "name": "Bravo's Determination",
    "permission": {
        "default": 0
    },
    "type": "feat"
}