{
    "_id": "DYUlMxh7TDgEh9xB",
    "data": {
        "actionCategory": {
            "value": ""
        },
        "actionType": {
            "label": "Action Type",
            "type": "String",
            "value": "passive"
        },
        "actions": {
            "label": "Number of Actions",
            "type": "String",
            "value": ""
        },
        "description": {
            "chat": "",
            "label": "Description",
            "type": "String",
            "unidentified": "",
            "value": "<p>The brutality of your critical hits shakes your foes' confidence. Whenever your Strike is a critical hit and deals damage, the target is @Compendium[pf2e.conditionitems.Frightened]{Frightened} 1.</p>"
        },
        "featType": {
            "label": "Feat Type",
            "type": "String",
            "value": "class"
        },
        "level": {
            "label": "Feat Level",
            "type": "String",
            "value": "2"
        },
        "prerequisites": {
            "label": "Prerequisites",
            "type": "String",
            "value": [
                "ruffian racket"
            ]
        },
        "rarity": {
            "value": "common"
        },
        "source": {
            "label": "Source",
            "type": "String",
            "value": ""
        },
        "traits": {
            "custom": "",
            "label": "Traits",
            "rarity": {
                "value": "common"
            },
            "type": "String",
            "value": [
                "rogue"
            ]
        },
        "usage": {
            "value": "held-in-one-hand"
        }
    },
    "flags": {},
    "img": "systems/pf2e/icons/features/feats/feats.jpg",
    "name": "Brutal Beating",
    "permission": {
        "default": 0
    },
    "type": "feat"
}