{
    "_id": "0BR61rW4JFOfO7T7",
    "data": {
        "actionCategory": {
            "value": ""
        },
        "actionType": {
            "value": "passive"
        },
        "actions": {
            "value": ""
        },
        "description": {
            "chat": "",
            "unidentified": "",
            "value": "<p>You can extend one of your spells with a quick burst of laughter. You learn the <a class=\"entity-link\" data-pack=\"pf2e.spells-srd\" data-id=\"YVK3JUkPVzHIeGXQ\" draggable=\"true\"> Cackle</a> hex. Increase the number of Focus Points in your focus pool by 1.</p>"
        },
        "featType": {
            "value": "class"
        },
        "level": {
            "value": "1"
        },
        "prerequisites": {
            "value": [
                ""
            ]
        },
        "rarity": {
            "value": "common"
        },
        "source": {
            "value": ""
        },
        "traits": {
            "rarity": {
                "value": "common"
            },
            "value": [
                "witch"
            ]
        },
        "usage": {
            "value": ""
        }
    },
    "flags": {},
    "img": "systems/pf2e/icons/features/feats/feats.jpg",
    "name": "Cackle",
    "permission": {
        "default": 0
    },
    "type": "feat"
}
