{
    "_id": "D2KSVHPRlBEibrV8",
    "data": {
        "actionCategory": {
            "value": ""
        },
        "actionType": {
            "value": "reaction"
        },
        "actions": {
            "value": ""
        },
        "description": {
            "chat": "",
            "unidentified": "",
            "value": "<p><strong>Trigger</strong> You take damage that would reduce you to 0 Hit Points.</p>\n<hr>\n<p>Somehow you always escape the reaper by a hair's breadth. You avoid being knocked out or killed and remain at 1 Hit Point, but you become <a class=\"entity-link\" data-pack=\"pf2e.conditionitems\" data-id=\"3uh1r86TzbQvosxv\" draggable=\"true\"><i class=\"fas fa-book-open\"></i> Doomed</a> 1 (or increase your doomed value by 1 if you were already doomed).</p>\n<p>You can't reduce or ignore the doomed condition from Cheating Death. The doomed condition from Cheating Death lasts for 10 minutes, though this doesn't affect the duration of any other doomed condition you have.</p>"
        },
        "featType": {
            "value": "class"
        },
        "level": {
            "value": "12"
        },
        "prerequisites": {
            "value": [
                ""
            ]
        },
        "rarity": {
            "value": "common"
        },
        "source": {
            "value": ""
        },
        "traits": {
            "rarity": {
                "value": "common"
            },
            "value": [
                "swashbuckler"
            ]
        },
        "usage": {
            "value": ""
        }
    },
    "flags": {},
    "img": "systems/pf2e/icons/features/feats/feats.jpg",
    "name": "Cheat Death",
    "permission": {
        "default": 0
    },
    "type": "feat"
}
