{
    "_id": "Pox93XMBaFmeLIDM",
    "data": {
        "actionCategory": {
            "value": ""
        },
        "actionType": {
            "value": "passive"
        },
        "actions": {
            "value": ""
        },
        "description": {
            "chat": "",
            "unidentified": "",
            "value": "<p>Your cheeks are stretchy, and you can store up to four items of light Bulk or less in these cheek pouches. None of these items can have a dimension longer than 1 foot.</p>\n<p>As long as you have at least one item in your cheek pouches, your speech is noticeably difficult to understand.</p>\n<p>Placing an item in your cheek pouch or retrieving one is an Interact action. You can empty your mouth with a single action, causing everything you had stored in your cheek pouches to fall to the ground in your square.</p>"
        },
        "featType": {
            "value": "ancestry"
        },
        "level": {
            "value": "1"
        },
        "prerequisites": {
            "value": [
                ""
            ]
        },
        "rarity": {
            "value": "common"
        },
        "source": {
            "value": ""
        },
        "traits": {
            "rarity": {
                "value": "common"
            },
            "value": [
                "ratfolk"
            ]
        },
        "usage": {
            "value": ""
        }
    },
    "flags": {},
    "img": "systems/pf2e/icons/features/feats/feats.jpg",
    "name": "Cheek Pouches",
    "permission": {
        "default": 0
    },
    "type": "feat"
}
