{
    "_id": "kqW6d3Dfk4nApd7y",
    "data": {
        "actionCategory": {
            "value": ""
        },
        "actionType": {
            "value": "action"
        },
        "actions": {
            "value": "1"
        },
        "description": {
            "chat": "",
            "unidentified": "",
            "value": "<p>You use a performer's cold reading techniques, aura reading, and other tricks to discover your foe's strengths and weaknesses.</p>\n<p>The GM rolls a secret Occultism check for you against the Deception or Stealth DC (whichever is higher) of an enemy of your choice who is engaged in combat and isn't <a class=\"entity-link\" data-pack=\"pf2e.conditionitems\" data-id=\"DmAIPqOBomZ7H95W\" draggable=\"true\"><i class=\"fas fa-book-open\"></i> Concealed</a> from you, <a class=\"entity-link\" data-pack=\"pf2e.conditionitems\" data-id=\"iU0fEDdBp3rXpTMC\" draggable=\"true\"><i class=\"fas fa-book-open\"></i> Hidden</a> from you, or <a class=\"entity-link\" data-pack=\"pf2e.conditionitems\" data-id=\"VRSef5y1LmL2Hkjf\" draggable=\"true\"><i class=\"fas fa-book-open\"></i> Undetected</a> by you. The GM might apply a penalty for the distance between you and the enemy. The enemy is then temporarily immune to your Combat Reading for 1 day.</p>\n<hr>\n<p><strong>Critical Success</strong> The GM chooses and tells you two of the <br>following pieces of information about the enemy: which of <br>the enemy's weaknesses is highest, which of the enemy's <br>saving throws has the lowest modifier, one immunity the <br>enemy has, or which of the enemy's resistances is highest. <br>In the event of a tie, the GM should pick one at random.</p>\n<p><strong>Success</strong> The GM chooses one piece of information from the <br>above list to tell you about the enemy.</p>\n<p><strong>Critical Failure</strong> The GM gives you false information (the GM <br>makes up the information).</p>"
        },
        "featType": {
            "value": "class"
        },
        "level": {
            "value": "4"
        },
        "prerequisites": {
            "value": [
                ""
            ]
        },
        "rarity": {
            "value": "common"
        },
        "source": {
            "value": ""
        },
        "traits": {
            "rarity": {
                "value": "common"
            },
            "value": [
                "bard",
                "secret"
            ]
        },
        "usage": {
            "value": ""
        }
    },
    "flags": {},
    "img": "systems/pf2e/icons/features/feats/feats.jpg",
    "name": "Combat Reading",
    "permission": {
        "default": 0
    },
    "type": "feat"
}
