{
    "_id": "5FyvwI24mnROzh61",
    "data": {
        "actionCategory": {
            "value": ""
        },
        "actionType": {
            "value": "action"
        },
        "actions": {
            "value": "1"
        },
        "description": {
            "chat": "",
            "unidentified": "",
            "value": "<p>You make a telegraphed attack to learn about your foe.</p>\n<p>Make a melee @Compendium[pf2e.actionspf2e.Strike]{Strike}. On a hit, you can immediately attempt a check to @Compendium[pf2e.actionspf2e.Recall Knowledge (Arcana)]{Recall Knowledge} about the target. On a critical hit, you gain a +2 circumstance bonus to the check to Recall Knowledge.</p>\n<p>The target is temporarily immune to Combat Assessment for 1 day.</p>"
        },
        "featType": {
            "value": "class"
        },
        "level": {
            "value": "1"
        },
        "prerequisites": {
            "value": [
                ""
            ]
        },
        "rarity": {
            "value": "common"
        },
        "source": {
            "value": ""
        },
        "traits": {
            "rarity": {
                "value": "common"
            },
            "value": [
                "fighter"
            ]
        },
        "usage": {
            "value": ""
        }
    },
    "flags": {},
    "img": "systems/pf2e/icons/features/feats/feats.jpg",
    "name": "Combat Assessment",
    "permission": {
        "default": 0
    },
    "type": "feat"
}