{
    "_id": "8C9qo5LL9J0UTNGc",
    "data": {
        "actionCategory": {
            "value": ""
        },
        "actionType": {
            "value": "action"
        },
        "actions": {
            "value": "1"
        },
        "description": {
            "chat": "",
            "unidentified": "",
            "value": "<p>You use your performance to orchestrate an onslaught against your enemies. If your next action is to cast the @Compendium[pf2e.spells-srd.Inspire Courage]{Inspire Courage} composition cantrip, one ally who gains a status bonus from the spell can immediately use a reaction to @Compendium[pf2e.actionspf2e.Stride]{Stride} and then make a melee @Compendium[pf2e.actionspf2e.Strike]{Strike}.</p>"
        },
        "featType": {
            "value": "class"
        },
        "level": {
            "value": "16"
        },
        "prerequisites": {
            "value": [
                "Courageous Advance",
                "Courageous Assault"
            ]
        },
        "rarity": {
            "value": "common"
        },
        "source": {
            "value": ""
        },
        "traits": {
            "rarity": {
                "value": "common"
            },
            "value": [
                "auditory",
                "bard",
                "concentrate",
                "metamagic"
            ]
        },
        "usage": {
            "value": ""
        }
    },
    "flags": {},
    "img": "systems/pf2e/icons/features/feats/feats.jpg",
    "name": "Courageous Onslaught",
    "permission": {
        "default": 0
    },
    "type": "feat"
}