{
    "_id": "vxA0VRN10OwUkGAr",
    "data": {
        "actionCategory": {
            "value": ""
        },
        "actionType": {
            "value": "action"
        },
        "actions": {
            "value": "1"
        },
        "description": {
            "chat": "",
            "unidentified": "",
            "value": "<p>The harm you deal with your corrupting touch saps the strength from your enemy's body. If your next action is to cast touch of corruption on a living creature, the target is also @Compendium[pf2e.conditionitems.Enfeebled]{Enfeebled} 1 for 1 minute if it fails its save (enfeebled 2 if it critically fails).</p>"
        },
        "featType": {
            "value": "class"
        },
        "level": {
            "value": "4"
        },
        "prerequisites": {
            "value": [
                "devotion spell (touch of corruption)"
            ]
        },
        "rarity": {
            "value": "common"
        },
        "source": {
            "value": ""
        },
        "traits": {
            "rarity": {
                "value": "common"
            },
            "value": [
                "uncommon",
                "champion",
                "concentrate",
                "metamagic"
            ]
        },
        "usage": {
            "value": ""
        }
    },
    "flags": {},
    "img": "systems/pf2e/icons/features/feats/feats.jpg",
    "name": "Cruelty",
    "permission": {
        "default": 0
    },
    "type": "feat"
}