{
    "_id": "e8ChYAaQ9Aa8aZES",
    "data": {
        "actionCategory": {
            "value": ""
        },
        "actionType": {
            "value": "passive"
        },
        "actions": {
            "value": ""
        },
        "description": {
            "chat": "",
            "unidentified": "",
            "value": "<p>Your graceful attacks are especially powerful.</p>\n<p>When you score a critical hit with an agile or finesse melee weapon that has the deadly trait, you double the number of dice from that trait. When you wield an agile or finesse melee weapon that doesn't have the deadly trait, it gains the deadly d8 trait instead.</p>"
        },
        "featType": {
            "value": "class"
        },
        "level": {
            "value": "16"
        },
        "prerequisites": {
            "value": [
                ""
            ]
        },
        "rarity": {
            "value": "common"
        },
        "source": {
            "value": ""
        },
        "traits": {
            "rarity": {
                "value": "common"
            },
            "value": [
                "swashbuckler"
            ]
        },
        "usage": {
            "value": ""
        }
    },
    "flags": {},
    "img": "systems/pf2e/icons/features/feats/feats.jpg",
    "name": "Deadly Grace",
    "permission": {
        "default": 0
    },
    "type": "feat"
}
