{
    "_id": "515N9nl9ChZwLWKR",
    "data": {
        "actionCategory": {
            "value": ""
        },
        "actionType": {
            "value": "action"
        },
        "actions": {
            "value": "1"
        },
        "description": {
            "chat": "",
            "unidentified": "",
            "value": "<p>Like the storied heroes who persist in the face of overwhelming odds, you and your allies will hold the line.</p>\n<p>If your next action is to cast the Inspire Defense composition cantrip, you can @Compendium[pf2e.actionspf2e.Raise a Shield]{Raise a Shield}, and one ally who gains a status bonus from the spell can immediately use a reaction to Raise a Shield.</p>"
        },
        "featType": {
            "value": "class"
        },
        "level": {
            "value": "6"
        },
        "prerequisites": {
            "value": [
                "warrior muse",
                "Inspire Defense"
            ]
        },
        "rarity": {
            "value": "common"
        },
        "source": {
            "value": ""
        },
        "traits": {
            "rarity": {
                "value": "common"
            },
            "value": [
                "auditory",
                "bard",
                "concentrate",
                "metamagic"
            ]
        },
        "usage": {
            "value": ""
        }
    },
    "flags": {},
    "img": "systems/pf2e/icons/features/feats/feats.jpg",
    "name": "Defensive Coordination",
    "permission": {
        "default": 0
    },
    "type": "feat"
}