{
    "_id": "cHOALlKY1XsCj3Fe",
    "data": {
        "actionCategory": {
            "value": ""
        },
        "actionType": {
            "value": "action"
        },
        "actions": {
            "value": "2"
        },
        "description": {
            "chat": "",
            "unidentified": "",
            "value": "<p>You unleash your breath weapon without spending focus. This has the effects of your Dragon Breath sorcerer bloodline spell, though it deals [[/r 9d6]] damage instead of its usual damage, and you don't have to cast it or spend a Focus Point. You can't use Disciple's Breath again for [[/r 1d4]] rounds.</p>"
        },
        "featType": {
            "value": "archetype"
        },
        "level": {
            "value": "16"
        },
        "prerequisites": {
            "value": [
                "Dragon Disciple Dedication", "dragon breath sorcerer bloodline spell"
            ]
        },
        "rarity": {
            "value": "common"
        },
        "source": {
            "value": ""
        },
        "traits": {
            "rarity": {
                "value": "common"
            },
            "value": [
                "archetype"
            ]
        },
        "usage": {
            "value": ""
        }
    },
    "flags": {},
    "img": "systems/pf2e/icons/features/feats/feats.jpg",
    "name": "Disciple's Breath",
    "permission": {
        "default": 0
    },
    "type": "feat"
}
