{
    "_id": "yoeMOIgH8Snw1JCQ",
    "data": {
        "actionCategory": {
            "value": ""
        },
        "actionType": {
            "value": "free"
        },
        "actions": {
            "value": null
        },
        "description": {
            "chat": "",
            "unidentified": "",
            "value": "<p><strong>Frequency</strong> once per round</p>\n<p><strong>Trigger</strong> You successfully Recall Knowledge about a creature you can see, using a skill in which you are a master.</p>\n<hr>\n<p>Your Pathfinder training allows you to quickly size up numerous threats. Attempt to Recall Knowledge against a different kind of creature you can see using the same skill. You must still meet the requirements to attempt this check.</p>"
        },
        "featType": {
            "value": "archetype"
        },
        "level": {
            "value": "8"
        },
        "prerequisites": {
            "value": [
                "Pathfinder Agent Dedication", "master in a skill used to Recall Knowledge"
            ]
        },
        "rarity": {
            "value": "common"
        },
        "rules": [],
        "source": {
            "value": ""
        },
        "traits": {
            "custom": "",
            "rarity": {
                "value": "common"
            },
            "value": [
                "archetype",
                "skill"
            ]
        },
        "usage": {
            "value": "held-in-one-hand"
        }
    },
    "effects": [],
    "flags": {
        "core": {
            "sourceId": "Item.gHcaZtbmIjK1LYGd"
        }
    },
    "img": "systems/pf2e/icons/features/feats/feats.jpg",
    "name": "Diverse Recognition",
    "permission": {
        "default": 0
    },
    "type": "feat"
}
