{
    "_id": "XRIWWrXfghsQce4S",
    "data": {
        "actionCategory": {
            "value": ""
        },
        "actionType": {
            "label": "Action Type",
            "type": "String",
            "value": "passive"
        },
        "actions": {
            "label": "Number of Actions",
            "type": "String",
            "value": ""
        },
        "description": {
            "chat": "",
            "label": "Description",
            "type": "String",
            "unidentified": "",
            "value": "<p>You can cast more divine spells each day. Increase the spell slots you gain from cleric archetype feats by 1 for each spell level other than your two highest spell slots.</p>"
        },
        "featType": {
            "label": "Feat Type",
            "type": "String",
            "value": "archetype"
        },
        "level": {
            "label": "Feat Level",
            "type": "String",
            "value": "8"
        },
        "prerequisites": {
            "label": "Prerequisites",
            "type": "String",
            "value": [
                "Basic Cleric Spellcasting"
            ]
        },
        "rarity": {
            "value": "common"
        },
        "source": {
            "label": "Source",
            "type": "String",
            "value": ""
        },
        "traits": {
            "custom": "",
            "label": "Traits",
            "rarity": {
                "value": "common"
            },
            "type": "String",
            "value": [
                "archetype"
            ]
        },
        "usage": {
            "value": "held-in-one-hand"
        }
    },
    "flags": {},
    "img": "systems/pf2e/icons/features/feats/feats.jpg",
    "name": "Divine Breadth",
    "permission": {
        "default": 0
    },
    "type": "feat"
}
