{
    "_id": "3uavnVbCsqTvzpgt",
    "data": {
        "actionCategory": {
            "value": ""
        },
        "actionType": {
            "label": "Action Type",
            "type": "String",
            "value": "action"
        },
        "actions": {
            "label": "Number of Actions",
            "type": "String",
            "value": "2"
        },
        "description": {
            "chat": "",
            "label": "Description",
            "type": "String",
            "unidentified": "",
            "value": "<p><strong>Requirements</strong> You haven't used this ability since you last Raged</p>\n<hr>\n<p>You breathe deeply and exhale powerful energy in a 30-foot cone or 60-foot line, dealing 1d6 damage per level. The area and damage type match those of your dragon (see Table 3-4. If you used this ability in the last hour, the area and the damage are halved (15-foot cone or 30-foot line; 1d6 damage for every 2 levels). Each creature in the area must attempt a basic Reflex save.</p>"
        },
        "featType": {
            "label": "Feat Type",
            "type": "String",
            "value": "class"
        },
        "level": {
            "label": "Feat Level",
            "type": "String",
            "value": "6"
        },
        "prerequisites": {
            "label": "Prerequisites",
            "type": "String",
            "value": [
                "dragon instinct"
            ]
        },
        "rarity": {
            "value": "common"
        },
        "source": {
            "label": "Source",
            "type": "String",
            "value": ""
        },
        "traits": {
            "custom": "",
            "label": "Traits",
            "rarity": {
                "value": "common"
            },
            "type": "String",
            "value": [
                "concentrate",
                "barbarian",
                "instinct",
                "rage",
                "arcane",
                "evocation"
            ]
        },
        "usage": {
            "value": "held-in-one-hand"
        }
    },
    "flags": {},
    "img": "systems/pf2e/icons/features/feats/feats.jpg",
    "name": "Dragon's Rage Breath",
    "permission": {
        "default": 0
    },
    "type": "feat"
}
