{
    "_id": "PxWdf4HAhZ8fUB3R",
    "data": {
        "actionCategory": {
            "value": ""
        },
        "actionType": {
            "value": "passive"
        },
        "actions": {
            "value": ""
        },
        "description": {
            "chat": "",
            "unidentified": "",
            "value": "<p>Your connection to psychopomps gives you the power to glimpse the near future and protect corpses from the ravages of undeath. You can cast @Compendium[pf2e.spells-srd.Augury]{Augury}and @Compendium[pf2e.spells-srd.Gentle Repose]{Gentle Repose} each once per day as 2nd-level divine innate spells.</p>"
        },
        "featType": {
            "value": "ancestry"
        },
        "level": {
            "value": "9"
        },
        "prerequisites": {
            "value": [
                ""
            ]
        },
        "rarity": {
            "value": "common"
        },
        "source": {
            "value": ""
        },
        "traits": {
            "rarity": {
                "value": "common"
            },
            "value": [
                "duskwalker"
            ]
        },
        "usage": {
            "value": ""
        }
    },
    "flags": {},
    "img": "systems/pf2e/icons/features/feats/feats.jpg",
    "name": "Duskwalker Magic",
    "permission": {
        "default": 0
    },
    "type": "feat"
}