{
    "_id": "UJ8AqzkkDqRCMNFW",
    "data": {
        "actionCategory": {
            "value": ""
        },
        "actionType": {
            "value": "passive"
        },
        "actions": {
            "value": ""
        },
        "description": {
            "chat": "",
            "unidentified": "",
            "value": "<p>You are either naturally calm and collected in the face of imminent danger, or you are very good at faking it. At the end of your turn, reduce your @Compendium[pf2e.conditionitems.Frightened]{Frightened} condition by 2 instead of 1.</p>"
        },
        "featType": {
            "value": "ancestry"
        },
        "level": {
            "value": "1"
        },
        "prerequisites": {
            "value": [
                ""
            ]
        },
        "rarity": {
            "value": "common"
        },
        "source": {
            "value": ""
        },
        "traits": {
            "rarity": {
                "value": "common"
            },
            "value": [
                "dwarf"
            ]
        },
        "usage": {
            "value": ""
        }
    },
    "flags": {},
    "img": "systems/pf2e/icons/features/feats/feats.jpg",
    "name": "Dwarven Doughtiness",
    "permission": {
        "default": 0
    },
    "type": "feat"
}