{
    "_id": "9cHQua33V35JPE3U",
    "data": {
        "actionCategory": {
            "value": ""
        },
        "actionType": {
            "value": "reaction"
        },
        "actions": {
            "value": ""
        },
        "description": {
            "chat": "",
            "unidentified": "",
            "value": "<p><strong>Trigger</strong> An ally benefiting from one of your composition spells is subject to an effect with the auditory, illusion, linguistic, sonic, or visual trait.</p>\n<hr>\n<p>You tweak the properties of your composition spell to convey a bit of your defensive knowledge.</p>\n<p>All allies affected by your composition spell gain your +1 circumstance bonus from Well-Versed until the start of your next turn.</p>\n<p>Teaching your allies also bolsters your own skills; your personal circumstance bonus from Well-Versed also increases to +2 until the start of your next turn.</p>"
        },
        "featType": {
            "value": "class"
        },
        "level": {
            "value": "6"
        },
        "prerequisites": {
            "value": [
                "Well-Versed"
            ]
        },
        "rarity": {
            "value": "common"
        },
        "source": {
            "value": ""
        },
        "traits": {
            "rarity": {
                "value": "common"
            },
            "value": [
                "abjuration",
                "bard",
                "concentrate"
            ]
        },
        "usage": {
            "value": ""
        }
    },
    "flags": {},
    "img": "systems/pf2e/icons/features/feats/feats.jpg",
    "name": "Educate Allies",
    "permission": {
        "default": 0
    },
    "type": "feat"
}
