{
    "_id": "jYKKnr41OqQrf7hv",
    "data": {
        "actionCategory": {
            "value": ""
        },
        "actionType": {
            "value": "passive"
        },
        "actions": {
            "value": ""
        },
        "description": {
            "chat": "",
            "unidentified": "",
            "value": "<p>You can perform some rituals in less time. If the ritual normally requires 1 day to cast, you can cast it in 4 hours. If it takes longer than 1 day, you cast it in half the number of days, rounded up.</p>"
        },
        "featType": {
            "value": "archetype"
        },
        "level": {
            "value": "8"
        },
        "prerequisites": {
            "value": [
                "Ritualist Dedication"
            ]
        },
        "rarity": {
            "value": "common"
        },
        "source": {
            "value": ""
        },
        "traits": {
            "rarity": {
                "value": "common"
            },
            "value": [
                "archetype"
            ]
        },
        "usage": {
            "value": ""
        }
    },
    "flags": {},
    "img": "systems/pf2e/icons/features/feats/feats.jpg",
    "name": "Efficient Rituals",
    "permission": {
        "default": 0
    },
    "type": "feat"
}
