{
    "_id": "DMECB9RwLAhY0T9o",
    "data": {
        "actionCategory": {
            "value": ""
        },
        "actionType": {
            "value": "passive"
        },
        "actions": {
            "value": ""
        },
        "description": {
            "chat": "",
            "unidentified": "",
            "value": "<p>Your sacred etchings imbue objects with power. It takes you only 1 minute to emblazon a symbol using Emblazon Armament, and you can have up to four symbols emblazoned at a time. Each item can still have only one symbol emblazoned upon it, and if you exceed the limit of four, the oldest symbol disappears. These symbols can benefit even those who don't follow the deity, provided they aren't directly opposed (as determined by the GM).</p>\n<p>You can select a different benefit for each emblazoned symbol, chosen from any you have from Emblazon Armament or other feats such as Emblazon Energy or Emblazon Antimagic.</p>"
        },
        "featType": {
            "value": "class"
        },
        "level": {
            "value": "20"
        },
        "prerequisites": {
            "value": [
                "Emblazon Armament"
            ]
        },
        "rarity": {
            "value": "common"
        },
        "source": {
            "value": ""
        },
        "traits": {
            "custom": "",
            "rarity": {
                "value": "common"
            },
            "value": [
                "cleric"
            ]
        },
        "usage": {
            "value": "held-in-one-hand"
        }
    },
    "flags": {},
    "img": "systems/pf2e/icons/features/feats/feats.jpg",
    "name": "Emblazon Divinity",
    "permission": {
        "default": 0
    },
    "type": "feat"
}
