{
    "_id": "9AZjpeeS824VsYv8",
    "data": {
        "actionCategory": {
            "value": ""
        },
        "actionType": {
            "value": "action"
        },
        "actions": {
            "value": "2"
        },
        "description": {
            "chat": "",
            "unidentified": "",
            "value": "<p><strong>Requirements</strong> An adjacent ally is suffering persistent damage.</p>\n<hr>\n<p>You've learned a variety of methods for helping allies who are bleeding, burning, or otherwise suffering persistent damage, from brushing off acid to patting down fires. Your ally immediately attempts a flat check to remove all types of persistent damage, and your use of this feat automatically counts as especially effective aid, reducing the DC from 15 to 10 for all future flat checks to remove the persistent damage.</p>"
        },
        "featType": {
            "value": "archetype"
        },
        "level": {
            "value": "12"
        },
        "prerequisites": {
            "value": [
                "Swordmaster Dedication", "master in Medicine"
            ]
        },
        "rarity": {
            "value": "common"
        },
        "rules": [],
        "source": {
            "value": ""
        },
        "traits": {
            "custom": "",
            "rarity": {
                "value": "common"
            },
            "value": [
                "archetype",
                "manipulate",
                "skill"
            ]
        },
        "usage": {
            "value": "held-in-one-hand"
        }
    },
    "effects": [],
    "flags": {
        "core": {
            "sourceId": "Item.znqvTt3kNsedsl9P"
        }
    },
    "img": "systems/pf2e/icons/features/feats/feats.jpg",
    "name": "Emergency Medical Assistance",
    "permission": {
        "default": 0
    },
    "type": "feat"
}
