{
    "_id": "NBDwiz1NDioc2eMP",
    "data": {
        "actionCategory": {
            "value": ""
        },
        "actionType": {
            "label": "Action Type",
            "type": "String",
            "value": "action"
        },
        "actions": {
            "label": "Number of Actions",
            "type": "String",
            "value": "1"
        },
        "description": {
            "chat": "",
            "label": "Description",
            "type": "String",
            "unidentified": "",
            "value": "<p><strong>Frequency</strong> once per day</p>\n<hr>\n<p>The magic within you provides increased energy you can use to focus. You regain 1 Focus Point, up to your usual maximum.</p>"
        },
        "featType": {
            "label": "Feat Type",
            "type": "String",
            "value": "ancestry"
        },
        "level": {
            "label": "Feat Level",
            "type": "String",
            "value": "5"
        },
        "prerequisites": {
            "label": "Prerequisites",
            "type": "String",
            "value": [
                "focus pool", "at least one innate spell from a gnome heritage or ancestry feat that shares a tradition with at least one of your focus spells"
            ]
        },
        "rarity": {
            "value": "common"
        },
        "source": {
            "label": "Source",
            "type": "String",
            "value": ""
        },
        "traits": {
            "custom": "",
            "label": "Traits",
            "rarity": {
                "value": "common"
            },
            "type": "String",
            "value": [
                "gnome"
            ]
        },
        "usage": {
            "value": "held-in-one-hand"
        }
    },
    "flags": {},
    "img": "systems/pf2e/icons/features/feats/feats.jpg",
    "name": "Energized Font",
    "permission": {
        "default": 0
    },
    "type": "feat"
}
