{
    "_id": "TkCy7jZUjhD8IypE",
    "data": {
        "actionCategory": {
            "value": ""
        },
        "actionType": {
            "value": "passive"
        },
        "actions": {
            "value": ""
        },
        "description": {
            "chat": "",
            "unidentified": "",
            "value": "<p>You can apply the same techniques you use to reverse engineer objects to disable them. You can use Crafting instead of Thievery to @Compendium[pf2e.actionspf2e.Disable Device]{Disable Device} or @Compendium[pf2e.actionspf2e.Pick a Lock]{Pick a Lock}.</p>"
        },
        "featType": {
            "value": "archetype"
        },
        "level": {
            "value": "7"
        },
        "prerequisites": {
            "value": [
                "master in Crafting",
                "Scrounger Dedication"
            ]
        },
        "rarity": {
            "value": "common"
        },
        "source": {
            "value": ""
        },
        "traits": {
            "rarity": {
                "value": "common"
            },
            "value": [
                "archetype",
                "skill"
            ]
        },
        "usage": {
            "value": ""
        }
    },
    "flags": {},
    "img": "systems/pf2e/icons/features/feats/feats.jpg",
    "name": "Expert Disassembler",
    "permission": {
        "default": 0
    },
    "type": "feat"
}