{
    "_id": "gKoNWXem1ikEqE2d",
    "data": {
        "actionCategory": {
            "value": ""
        },
        "actionType": {
            "value": "passive"
        },
        "actions": {
            "value": ""
        },
        "description": {
            "chat": "",
            "unidentified": "",
            "value": "<p>You've learned to speak with your familiar and other creatures like it.</p>\n<p>You can ask questions of, receive answers from, and use the Diplomacy skill with creatures of the same family of animals as your familiar.</p>\n<p>For example, if your familiar were a cat, you could gain the effects of<em> <a class=\"entity-link\" data-pack=\"pf2e.spells-srd\" data-id=\"BBvV7qoXGdw09q1C\" draggable=\"true\"> Speak with Animals</a></em> for any felines (including leopards, lions, and tigers, among others).</p>\n<p>This ability doesn't make them more friendly than normal. If your familiar ever changes to a different creature, you can't use this ability for 1 week while you absorb your new familiar's language.</p>\n<p><strong>Special</strong> This feat has the trait corresponding to the tradition of spells you cast (arcane, divine, occult, or primal).</p>"
        },
        "featType": {
            "value": "class"
        },
        "level": {
            "value": "2"
        },
        "prerequisites": {
            "value": [
                "a familiar"
            ]
        },
        "rarity": {
            "value": "common"
        },
        "source": {
            "value": ""
        },
        "traits": {
            "rarity": {
                "value": "common"
            },
            "value": [
                "divination",
                "witch"
            ]
        },
        "usage": {
            "value": ""
        }
    },
    "flags": {},
    "img": "systems/pf2e/icons/features/feats/feats.jpg",
    "name": "Familiar's Language",
    "permission": {
        "default": 0
    },
    "type": "feat"
}
