{
    "_id": "uL6q4wtwvuP8I4po",
    "data": {
        "actionCategory": {
            "value": ""
        },
        "actionType": {
            "value": "action"
        },
        "actions": {
            "value": "2"
        },
        "description": {
            "chat": "",
            "unidentified": "",
            "value": "<p>You take a moment to center yourself, then unleash a powerful blow that sends your target tumbling away.</p>\n<p>Make an unarmed <a class=\"entity-link\" data-pack=\"pf2e.actionspf2e\" data-id=\"VjxZFuUXrCU94MWR\" draggable=\"true\"> Strike</a>. If you hit, the target must succeed at a Fortitude save against your class DC or be pushed up to 10 feet directly away from you (or 20 feet, on a critical failure) and fall <a class=\"entity-link\" data-pack=\"pf2e.conditionitems\" data-id=\"j91X7x0XSomq8d60\" draggable=\"true\"><i class=\"fas fa-book-open\"></i> Prone</a>.</p>\n<p>If another creature or physical object would prevent this movement, both your target and the blocking creature or object take <a class=\"inline-roll roll\" data-mode=\"roll\" data-flavor=\"bludgeoning\" data-formula=\"1d6\" title=\"bludgeoning\"><i class=\"fas fa-dice-d20\"></i> 1d6</a> bludgeoning damage per 5 feet of movement that was prevented.</p>"
        },
        "featType": {
            "value": "class"
        },
        "level": {
            "value": "16"
        },
        "prerequisites": {
            "value": [
                ""
            ]
        },
        "rarity": {
            "value": "common"
        },
        "source": {
            "value": ""
        },
        "traits": {
            "rarity": {
                "value": "common"
            },
            "value": [
                "monk"
            ]
        },
        "usage": {
            "value": ""
        }
    },
    "flags": {},
    "img": "systems/pf2e/icons/features/feats/feats.jpg",
    "name": "Flinging Blow",
    "permission": {
        "default": 0
    },
    "type": "feat"
}
