{
    "_id": "QHPtlFvTpgx1GE7S",
    "data": {
        "actionCategory": {
            "value": ""
        },
        "actionType": {
            "value": "passive"
        },
        "actions": {
            "value": ""
        },
        "description": {
            "chat": "",
            "unidentified": "",
            "value": "<p>You can assemble a formation even with members of ancestries that lack the hobgoblins' military discipline, and you can extend these benefits to your hobgoblin allies. When you are adjacent to at least two humanoid allies, you gain the benefits of Formation Training, even if they aren't hobgoblin allies. Hobgoblin allies adjacent to you and at least one other hobgoblin ally also gain the bonuses from your Formation Training feat.</p>"
        },
        "featType": {
            "value": "ancestry"
        },
        "level": {
            "value": "13"
        },
        "prerequisites": {
            "value": [
                "Formation Training"
            ]
        },
        "rarity": {
            "value": "common"
        },
        "source": {
            "value": ""
        },
        "traits": {
            "custom": "",
            "rarity": {
                "value": "common"
            },
            "value": [
                "hobgoblin"
            ]
        },
        "usage": {
            "value": "held-in-one-hand"
        }
    },
    "flags": {},
    "img": "systems/pf2e/icons/features/feats/feats.jpg",
    "name": "Formation Master",
    "permission": {
        "default": 0
    },
    "type": "feat"
}
