{
    "_id": "qEOiC2YXYzc8ZZFS",
    "data": {
        "actionCategory": {
            "value": ""
        },
        "actionType": {
            "value": "passive"
        },
        "actions": {
            "value": ""
        },
        "description": {
            "chat": "",
            "unidentified": "",
            "value": "<p>Part of your body has an obvious, fiendish appearance. Your hands end in razor-sharp claws, you have hooves instead of feet, sharp teeth fill your mouth, or a whipping tail extends from your spine.</p>\n<p>You gain your choice of one of the following unarmed attacks. The attack is in the brawling group and has the listed damage die and traits.</p>\n<ul>\n<li><strong>Claw</strong> <a class=\"inline-roll roll\" data-mode=\"roll\" data-flavor=\"slashing\" data-formula=\"1d4\" title=\"slashing\"><i class=\"fas fa-dice-d20\"></i> 1d4</a> slashing (agile, finesse, unarmed, versatile piercing)</li>\n<li><strong>Hoof</strong> <a class=\"inline-roll roll\" data-mode=\"roll\" data-flavor=\"bludgeoning\" data-formula=\"1d6\" title=\"bludgeoning\"><i class=\"fas fa-dice-d20\"></i> 1d6</a> bludgeoning (finesse, unarmed)</li>\n<li><strong>Jaws</strong> <a class=\"inline-roll roll\" data-mode=\"roll\" data-flavor=\"piercing\" data-formula=\"1d6\" title=\"piercing\"><i class=\"fas fa-dice-d20\"></i> 1d6</a> piercing (finesse, unarmed)</li>\n<li><strong>Tail</strong> <a class=\"inline-roll roll\" data-mode=\"roll\" data-flavor=\"bludgeoning\" data-formula=\"1d4\" title=\"bludgeoning\"><i class=\"fas fa-dice-d20\"></i> 1d4</a> bludgeoning (agile, finesse, unarmed)</li>\n</ul>\n<p><strong>Special</strong> You can select this feat only at 1st level, and you can't retrain into or out of this feat, nor can you change the type of attack you gained.</p>"
        },
        "featType": {
            "value": "ancestry"
        },
        "level": {
            "value": "1"
        },
        "prerequisites": {
            "value": [
                ""
            ]
        },
        "rarity": {
            "value": "common"
        },
        "source": {
            "value": ""
        },
        "traits": {
            "rarity": {
                "value": "common"
            },
            "value": [
                "tiefling"
            ]
        },
        "usage": {
            "value": ""
        }
    },
    "flags": {},
    "img": "systems/pf2e/icons/features/feats/feats.jpg",
    "name": "Form Of The Fiend",
    "permission": {
        "default": 0
    },
    "type": "feat"
}
