{
    "_id": "V9kShXu84NlORfcg",
    "data": {
        "actionCategory": {
            "value": ""
        },
        "actionType": {
            "value": "action"
        },
        "actions": {
            "value": "2"
        },
        "description": {
            "chat": "",
            "unidentified": "",
            "value": "<p><strong>Requirements</strong> You are adjacent to an ally and have one or <br>more hands free.</p>\n<hr>\n<p>You toss your friends around the battlefield. Pick up an adjacent ally of your size or smaller and throw them to an unoccupied space you can see within 30 feet. Their movement doesn't trigger reactions.</p>\n<p>Your ally ends this movement on their feet and doesn't take damage from the fall. If your ally ends this movement within melee reach of at least one enemy, they can make a melee @Compendium[pf2e.actionspf2e.Strike]{Strike} against an enemy within their reach as a reaction.</p>"
        },
        "featType": {
            "value": "class"
        },
        "level": {
            "value": "8"
        },
        "prerequisites": {
            "value": [
                ""
            ]
        },
        "rarity": {
            "value": "common"
        },
        "source": {
            "value": ""
        },
        "traits": {
            "rarity": {
                "value": "common"
            },
            "value": [
                "barbarian",
                "manipulate",
                "rage"
            ]
        },
        "usage": {
            "value": ""
        }
    },
    "flags": {},
    "img": "systems/pf2e/icons/features/feats/feats.jpg",
    "name": "Friendly Toss",
    "permission": {
        "default": 0
    },
    "type": "feat"
}