{
    "_id": "DGtUIMliflzGXc6E",
    "data": {
        "actionCategory": {
            "value": ""
        },
        "actionType": {
            "value": "passive"
        },
        "actions": {
            "value": ""
        },
        "description": {
            "chat": "",
            "unidentified": "",
            "value": "<p>Your connection to the Boneyard ensures that your blows strike true against spectral beings.</p>\n<p>Your weapon and unarmed attack Strikes against incorporeal creatures become magical. If they are already magical, they instead gain the effects of a @Compendium[pf2e.equipment-srd.Ghost Touch]{Ghost Touch} property rune.</p>"
        },
        "featType": {
            "value": "ancestry"
        },
        "level": {
            "value": "1"
        },
        "prerequisites": {
            "value": [
                ""
            ]
        },
        "rarity": {
            "value": "common"
        },
        "source": {
            "value": ""
        },
        "traits": {
            "rarity": {
                "value": "common"
            },
            "value": [
                "duskwalker"
            ]
        },
        "usage": {
            "value": ""
        }
    },
    "flags": {},
    "img": "systems/pf2e/icons/features/feats/feats.jpg",
    "name": "Ghost Hunter",
    "permission": {
        "default": 0
    },
    "type": "feat"
}