{
    "_id": "63sSYk5yqiAyZGb9",
    "data": {
        "actionCategory": {
            "value": ""
        },
        "actionType": {
            "value": "passive"
        },
        "actions": {
            "value": ""
        },
        "description": {
            "chat": "",
            "unidentified": "",
            "value": "<p>Mass and muscle are meaningless when you leap; only grace and balance matter.</p>\n<p>You can roll an Acrobatics check instead of an Athletics check when making a <a class=\"entity-link\" data-pack=\"pf2e.actionspf2e\" data-id=\"2HJ4yuEFY1Cast4h\" draggable=\"true\"> High Jump</a> or <a class=\"entity-link\" data-pack=\"pf2e.actionspf2e\" data-id=\"JUvAvruz7yRQXfz2\" draggable=\"true\"> Long Jump</a>.</p>"
        },
        "featType": {
            "value": "skill"
        },
        "level": {
            "value": "7"
        },
        "prerequisites": {
            "value": [
                "Acrobat Dedication", "master in Acrobatics"
            ]
        },
        "rarity": {
            "value": "common"
        },
        "source": {
            "value": ""
        },
        "traits": {
            "rarity": {
                "value": "common"
            },
            "value": [
                "archetype",
                "skill"
            ]
        },
        "usage": {
            "value": ""
        }
    },
    "flags": {},
    "img": "systems/pf2e/icons/features/feats/feats.jpg",
    "name": "Graceful Leaper",
    "permission": {
        "default": 0
    },
    "type": "feat"
}
