{
    "_id": "aznyI5mfMdEFSDr8",
    "data": {
        "actionCategory": {
            "value": ""
        },
        "actionType": {
            "value": "passive"
        },
        "actions": {
            "value": ""
        },
        "description": {
            "chat": "",
            "unidentified": "",
            "value": "<p>There's no journey too far or burden too heavy when your friends are at your side.</p>\n<p>Increase your maximum and encumbered Bulk limits by 1. In addition, you gain a +10-foot circumstance bonus to your Speed during overland travel.</p>"
        },
        "featType": {
            "value": "ancestry"
        },
        "level": {
            "value": "9"
        },
        "prerequisites": {
            "value": [
                ""
            ]
        },
        "rarity": {
            "value": "common"
        },
        "source": {
            "value": ""
        },
        "traits": {
            "rarity": {
                "value": "common"
            },
            "value": [
                "human"
            ]
        },
        "usage": {
            "value": ""
        }
    },
    "flags": {},
    "img": "systems/pf2e/icons/features/feats/feats.jpg",
    "name": "Hardy Traveler",
    "permission": {
        "default": 0
    },
    "type": "feat"
}
