{
    "_id": "agfosPInBLQXNQfa",
    "data": {
        "actionCategory": {
            "value": ""
        },
        "actionType": {
            "value": "action"
        },
        "actions": {
            "value": "1"
        },
        "description": {
            "chat": "",
            "unidentified": "",
            "value": "<p>Make an unarmed melee attack against a <a class=\"entity-link\" data-pack=\"pf2e.conditionitems\" data-id=\"j91X7x0XSomq8d60\" draggable=\"true\"><i class=\"fas fa-book-open\"></i> Prone</a> target.</p>\n<p>On a hit, the target becomes <a class=\"entity-link\" data-pack=\"pf2e.conditionitems\" data-id=\"AJh5ex99aV6VTggg\" draggable=\"true\"><i class=\"fas fa-book-open\"></i> Flat-Footed</a> to all attacks until the end of your next turn.</p>"
        },
        "featType": {
            "value": "class"
        },
        "level": {
            "value": "4"
        },
        "prerequisites": {
            "value": [
                ""
            ]
        },
        "rarity": {
            "value": "common"
        },
        "source": {
            "value": ""
        },
        "traits": {
            "rarity": {
                "value": "common"
            },
            "value": [
                "rogue"
            ]
        },
        "usage": {
            "value": ""
        }
    },
    "flags": {},
    "img": "systems/pf2e/icons/features/feats/feats.jpg",
    "name": "Head Stomp",
    "permission": {
        "default": 0
    },
    "type": "feat"
}
