{
    "_id": "FhxkU6OftQeecpQW",
    "data": {
        "actionCategory": {
            "value": ""
        },
        "actionType": {
            "value": "passive"
        },
        "actions": {
            "value": ""
        },
        "description": {
            "chat": "",
            "unidentified": "",
            "value": "<p>You have a deep devotion to your animal companion that enables you to magically heal their wounds. You gain the <a class=\"entity-link\" data-pack=\"pf2e.spells-srd\" data-id=\"KIV2LqzS5KtqOItV\" draggable=\"true\"> Heal Companion</a> warden spell and a focus pool of 1 Focus Point.</p>"
        },
        "featType": {
            "value": "class"
        },
        "level": {
            "value": "1"
        },
        "prerequisites": {
            "value": [
                "an animal companion"
            ]
        },
        "rarity": {
            "value": "common"
        },
        "source": {
            "value": ""
        },
        "traits": {
            "rarity": {
                "value": "common"
            },
            "value": [
                "ranger"
            ]
        },
        "usage": {
            "value": ""
        }
    },
    "flags": {},
    "img": "systems/pf2e/icons/features/feats/feats.jpg",
    "name": "Heal Companion",
    "permission": {
        "default": 0
    },
    "type": "feat"
}
