{
    "_id": "p2tFR4yBauu8t3mC",
    "data": {
        "actionCategory": {
            "value": ""
        },
        "actionType": {
            "value": "passive"
        },
        "actions": {
            "value": ""
        },
        "description": {
            "chat": "",
            "unidentified": "",
            "value": "<p>Your patron's teachings have allowed you to achieve a deeper focus. If you have spent at least 2 Focus Points since the last time you <a class=\"entity-link\" data-pack=\"pf2e.actionspf2e\" data-id=\"OSefkMgojBLqmRDh\" draggable=\"true\"> Refocused</a>, you recover 2 Focus Points when you Refocus instead of 1.</p>"
        },
        "featType": {
            "value": "class"
        },
        "level": {
            "value": "12"
        },
        "prerequisites": {
            "value": [
                ""
            ]
        },
        "rarity": {
            "value": "common"
        },
        "source": {
            "value": ""
        },
        "traits": {
            "rarity": {
                "value": "common"
            },
            "value": [
                "witch"
            ]
        },
        "usage": {
            "value": ""
        }
    },
    "flags": {},
    "img": "systems/pf2e/icons/features/feats/feats.jpg",
    "name": "Hex Focus",
    "permission": {
        "default": 0
    },
    "type": "feat"
}
