{
    "_id": "5H3Sk1yhalQQzUys",
    "data": {
        "actionCategory": {
            "value": ""
        },
        "actionType": {
            "value": "passive"
        },
        "actions": {
            "value": ""
        },
        "description": {
            "chat": "",
            "unidentified": "",
            "value": "<p>You embody the link to your patron so completely that you can cast your hexes in rapid succession.</p>\n<p>You are no longer limited to casting only a single hex each turn. In addition, when you cast <a class=\"entity-link\" data-pack=\"pf2e.spells-srd\" data-id=\"YVK3JUkPVzHIeGXQ\" draggable=\"true\"> Cackle</a> to sustain a hex, you gain the effects of <a class=\"entity-link\" data-pack=\"pf2e.actionspf2e\" data-id=\"3f5DMFu8fPiqHpRg\" draggable=\"true\"> Sustain a Spell</a> for all your active hexes that have a duration of sustained.</p>"
        },
        "featType": {
            "value": "class"
        },
        "level": {
            "value": "20"
        },
        "prerequisites": {
            "value": [
                ""
            ]
        },
        "rarity": {
            "value": "common"
        },
        "source": {
            "value": ""
        },
        "traits": {
            "rarity": {
                "value": "common"
            },
            "value": [
                "witch"
            ]
        },
        "usage": {
            "value": ""
        }
    },
    "flags": {},
    "img": "systems/pf2e/icons/features/feats/feats.jpg",
    "name": "Hex Master",
    "permission": {
        "default": 0
    },
    "type": "feat"
}
