{
    "_id": "W7aT1UJOVFkYdQti",
    "data": {
        "actionCategory": {
            "value": ""
        },
        "actionType": {
            "value": "passive"
        },
        "actions": {
            "value": ""
        },
        "description": {
            "chat": "",
            "unidentified": "",
            "value": "<p>You are so focused on your hunted prey that you can see it clearly even beyond the limits of your senses. You gain the <a class=\"entity-link\" data-pack=\"pf2e.spells-srd\" data-id=\"tj86Rnq3QuQnDtG3\" draggable=\"true\"> Hunter's Vision</a> warden spell. Increase the number of Focus Points in your focus pool by 1.</p>"
        },
        "featType": {
            "value": "class"
        },
        "level": {
            "value": "10"
        },
        "prerequisites": {
            "value": [
                "warden spells"
            ]
        },
        "rarity": {
            "value": "common"
        },
        "source": {
            "value": ""
        },
        "traits": {
            "rarity": {
                "value": "common"
            },
            "value": [
                "ranger"
            ]
        },
        "usage": {
            "value": ""
        }
    },
    "flags": {},
    "img": "systems/pf2e/icons/features/feats/feats.jpg",
    "name": "Hunter's Vision",
    "permission": {
        "default": 0
    },
    "type": "feat"
}
