{
    "_id": "9KvsO72JJ3pfkG4U",
    "data": {
        "actionCategory": {
            "value": ""
        },
        "actionType": {
            "value": "action"
        },
        "actions": {
            "value": "2"
        },
        "description": {
            "chat": "",
            "unidentified": "",
            "value": "<p>You make a ranged @Compendium[pf2e.actionspf2e.Strike]{Strike}with a thrown weapon you already have in your hand, @Compendium[pf2e.actionspf2e.Stride]{Stride}, and then @Compendium[pf2e.actionspf2e.Interact]{Interact}to draw another weapon.</p>\n<p>If you are @Compendium[pf2e.actionspf2e.Rage]{Raging}, you can add the additional damage with melee weapons you receive from raging to your damage with the thrown weapon.</p>"
        },
        "featType": {
            "value": "archetype"
        },
        "level": {
            "value": "4"
        },
        "prerequisites": {
            "value": [
                "Viking Dedication"
            ]
        },
        "rarity": {
            "value": "common"
        },
        "source": {
            "value": ""
        },
        "traits": {
            "rarity": {
                "value": "common"
            },
            "value": [
                "archetype"
            ]
        },
        "usage": {
            "value": ""
        }
    },
    "flags": {},
    "img": "systems/pf2e/icons/features/feats/feats.jpg",
    "name": "Hurling Charge",
    "permission": {
        "default": 0
    },
    "type": "feat"
}