{
    "_id": "urYHB6VHhqvPMSy7",
    "data": {
        "actionCategory": {
            "value": ""
        },
        "actionType": {
            "label": "Action Type",
            "type": "String",
            "value": "passive"
        },
        "actions": {
            "label": "Number of Actions",
            "type": "String",
            "value": ""
        },
        "description": {
            "chat": "",
            "label": "Description",
            "type": "String",
            "unidentified": "",
            "value": "<p>You can fill an area with devastating briars that impale and impede your foes. You gain the impaling briars order spell. Increase the number of Focus Points in your focus pool by 1.</p>"
        },
        "featType": {
            "label": "Feat Type",
            "type": "String",
            "value": "class"
        },
        "level": {
            "label": "Feat Level",
            "type": "String",
            "value": "16"
        },
        "prerequisites": {
            "label": "Prerequisites",
            "type": "String",
            "value": [
                " leaf order"
            ]
        },
        "rarity": {
            "value": "common"
        },
        "source": {
            "label": "Source",
            "type": "String",
            "value": ""
        },
        "traits": {
            "custom": "",
            "label": "Traits",
            "rarity": {
                "value": "common"
            },
            "type": "String",
            "value": [
                "druid"
            ]
        },
        "usage": {
            "value": "held-in-one-hand"
        }
    },
    "flags": {},
    "img": "systems/pf2e/icons/features/feats/feats.jpg",
    "name": "Impaling Briars",
    "permission": {
        "default": 0
    },
    "type": "feat"
}
