{
    "_id": "4vu6P3cYoOOeUbLK",
    "data": {
        "actionCategory": {
            "value": ""
        },
        "actionType": {
            "label": "Action Type",
            "type": "String",
            "value": "passive"
        },
        "actions": {
            "label": "Number of Actions",
            "type": "String",
            "value": ""
        },
        "description": {
            "chat": "",
            "label": "Description",
            "type": "String",
            "unidentified": "",
            "value": "<p>You have an incredible ability to invest more magic items. Increase your limit on invested items from 10 to 12.</p>"
        },
        "featType": {
            "label": "Feat Type",
            "type": "String",
            "value": "general"
        },
        "level": {
            "label": "Feat Level",
            "type": "String",
            "value": "11"
        },
        "prerequisites": {
            "label": "Prerequisites",
            "type": "String",
            "value": [
                "Charisma 16"
            ]
        },
        "rarity": {
            "value": "common"
        },
        "source": {
            "label": "Source",
            "type": "String",
            "value": ""
        },
        "traits": {
            "custom": "",
            "label": "Traits",
            "rarity": {
                "value": "common"
            },
            "type": "String",
            "value": [
                "general"
            ]
        },
        "usage": {
            "value": "held-in-one-hand"
        }
    },
    "flags": {},
    "img": "systems/pf2e/icons/features/feats/feats.jpg",
    "name": "Incredible Investiture",
    "permission": {
        "default": 0
    },
    "type": "feat"
}
