{
    "_id": "7XcQ8Ygz5cubGxdC",
    "data": {
        "actionCategory": {
            "value": ""
        },
        "actionType": {
            "value": "passive"
        },
        "actions": {
            "value": ""
        },
        "description": {
            "chat": "",
            "unidentified": "",
            "value": "<p>You play out battles in your head, allowing you to @Compendium[pf2e.actionspf2e.Strike]{Strike}  when the time is right. You gain the @Compendium[pf2e.actionspf2e.Devise a Stratagem]{Devise a Strategem} action; however, when you substitute its result for your attack roll, you can't use your Intelligence modifier in place of your Strength or Dexterity modifier.</p>\n<p>You also can't use your Intelligence modifier on other rolls from abilities that expand Devise a Stratagem, such as the @Compendium[pf2e.feats-srd.Athletic Strategist]{Athletic Strategist} feat.</p>"
        },
        "featType": {
            "value": "archetype"
        },
        "level": {
            "value": "6"
        },
        "prerequisites": {
            "value": [
                "Investigator Dedication"
            ]
        },
        "rarity": {
            "value": "common"
        },
        "source": {
            "value": ""
        },
        "traits": {
            "rarity": {
                "value": "common"
            },
            "value": [
                "archetype"
            ]
        },
        "usage": {
            "value": ""
        }
    },
    "flags": {},
    "img": "systems/pf2e/icons/features/feats/feats.jpg",
    "name": "Investigator's Stratagem",
    "permission": {
        "default": 0
    },
    "type": "feat"
}