{
    "_id": "1YFrl8I6ZGo7BIM9",
    "data": {
        "actionCategory": {
            "value": ""
        },
        "actionType": {
            "value": "passive"
        },
        "actions": {
            "value": ""
        },
        "description": {
            "chat": "",
            "unidentified": "",
            "value": "<div><span id=\"ctl00_MainContent_DetailedOutput\"><strong>Archetype</strong> <a class=\"entity-link\" data-pack=\"pf2e.archetypes\" data-id=\"l4sKdl0ub0UGBwsb\" draggable=\"true\"><i class=\"fas fa-book-open\"></i> Knight Vigilant</a></span></div>\n<div></div>\n<hr>\n<p>You are dedicated to the cause of the Shining Sentinels. You gain expert proficiency in Religion. When you are between an ally and a foe and would provide lesser cover to your ally against the foe's attacks, you twist to become even more obtrusive, providing standard cover instead.</p>\n<p><strong>Special</strong> You cannot select another dedication feat until you have gained two other feats from the Knight Vigilant archetype.</p>"
        },
        "featType": {
            "value": "class"
        },
        "level": {
            "value": "6"
        },
        "prerequisites": {
            "value": [
                "trained in Religion", " any good alignment", "member of the Knights of Lastwall of knight rank"
            ]
        },
        "rarity": {
            "value": "common"
        },
        "source": {
            "value": ""
        },
        "traits": {
            "custom": "",
            "rarity": {
                "value": "common"
            },
            "value": [
                "uncommon",
                "archetype",
                "dedication"
            ]
        },
        "usage": {
            "value": "held-in-one-hand"
        }
    },
    "flags": {},
    "img": "systems/pf2e/icons/features/feats/feats.jpg",
    "name": "Knight Vigilant Dedication",
    "permission": {
        "default": 0
    },
    "type": "feat"
}
