{
    "_id": "YWRdk9oGMY6WmgIC",
    "data": {
        "actionCategory": {
            "value": ""
        },
        "actionType": {
            "value": "passive"
        },
        "actions": {
            "value": ""
        },
        "description": {
            "chat": "",
            "unidentified": "",
            "value": "<p>You spend 1 minute briefing up to four allies about one lead you're pursuing.</p>\n<p>Those allies gain the same circumstance bonus you do from @Compendium[pf2e.actionspf2e.Pursue a Lead]{Pursue a Lead} to checks to investigate that lead. This bonus lasts until you cease pursing that lead or for 1 day, whichever comes first. This doesn't confer any other benefits of pursuing a lead, such as adding the circumstance bonus to your saves with @Compendium[pf2e.feats-srd.Detective's Readiness]{Detective's Readiness}.</p>"
        },
        "featType": {
            "value": "class"
        },
        "level": {
            "value": "18"
        },
        "prerequisites": {
            "value": [
                "Clue Them All In"
            ]
        },
        "rarity": {
            "value": "common"
        },
        "source": {
            "value": ""
        },
        "traits": {
            "rarity": {
                "value": "common"
            },
            "value": [
                "exploration",
                "investigator"
            ]
        },
        "usage": {
            "value": ""
        }
    },
    "flags": {},
    "img": "systems/pf2e/icons/features/feats/feats.jpg",
    "name": "Lead Investigator",
    "permission": {
        "default": 0
    },
    "type": "feat"
}