{
    "_id": "ShH7Wl7xfJL07DZC",
    "data": {
        "actionCategory": {
            "value": ""
        },
        "actionType": {
            "value": "passive"
        },
        "actions": {
            "value": ""
        },
        "description": {
            "chat": "",
            "unidentified": "",
            "value": "<p>Using your own leaves, you can control your descent. You glide slowly toward the ground, 5 feet down and up to 25 feet forward through the air. As long as you spend at least 1 action gliding each round and have not yet reached the ground, you remain in the air at the end of your turn.</p>"
        },
        "featType": {
            "value": "ancestry"
        },
        "level": {
            "value": "5"
        },
        "prerequisites": {
            "value": [
                "leaf leshy heritage or Cat Fall skill feat"
            ]
        },
        "rarity": {
            "value": "common"
        },
        "source": {
            "value": ""
        },
        "traits": {
            "custom": "",
            "rarity": {
                "value": "common"
            },
            "value": [
                "leshy"
            ]
        },
        "usage": {
            "value": "held-in-one-hand"
        }
    },
    "flags": {},
    "img": "systems/pf2e/icons/features/feats/feats.jpg",
    "name": "Leshy Glide",
    "permission": {
        "default": 0
    },
    "type": "feat"
}
