{
    "_id": "BFgrPAK2v3GSKQ5e",
    "data": {
        "actionCategory": {
            "value": ""
        },
        "actionType": {
            "value": "passive"
        },
        "actions": {
            "value": ""
        },
        "description": {
            "chat": "",
            "unidentified": "",
            "value": "<p>You see what others don't, and you've developed magical tricks to find hidden truth. You can cast @Compendium[pf2e.spells-srd.Comprehend Language]{Comprehend Language}, @Compendium[pf2e.spells-srd.Restore Senses]{Restore Senses}, and @Compendium[pf2e.spells-srd.See Invisibility]{See Invisibility} as innate spells, each once per day. If you could already cast spells, these spells are of the same tradition. Otherwise, they are arcane spells, you use Intelligence as your spellcasting ability, and you become trained in spell attack rolls and spell DCs for arcane spells.</p>"
        },
        "featType": {
            "value": "archetype"
        },
        "level": {
            "value": "8"
        },
        "prerequisites": {
            "value": [
                "Scrollmaster Dedication"
            ]
        },
        "rarity": {
            "value": "common"
        },
        "source": {
            "value": ""
        },
        "traits": {
            "custom": "",
            "rarity": {
                "value": "common"
            },
            "value": [
                "archetype"
            ]
        },
        "usage": {
            "value": "held-in-one-hand"
        }
    },
    "flags": {},
    "img": "systems/pf2e/icons/features/feats/feats.jpg",
    "name": "Lore Seeker",
    "permission": {
        "default": 0
    },
    "type": "feat"
}