{
    "_id": "eSP2938INGUG9b3w",
    "data": {
        "actionCategory": {
            "value": ""
        },
        "actionType": {
            "value": "passive"
        },
        "actions": {
            "value": ""
        },
        "description": {
            "chat": "",
            "unidentified": "",
            "value": "<p>Your blood sings with the liberating power of the azatas, living embodiments of freedom from the wild realm of Elysium.</p>\n<p>You gain a +1 circumstance bonus to @Compendium[pf2e.actionspf2e.Escape]{Escape}. When you roll a critical failure on a check to Escape, you get a failure instead, and when you roll a success, you get a critical success instead.</p>"
        },
        "featType": {
            "value": "ancestry"
        },
        "level": {
            "value": "1"
        },
        "prerequisites": {
            "value": [
                ""
            ]
        },
        "rarity": {
            "value": "common"
        },
        "source": {
            "value": ""
        },
        "traits": {
            "rarity": {
                "value": "common"
            },
            "value": [
                "aasimar",
                "lineage"
            ]
        },
        "usage": {
            "value": ""
        }
    },
    "flags": {},
    "img": "systems/pf2e/icons/features/feats/feats.jpg",
    "name": "Musetouched",
    "permission": {
        "default": 0
    },
    "type": "feat"
}