{
    "_id": "giupBd3dyOwdeoFl",
    "data": {
        "actionCategory": {
            "value": ""
        },
        "actionType": {
            "value": "passive"
        },
        "actions": {
            "value": null
        },
        "description": {
            "chat": "",
            "unidentified": "",
            "value": "<p>Your experience has made you better with a wide variety of weapons. Your proficiency ranks for simple weapons and martial weapons increase to expert, as does your proficiency rank for your chosen advanced weapon.</p>"
        },
        "featType": {
            "value": "archetype"
        },
        "level": {
            "value": "16"
        },
        "prerequisites": {
            "value": [
                "Provocator Dedication", "expert in any kind of weapon or unarmed attack"
            ]
        },
        "rarity": {
            "value": "common"
        },
        "rules": [],
        "source": {
            "value": ""
        },
        "traits": {
            "custom": "",
            "rarity": {
                "value": "common"
            },
            "value": [
                "archetype"
            ]
        },
        "usage": {
            "value": "held-in-one-hand"
        }
    },
    "effects": [],
    "flags": {
        "core": {
            "sourceId": "Item.rKRwWGR8qPJbolM7"
        }
    },
    "img": "systems/pf2e/icons/features/feats/feats.jpg",
    "name": "Performance Weapon Expert",
    "permission": {
        "default": 0
    },
    "type": "feat"
}
