{
    "_id": "Mvay7CiSN8snJ7DK",
    "data": {
        "actionCategory": {
            "value": ""
        },
        "actionType": {
            "value": "passive"
        },
        "actions": {
            "value": ""
        },
        "description": {
            "chat": "",
            "unidentified": "",
            "value": "<p>You have expanded your supply of near-infinite items. Choose a research field. Add one item from the list of options available to that field from perpetual infusions, or two items if you choose your own field.</p>\n<p>If you have <a class=\"entity-link\" data-pack=\"pf2e.classfeatures\" data-id=\"JOdbVu14phvdjhaY\" draggable=\"true\"> Perpetual Potency</a> or <a class=\"entity-link\" data-pack=\"pf2e.classfeatures\" data-id=\"3R19zS7gERhEX87F\" draggable=\"true\"> Perpetual Perfection</a>, you gain an additional item (or items if you chose your own field) appropriate to the field you chose, for instance a higher-level version of the bomb you chose or a new poison.</p>"
        },
        "featType": {
            "value": "class"
        },
        "level": {
            "value": "8"
        },
        "prerequisites": {
            "value": [
                "perpetual infusions"
            ]
        },
        "rarity": {
            "value": "common"
        },
        "rules": [],
        "source": {
            "value": ""
        },
        "traits": {
            "rarity": {
                "value": "common"
            },
            "value": [
                "alchemist"
            ]
        },
        "usage": {
            "value": ""
        }
    },
    "flags": {},
    "img": "systems/pf2e/icons/features/feats/feats.jpg",
    "name": "Perpetual Breadth",
    "permission": {
        "default": 0
    },
    "type": "feat"
}
