{
    "_id": "eww9tuiXPnZFZ3DU",
    "data": {
        "actionCategory": {
            "value": ""
        },
        "actionType": {
            "value": "action"
        },
        "actions": {
            "value": "1"
        },
        "description": {
            "chat": "",
            "unidentified": "",
            "value": "<p>You can put a single item you're holding of light or negligible Bulk onto a person without them noticing by succeeding at a Thievery check against their Perception DC.</p>\n<p>If you have the ruffian racket, you can do this as a free action when you successfully <a class=\"entity-link\" data-pack=\"pf2e.actionspf2e\" data-id=\"7blmbDrQFNfdT731\" draggable=\"true\"> Shove</a> a target.</p>"
        },
        "featType": {
            "value": "class"
        },
        "level": {
            "value": "1"
        },
        "prerequisites": {
            "value": [
                "Pickpocket"
            ]
        },
        "rarity": {
            "value": "common"
        },
        "rules": [],
        "source": {
            "value": ""
        },
        "traits": {
            "rarity": {
                "value": "common"
            },
            "value": [
                "rogue"
            ]
        },
        "usage": {
            "value": ""
        }
    },
    "flags": {},
    "img": "systems/pf2e/icons/features/feats/feats.jpg",
    "name": "Plant Evidence",
    "permission": {
        "default": 0
    },
    "type": "feat"
}
