{
    "_id": "rRbMOxX1QTHIIwAi",
    "data": {
        "actionCategory": {
            "value": ""
        },
        "actionType": {
            "value": "action"
        },
        "actions": {
            "value": "1"
        },
        "description": {
            "chat": "",
            "unidentified": "",
            "value": "<p>Your spellcasting is rife with strange lights, esoteric gestures, and other captivating effects that befuddle your foes.</p>\n<p>If the next action you use is to <a class=\"entity-link\" data-pack=\"pf2e.actionspf2e\" data-id=\"aBQ8ajvEBByv45yz\" draggable=\"true\"> Cast a Spell</a>, any creature that attempts to use a reaction triggered by your Cast a Spell activity takes a -2 circumstance penalty to attack rolls and skill checks rolled as part of the reaction.</p>\n<p>In addition, if the spell includes a spell attack roll or requires a saving throw, creatures you hit or that fail their saves are <a class=\"entity-link\" data-pack=\"pf2e.conditionitems\" data-id=\"AdPVz7rbaVSRxHFg\" draggable=\"true\"><i class=\"fas fa-book-open\"></i> Fascinated</a> with you until the start of your next turn.</p>"
        },
        "featType": {
            "value": "class"
        },
        "level": {
            "value": "16"
        },
        "prerequisites": {
            "value": [
                ""
            ]
        },
        "rarity": {
            "value": "common"
        },
        "rules": [],
        "source": {
            "value": ""
        },
        "traits": {
            "rarity": {
                "value": "common"
            },
            "value": [
                "manipulate",
                "mental",
                "metamagic",
                "oracle",
                "visual"
            ]
        },
        "usage": {
            "value": ""
        }
    },
    "flags": {},
    "img": "systems/pf2e/icons/features/feats/feats.jpg",
    "name": "Portentous Spell",
    "permission": {
        "default": 0
    },
    "type": "feat"
}
