{
    "_id": "MlxfNv98LZKfYl64",
    "data": {
        "actionCategory": {
            "value": ""
        },
        "actionType": {
            "value": "action"
        },
        "actions": {
            "value": "1"
        },
        "description": {
            "chat": "",
            "unidentified": "",
            "value": "<p>You enchant a piece of ammunition with the magical essence of a precious material, allowing you to leverage certain creatures' weaknesses.</p>\n<p>Choose cold iron or silver; if you shoot the arrow before the end of your turn, it counts as that material. At 14th level, add adamantine to the list of materials you can choose from.</p>"
        },
        "featType": {
            "value": "archetype"
        },
        "level": {
            "value": "8"
        },
        "prerequisites": {
            "value": [
                "Eldritch Archer Dedication"
            ]
        },
        "rarity": {
            "value": "common"
        },
        "rules": [],
        "source": {
            "value": ""
        },
        "traits": {
            "rarity": {
                "value": "common"
            },
            "value": [
                "archetype",
                "magical",
                "transmutation"
            ]
        },
        "usage": {
            "value": ""
        }
    },
    "flags": {},
    "img": "systems/pf2e/icons/features/feats/feats.jpg",
    "name": "Precious Arrow",
    "permission": {
        "default": 0
    },
    "type": "feat"
}
