{
    "_id": "zzMugLCUkQQPa2qT",
    "data": {
        "actionCategory": {
            "value": ""
        },
        "actionType": {
            "value": "action"
        },
        "actions": {
            "value": "1"
        },
        "description": {
            "chat": "",
            "unidentified": "",
            "value": "<p>You survey the battlefield, calculating the possibilities. You gain one additional reaction, which you can use before the beginning of your next turn for any rogue reaction.</p>"
        },
        "featType": {
            "value": "class"
        },
        "level": {
            "value": "12"
        },
        "prerequisites": {
            "value": [
                ""
            ]
        },
        "rarity": {
            "value": "common"
        },
        "rules": [],
        "source": {
            "value": ""
        },
        "traits": {
            "rarity": {
                "value": "common"
            },
            "value": [
                "flourish",
                "rogue"
            ]
        },
        "usage": {
            "value": ""
        }
    },
    "flags": {},
    "img": "systems/pf2e/icons/features/feats/feats.jpg",
    "name": "Preparation",
    "permission": {
        "default": 0
    },
    "type": "feat"
}
