{
    "_id": "Xw7qG0SHepXx24vl",
    "data": {
        "actionCategory": {
            "value": ""
        },
        "actionType": {
            "value": "reaction"
        },
        "actions": {
            "value": ""
        },
        "description": {
            "chat": "",
            "unidentified": "",
            "value": "<p><strong>Trigger</strong> You are targeted by an attack or attempt a Reflex saving throw against a damaging effect, and you are in a stance.</p>\n<hr>\n<p>Your willingness to flow from one stance to another lets you sacrifice their benefits to better protect yourself. You leave the stance you were in, gaining a +4 circumstance bonus to the triggering saving throw or to your AC against the triggering attack.</p>"
        },
        "featType": {
            "value": "class"
        },
        "level": {
            "value": "10"
        },
        "prerequisites": {
            "value": [
                "at least one stance feat"
            ]
        },
        "rarity": {
            "value": "common"
        },
        "rules": [],
        "source": {
            "value": ""
        },
        "traits": {
            "rarity": {
                "value": "common"
            },
            "value": [
                "monk"
            ]
        },
        "usage": {
            "value": ""
        }
    },
    "flags": {},
    "img": "systems/pf2e/icons/features/feats/feats.jpg",
    "name": "Prevailing Position",
    "permission": {
        "default": 0
    },
    "type": "feat"
}
