{
    "_id": "AbjVJIBdNjbQbVnV",
    "data": {
        "actionCategory": {
            "value": ""
        },
        "actionType": {
            "value": "passive"
        },
        "actions": {
            "value": ""
        },
        "description": {
            "chat": "",
            "unidentified": "",
            "value": "<p>You surround yourself with a thick field of protective primal energy. You and allies within 30 feet of you gain resistance equal to your Wisdom modifier to acid, cold, electricity, fire, negative, and positive damage.</p>"
        },
        "featType": {
            "value": "class"
        },
        "level": {
            "value": "18"
        },
        "prerequisites": {
            "value": [
                ""
            ]
        },
        "rarity": {
            "value": "common"
        },
        "rules": [],
        "source": {
            "value": ""
        },
        "traits": {
            "rarity": {
                "value": "common"
            },
            "value": [
                "druid"
            ]
        },
        "usage": {
            "value": ""
        }
    },
    "flags": {},
    "img": "systems/pf2e/icons/features/feats/feats.jpg",
    "name": "Primal Aegis",
    "permission": {
        "default": 0
    },
    "type": "feat"
}
