{
    "_id": "R00qiDE5pBctgtyU",
    "data": {
        "actionCategory": {
            "value": ""
        },
        "actionType": {
            "label": "Action Type",
            "type": "String",
            "value": "passive"
        },
        "actions": {
            "label": "Number of Actions",
            "type": "String",
            "value": ""
        },
        "description": {
            "chat": "",
            "label": "Description",
            "type": "String",
            "unidentified": "",
            "value": "<p>You become trained in Survival; if you were already trained in Survival, you instead become trained in another skill of your choice. You become trained in ranger class DC. You can use the Hunt Prey action (page 168).</p>\n<p><strong>Special</strong> You cannot select another dedication feat until you have gained two other feats from the ranger archetype.</p>"
        },
        "featType": {
            "label": "Feat Type",
            "type": "String",
            "value": "archetype"
        },
        "level": {
            "label": "Feat Level",
            "type": "String",
            "value": "2"
        },
        "prerequisites": {
            "label": "Prerequisites",
            "type": "String",
            "value": [
                "Dexterity 14"
            ]
        },
        "rarity": {
            "value": "common"
        },
        "rules": [],
        "source": {
            "label": "Source",
            "type": "String",
            "value": ""
        },
        "traits": {
            "custom": "",
            "label": "Traits",
            "rarity": {
                "value": "common"
            },
            "type": "String",
            "value": [
                "archetype",
                "dedication",
                "multiclass"
            ]
        },
        "usage": {
            "value": "held-in-one-hand"
        }
    },
    "flags": {},
    "img": "systems/pf2e/icons/features/feats/feats.jpg",
    "name": "Ranger Dedication",
    "permission": {
        "default": 0
    },
    "type": "feat"
}
