{
    "_id": "SuEmijj909yxmYOO",
    "data": {
        "actionCategory": {
            "value": ""
        },
        "actionType": {
            "value": "action"
        },
        "actions": {
            "value": "1"
        },
        "description": {
            "chat": "",
            "unidentified": "",
            "value": "<p>You can transform into an innocuous-looking rat to scout an area or slip through tight spaces. You gain the effects of a 1st-level @Compendium[pf2e.spells-srd.Pest Form]{Pest Form} spell, except that you must assume the battle form of a Tiny rat.</p>"
        },
        "featType": {
            "value": "ancestry"
        },
        "level": {
            "value": "9"
        },
        "prerequisites": {
            "value": [
                ""
            ]
        },
        "rarity": {
            "value": "common"
        },
        "rules": [],
        "source": {
            "value": ""
        },
        "traits": {
            "rarity": {
                "value": "common"
            },
            "value": [
                "concentrate",
                "polymorph",
                "primal",
                "ratfolk",
                "transmutation"
            ]
        },
        "usage": {
            "value": ""
        }
    },
    "flags": {},
    "img": "systems/pf2e/icons/features/feats/feats.jpg",
    "name": "Rat Form",
    "permission": {
        "default": 0
    },
    "type": "feat"
}