{
    "_id": "H5uZqYVClk3s62ce",
    "data": {
        "actionCategory": {
            "value": ""
        },
        "actionType": {
            "value": "free"
        },
        "actions": {
            "value": ""
        },
        "description": {
            "chat": "",
            "unidentified": "",
            "value": "<p><strong>Frequency</strong> once per hour</p>\n<hr>\n<p>If your next action is to use your divine font to cast a 3-action @Compendium[pf2e.spells-srd.Heal]{Heal} or @Compendium[pf2e.spells-srd.Harm]{Harm} spell to damage creatures, you can harness the residual energy to counterbalance opposing forces.</p>\n<p>You use your <em>heal</em> or <em>harm</em> spell to attempt to counteract one effect in the spell's area with the chaotic, evil, good, or lawful trait. The chosen trait must oppose one component of your deity's alignment; if your deity is neutral, you can choose any one trait.</p>"
        },
        "featType": {
            "value": "class"
        },
        "level": {
            "value": "16"
        },
        "prerequisites": {
            "value": [
                "harmful font or healing font"
            ]
        },
        "rarity": {
            "value": "common"
        },
        "rules": [],
        "source": {
            "value": ""
        },
        "traits": {
            "rarity": {
                "value": "common"
            },
            "value": [
                "cleric",
                "concentrate",
                "metamagic"
            ]
        },
        "usage": {
            "value": ""
        }
    },
    "flags": {},
    "img": "systems/pf2e/icons/features/feats/feats.jpg",
    "name": "Remediate",
    "permission": {
        "default": 0
    },
    "type": "feat"
}