{
    "_id": "GEvaoKgQteMrd4ub",
    "data": {
        "actionCategory": {
            "value": ""
        },
        "actionType": {
            "value": "passive"
        },
        "actions": {
            "value": ""
        },
        "description": {
            "chat": "",
            "unidentified": "",
            "value": "<p><span id=\"ctl00_MainContent_DetailedOutput\">You hear the sounds of reptiles as language. You can ask questions of, receive answers from, and use the Diplomacy skill with animals that are reptiles (the GM determines which animals count as reptiles).</span></p>"
        },
        "featType": {
            "value": "ancestry"
        },
        "level": {
            "value": "1"
        },
        "prerequisites": {
            "value": [
                ""
            ]
        },
        "rarity": {
            "value": "common"
        },
        "rules": [],
        "source": {
            "value": ""
        },
        "traits": {
            "custom": "",
            "rarity": {
                "value": "common"
            },
            "value": [
                "lizardfolk"
            ]
        },
        "usage": {
            "value": "held-in-one-hand"
        }
    },
    "flags": {},
    "img": "systems/pf2e/icons/features/feats/feats.jpg",
    "name": "Reptile Speaker",
    "permission": {
        "default": 0
    },
    "type": "feat"
}
