{
    "_id": "viFTJfZusRPx0G2q",
    "data": {
        "actionCategory": {
            "value": ""
        },
        "actionType": {
            "value": "passive"
        },
        "actions": {
            "value": ""
        },
        "description": {
            "chat": "",
            "unidentified": "",
            "value": "<p><span id=\"ctl00_MainContent_DetailedOutput\">You are used to ducking under foes and can scurry around the battlefield with ease. You gain a +1 circumstance bonus to Acrobatics checks to @Compendium[pf2e.actionspf2e.Tumble Through]{Tumble Through} the spaces of Medium or larger enemies, and the presence of an enemy doesn't make the squares difficult terrain. </span></p>"
        },
        "featType": {
            "value": "ancestry"
        },
        "level": {
            "value": "1"
        },
        "prerequisites": {
            "value": [
                ""
            ]
        },
        "rarity": {
            "value": "common"
        },
        "rules": [],
        "source": {
            "value": ""
        },
        "traits": {
            "custom": "",
            "rarity": {
                "value": "common"
            },
            "value": [
                "shoony"
            ]
        },
        "usage": {
            "value": "held-in-one-hand"
        }
    },
    "flags": {},
    "img": "systems/pf2e/icons/features/feats/feats.jpg",
    "name": "Scamper Underfoot",
    "permission": {
        "default": 0
    },
    "type": "feat"
}