{
    "_id": "dWGa6cFSVrASTEfd",
    "data": {
        "actionCategory": {
            "value": ""
        },
        "actionType": {
            "value": "passive"
        },
        "actions": {
            "value": ""
        },
        "description": {
            "chat": "",
            "unidentified": "",
            "value": "<p><span id=\"ctl00_MainContent_DetailedOutput\">Your body produces a nearly endless supply of hard seedpods. You gain a seedpod ranged unarmed attack that deals 1d4 bludgeoning damage; these Strikes have the manipulate trait. On a critical hit, a seedpod bursts, issuing forth a tangle of vegetation that imposes a -10-foot circumstance penalty on the target's Speed for 1 round. Seedpods do not add critical specialization effects. </span></p>"
        },
        "featType": {
            "value": "ancestry"
        },
        "level": {
            "value": "1"
        },
        "prerequisites": {
            "value": [
                ""
            ]
        },
        "rarity": {
            "value": "common"
        },
        "rules": [],
        "source": {
            "value": ""
        },
        "traits": {
            "custom": "",
            "rarity": {
                "value": "common"
            },
            "value": [
                "leshy"
            ]
        },
        "usage": {
            "value": "held-in-one-hand"
        }
    },
    "flags": {},
    "img": "systems/pf2e/icons/features/feats/feats.jpg",
    "name": "Seedpod",
    "permission": {
        "default": 0
    },
    "type": "feat"
}
