{
    "_id": "roItUHUbBqhHfwJr",
    "data": {
        "actionCategory": {
            "value": ""
        },
        "actionType": {
            "value": "action"
        },
        "actions": {
            "value": "1"
        },
        "description": {
            "chat": "",
            "unidentified": "",
            "value": "<p>Your shots zip around corners and fly at impossible angles to reach your target. Make a bow @Compendium[pf2e.actionspf2e.Strike]{Strike} against a foe you can see; the ammunition travels to your target, even around corners. You ignore the target's @Compendium[pf2e.conditionitems.Concealed]{Concealed} condition and all cover.</p>"
        },
        "featType": {
            "value": "archetype"
        },
        "level": {
            "value": "14"
        },
        "prerequisites": {
            "value": [
                "Eldritch Archer Dedication"
            ]
        },
        "rarity": {
            "value": "common"
        },
        "rules": [],
        "source": {
            "value": ""
        },
        "traits": {
            "rarity": {
                "value": "common"
            },
            "value": [
                "archetype",
                "divination",
                "magical"
            ]
        },
        "usage": {
            "value": ""
        }
    },
    "flags": {},
    "img": "systems/pf2e/icons/features/feats/feats.jpg",
    "name": "Seeker Arrow",
    "permission": {
        "default": 0
    },
    "type": "feat"
}