{
    "_id": "AfTMuAln2f0Pa3Lj",
    "data": {
        "actionCategory": {
            "value": ""
        },
        "actionType": {
            "value": "passive"
        },
        "actions": {
            "value": ""
        },
        "description": {
            "chat": "",
            "unidentified": "",
            "value": "<p><strong>Requirements</strong> You are in <a class=\"entity-link\" data-pack=\"pf2e.feats-srd\" data-id=\"QkKMile0qqmuVY67\" draggable=\"true\">Clinging Shadows Initiate</a>.</p>\n<hr>\n<p>You launch a wave of shadowy ki outward from your body, damaging your opponents and potentially binding them in place. You gain the <a class=\"entity-link\" data-pack=\"pf2e.spells-srd\" data-id=\"n8eEXXAtguoErW0y\" draggable=\"true\"> Shadow's Web</a> ki spell. Increase the number of Focus Points in your focus pool by 1.</p>"
        },
        "featType": {
            "value": "class"
        },
        "level": {
            "value": "14"
        },
        "prerequisites": {
            "value": [
                "ki spells"
            ]
        },
        "rarity": {
            "value": "common"
        },
        "rules": [],
        "source": {
            "value": ""
        },
        "traits": {
            "rarity": {
                "value": "common"
            },
            "value": [
                "monk"
            ]
        },
        "usage": {
            "value": ""
        }
    },
    "flags": {},
    "img": "systems/pf2e/icons/features/feats/feats.jpg",
    "name": "Shadow's Web",
    "permission": {
        "default": 0
    },
    "type": "feat"
}
