{
    "_id": "kDklfrprKTuTpcEE",
    "data": {
        "actionCategory": {
            "value": ""
        },
        "actionType": {
            "value": "passive"
        },
        "actions": {
            "value": ""
        },
        "description": {
            "chat": "",
            "unidentified": "",
            "value": "<p><span id=\"ctl00_MainContent_DetailedOutput\">It's difficult to notice your passage through wild areas. As long as you're not in an urban environment, you're always considered to be @Compendium[pf2e.actionspf2e.Cover Tracks]{Covering Tracks}, even if you chose a different activity in exploration mode.</span></p>"
        },
        "featType": {
            "value": "ancestry"
        },
        "level": {
            "value": "1"
        },
        "prerequisites": {
            "value": [
                ""
            ]
        },
        "rarity": {
            "value": "common"
        },
        "rules": [],
        "source": {
            "value": ""
        },
        "traits": {
            "custom": "",
            "rarity": {
                "value": "common"
            },
            "value": [
                "leshy"
            ]
        },
        "usage": {
            "value": "held-in-one-hand"
        }
    },
    "flags": {},
    "img": "systems/pf2e/icons/features/feats/feats.jpg",
    "name": "Shadow of the Wilds",
    "permission": {
        "default": 0
    },
    "type": "feat"
}