{
    "_id": "7p2tNqYHsg6u05cU",
    "data": {
        "actionCategory": {
            "value": ""
        },
        "actionType": {
            "value": "reaction"
        },
        "actions": {
            "value": ""
        },
        "description": {
            "chat": "",
            "unidentified": "",
            "value": "<p><strong>Trigger</strong> A creature within your reach leaves a square during a move action it's using.</p>\n<p><strong>Requirements</strong> You are wielding a melee weapon in two hands.</p>\n<hr>\n<p>You swing your weapon at your foe, rebuffing them back. You attempt to @Compendium[pf2e.actionspf2e.Shove]{Shove} the triggering creature, ignoring the requirement that you have a hand free. The creature continues its movement after the Shove.</p>"
        },
        "featType": {
            "value": "archetype"
        },
        "level": {
            "value": "8"
        },
        "prerequisites": {
            "value": [
                "Mauler Dedication, expert in Athletics"
            ]
        },
        "rarity": {
            "value": "common"
        },
        "rules": [],
        "source": {
            "value": ""
        },
        "traits": {
            "rarity": {
                "value": "common"
            },
            "value": [
                "archetype"
            ]
        },
        "usage": {
            "value": ""
        }
    },
    "flags": {},
    "img": "systems/pf2e/icons/features/feats/feats.jpg",
    "name": "Shoving Sweep",
    "permission": {
        "default": 0
    },
    "type": "feat"
}