{
    "_id": "DMetdzt1VJL2Y62i",
    "data": {
        "actionCategory": {
            "value": ""
        },
        "actionType": {
            "label": "Action Type",
            "type": "String",
            "value": "passive"
        },
        "actions": {
            "label": "Number of Actions",
            "type": "String",
            "value": ""
        },
        "description": {
            "chat": "",
            "label": "Description",
            "type": "String",
            "unidentified": "",
            "value": "<p>You can use the Craft activity to create snares, using the rules from page 244. When you select this feat, you add the formulas for four common snares to your formula book.</p>"
        },
        "featType": {
            "label": "Feat Type",
            "type": "String",
            "value": "skill"
        },
        "level": {
            "label": "Feat Level",
            "type": "String",
            "value": "1"
        },
        "prerequisites": {
            "label": "Prerequisites",
            "type": "String",
            "value": [
                "trained in Crafting"
            ]
        },
        "rarity": {
            "value": "common"
        },
        "rules": [],
        "source": {
            "label": "Source",
            "type": "String",
            "value": ""
        },
        "traits": {
            "custom": "",
            "label": "Traits",
            "rarity": {
                "value": "common"
            },
            "type": "String",
            "value": [
                "general",
                "skill"
            ]
        },
        "usage": {
            "value": "held-in-one-hand"
        }
    },
    "flags": {},
    "img": "systems/pf2e/icons/features/feats/feats.jpg",
    "name": "Snare Crafting",
    "permission": {
        "default": 0
    },
    "type": "feat"
}
