{
    "_id": "lIrPwGpJk9TldZ4c",
    "data": {
        "actionCategory": {
            "value": ""
        },
        "actionType": {
            "value": "passive"
        },
        "actions": {
            "value": ""
        },
        "description": {
            "chat": "",
            "unidentified": "",
            "value": "<p>You can magically move your snares around. You gain the <a class=\"entity-link\" data-pack=\"pf2e.spells-srd\" data-id=\"dDt8VFuLuhznT19v\" draggable=\"true\"> Snare Hopping</a> warden spell. Increase the number of Focus Points in your focus pool by 1.</p>"
        },
        "featType": {
            "value": "class"
        },
        "level": {
            "value": "2"
        },
        "prerequisites": {
            "value": [
                "Snare Crafting", "warden spells"
            ]
        },
        "rarity": {
            "value": "common"
        },
        "rules": [],
        "source": {
            "value": ""
        },
        "traits": {
            "rarity": {
                "value": "common"
            },
            "value": [
                "ranger"
            ]
        },
        "usage": {
            "value": ""
        }
    },
    "flags": {},
    "img": "systems/pf2e/icons/features/feats/feats.jpg",
    "name": "Snare Hopping",
    "permission": {
        "default": 0
    },
    "type": "feat"
}
