{
    "_id": "HdcGtwWGUx5hQ4Jl",
    "data": {
        "actionCategory": {
            "value": ""
        },
        "actionType": {
            "value": "passive"
        },
        "actions": {
            "value": ""
        },
        "description": {
            "chat": "",
            "unidentified": "",
            "value": "<p>(Bard) Your muse has opened your senses to the world beyond. You gain spiritsense as an imprecise sense with a range of 60 feet.</p>\n<p>(Sorcerer) The spiritual essence in your blood has opened your senses to the world beyond. You gain spiritsense as an imprecise sense with a range of 60 feet.</p>\n<p>Spiritsense enables you to sense the spirits of creatures, including living creatures, most non-mindless undead, and haunts within the listed range. As with your hearing and other imprecise senses, you still need to @Compendium[pf2e.actionspf2e.Seek]{Seek} to locate an undetected creature.</p>\n<p>As spiritsense detects spiritual essence, not physical bodies, it can detect spirits projected by spells such as @Compendium[pf2e.spells-srd.Project Image]{Project Image} or possessing otherwise soulless objects. It can't detect soulless bodies, constructs, or objects, and like most senses, it doesn't penetrate through solid objects.</p>"
        },
        "featType": {
            "value": "class"
        },
        "level": {
            "value": "8"
        },
        "prerequisites": {
            "value": [
                "Bard: none",
                "Sorcerer: Bloodline that grants divine or occult spells"
            ]
        },
        "rarity": {
            "value": "common"
        },
        "rules": [],
        "source": {
            "value": ""
        },
        "traits": {
            "custom": "",
            "rarity": {
                "value": "common"
            },
            "value": [
                "bard",
                "sorcerer"
            ]
        },
        "usage": {
            "value": ""
        }
    },
    "flags": {},
    "img": "systems/pf2e/icons/features/feats/feats.jpg",
    "name": "Soulsight",
    "permission": {
        "default": 0
    },
    "type": "feat"
}