{
    "_id": "2xxFg9yRuCDpME3z",
    "data": {
        "actionCategory": {
            "value": ""
        },
        "actionType": {
            "value": "passive"
        },
        "actions": {
            "value": ""
        },
        "description": {
            "chat": "",
            "unidentified": "",
            "value": "<p>You've learned how to analyze and fake your responses to the most common magic used against spies. Whenever you succeed at your save against a divination or mental effect, you can Identify Magic to identify the spell as a free action triggered when you succeed, even if you didn't notice the spell being cast. If you successfully identify a divination effect targeting you and the spell would normally fail or have no effect, you can create a substitute result, causing the spell's caster to think the spell succeeded, with a result of your choice. If you successfully identify a mental effect targeting you and the spell would normally fail or have no effect, you can make it appear as if you were affected and attempt to play along with the spell; if the spell normally establishes a mental link, it functions normally but you can disregard any commands you receive through the link.</p>"
        },
        "featType": {
            "value": "archetype"
        },
        "level": {
            "value": "10"
        },
        "prerequisites": {
            "value": [
                "Lion Blade Dedication"
            ]
        },
        "rarity": {
            "value": "common"
        },
        "rules": [],
        "source": {
            "value": ""
        },
        "traits": {
            "custom": "",
            "rarity": {
                "value": "common"
            },
            "value": [
                "archetype"
            ]
        },
        "usage": {
            "value": "held-in-one-hand"
        }
    },
    "flags": {},
    "img": "systems/pf2e/icons/features/feats/feats.jpg",
    "name": "Spy's Countermeasures",
    "permission": {
        "default": 0
    },
    "type": "feat"
}
