{
    "_id": "xjwlP306nuda2z03",
    "data": {
        "actionCategory": {
            "value": ""
        },
        "actionType": {
            "value": "passive"
        },
        "actions": {
            "value": ""
        },
        "description": {
            "chat": "",
            "unidentified": "",
            "value": "<p>When you use Legendary Thief to steal the impossible, you can steal a prepared spell or spontaneous spell from a foe. The spell is randomly selected from the highest-level spells the foe knows that have a target or area, to a maximum of 8th-level spells; the target loses the appropriate spell slot as if they had cast it themself. You can Cast the Spell once within the next 1d4 rounds, after which the fleeting magic fades; this otherwise works the same as casting a Loaner Spell.</p>"
        },
        "featType": {
            "value": "class"
        },
        "level": {
            "value": "16"
        },
        "prerequisites": {
            "value": ["Legendary Thief","Loaner Spell"]
        },
        "rarity": {
            "value": "common"
        },
        "rules": [],
        "source": {
            "value": ""
        },
        "traits": {
            "custom": "",
            "rarity": {
                "value": "common"
            },
            "selected": {
                "magical": "Magical",
                "rogue": "Rogue"
            },
            "value": [
                "magical",
                "rogue"
            ]
        },
        "usage": {
            "value": "held-in-one-hand"
        }
    },
    "flags": {},
    "img": "systems/pf2e/icons/features/feats/feats.jpg",
    "name": "Steal Spell",
    "permission": {
        "default": 0
    },
    "type": "feat"
}
