{
    "_id": "4Y7wKFogGB0LZ5ZA",
    "data": {
        "actionCategory": {
            "value": ""
        },
        "actionType": {
            "value": "action"
        },
        "actions": {
            "value": "1"
        },
        "description": {
            "chat": "",
            "unidentified": "",
            "value": "<p>You encourage an ally to toughen up, giving them a fighting chance. Choose one ally within your marshal's aura. The ally gains temporary Hit Points equal to your Charisma modifier and a +2 circumstance bonus to Fortitude saves. Both benefits last until the start of your next turn.</p>"
        },
        "featType": {
            "value": "archetype"
        },
        "level": {
            "value": "4"
        },
        "prerequisites": {
            "value": [
                "Marshal Dedication"
            ]
        },
        "rarity": {
            "value": "common"
        },
        "rules": [],
        "source": {
            "value": ""
        },
        "traits": {
            "rarity": {
                "value": "common"
            },
            "value": [
                "archetype",
                "auditory",
                "emotion",
                "mental"
            ]
        },
        "usage": {
            "value": ""
        }
    },
    "flags": {},
    "img": "systems/pf2e/icons/features/feats/feats.jpg",
    "name": "Steel Yourself!",
    "permission": {
        "default": 0
    },
    "type": "feat"
}
