{
    "_id": "EwCDbWg8yPxDWF4a",
    "data": {
        "actionCategory": {
            "value": ""
        },
        "actionType": {
            "value": "passive"
        },
        "actions": {
            "value": ""
        },
        "description": {
            "chat": "",
            "unidentified": "",
            "value": "<p>Your sudden appearance leaves your foe unable to respond. When you use Startling Appearance, if your foe's level is equal to or lower than yours, they are also <a class=\"entity-link\" data-pack=\"pf2e.conditionitems\" data-id=\"dfCMdR4wnpbYNTix\" draggable=\"true\"><i class=\"fas fa-book-open\"></i> Stunned</a> 1 on a hit, or stunned 2 on a critical hit.</p>"
        },
        "featType": {
            "value": "archetype"
        },
        "level": {
            "value": "16"
        },
        "prerequisites": {
            "value": [
                "Startling Appearance"
            ]
        },
        "rarity": {
            "value": "common"
        },
        "rules": [],
        "source": {
            "value": ""
        },
        "traits": {
            "rarity": {
                "value": "common"
            },
            "value": [
                "archetype",
                "vigilante"
            ]
        },
        "usage": {
            "value": ""
        }
    },
    "flags": {},
    "img": "systems/pf2e/icons/features/feats/feats.jpg",
    "name": "Stunning Appearance",
    "permission": {
        "default": 0
    },
    "type": "feat"
}
