{
    "_id": "HRVCODLOrhjRDtGb",
    "data": {
        "actionCategory": {
            "value": ""
        },
        "actionType": {
            "value": "passive"
        },
        "actions": {
            "value": ""
        },
        "description": {
            "chat": "",
            "unidentified": "",
            "value": "<p>You know the secrets of moving in your <a class=\"entity-link\" data-pack=\"pf2e.feats-srd\" data-id=\"sgo7J9BVofBqwlsF\" draggable=\"true\"> Favored Terrain</a>. You gain a +2 circumstance bonus to skill checks to move within your favored terrain, such as Acrobatics checks to <a class=\"entity-link\" data-pack=\"pf2e.actionspf2e\" data-id=\"M76ycLAqHoAgbcej\" draggable=\"true\"> Balance</a> on ice, Athletics checks to <a class=\"entity-link\" data-pack=\"pf2e.actionspf2e\" data-id=\"c8TGiZ48ygoSPofx\" draggable=\"true\"> Swim</a> in rough water, Acrobatics checks to <a class=\"entity-link\" data-pack=\"pf2e.actionspf2e\" data-id=\"cS9nfDRGD83bNU1p\" draggable=\"true\"> Fly</a> in windy conditions, and so forth.</p>"
        },
        "featType": {
            "value": "archetype"
        },
        "level": {
            "value": "4"
        },
        "prerequisites": {
            "value": [
                "Horizon Walker Dedication", "expert in Acrobatics and Athletics"
            ]
        },
        "rarity": {
            "value": "common"
        },
        "rules": [],
        "source": {
            "value": ""
        },
        "traits": {
            "rarity": {
                "value": "common"
            },
            "value": [
                "archetype",
                "skill"
            ]
        },
        "usage": {
            "value": ""
        }
    },
    "flags": {},
    "img": "systems/pf2e/icons/features/feats/feats.jpg",
    "name": "Sure Foot",
    "permission": {
        "default": 0
    },
    "type": "feat"
}
