{
    "_id": "04RgXKFVC2A6Ryn6",
    "data": {
        "actionCategory": {
            "value": ""
        },
        "actionType": {
            "value": "passive"
        },
        "actions": {
            "value": ""
        },
        "description": {
            "chat": "",
            "unidentified": "",
            "value": "<p>Whenever you make a <a class=\"entity-link\" data-pack=\"pf2e.actionspf2e\" data-id=\"VjxZFuUXrCU94MWR\" draggable=\"true\"> Strike</a> with an improvised weapon against a creature that hasn't seen you make a Strike using an improvised weapon or that is otherwise ignorant of your skill with improvised weapons, the creature is <a class=\"entity-link\" data-pack=\"pf2e.conditionitems\" data-id=\"AJh5ex99aV6VTggg\" draggable=\"true\"><i class=\"fas fa-book-open\"></i> Flat-Footed</a> against you for that Strike.</p>"
        },
        "featType": {
            "value": "archetype"
        },
        "level": {
            "value": "6"
        },
        "prerequisites": {
            "value": [
                "Weapon Improviser Dedication"
            ]
        },
        "rarity": {
            "value": "common"
        },
        "rules": [],
        "source": {
            "value": ""
        },
        "traits": {
            "rarity": {
                "value": "common"
            },
            "value": [
                "archetype"
            ]
        },
        "usage": {
            "value": ""
        }
    },
    "flags": {},
    "img": "systems/pf2e/icons/features/feats/feats.jpg",
    "name": "Surprise Strike",
    "permission": {
        "default": 0
    },
    "type": "feat"
}
