{
    "_id": "GLbl3qoWCvvjJr4S",
    "data": {
        "actionCategory": {
            "value": ""
        },
        "actionType": {
            "value": "reaction"
        },
        "actions": {
            "value": ""
        },
        "description": {
            "chat": "",
            "unidentified": "",
            "value": "<p><strong>Trigger</strong> You critically hit an adjacent enemy.</p>\n<hr>\n<p>Your incredibly vicious @Compendium[pf2e.actionspf2e.Strike]{Strike} pulls you right in close, giving you the opportunity to grab your foe. Attempt to @Compendium[pf2e.actionspf2e.Grapple]{Grapple} the triggering enemy.</p>"
        },
        "featType": {
            "value": "class"
        },
        "level": {
            "value": "10"
        },
        "prerequisites": {
            "value": [
                ""
            ]
        },
        "rarity": {
            "value": "common"
        },
        "rules": [],
        "source": {
            "value": ""
        },
        "traits": {
            "rarity": {
                "value": "common"
            },
            "value": [
                "barbarian",
                "rage"
            ]
        },
        "usage": {
            "value": ""
        }
    },
    "flags": {},
    "img": "systems/pf2e/icons/features/feats/feats.jpg",
    "name": "Tangle Of Battle",
    "permission": {
        "default": 0
    },
    "type": "feat"
}