{
    "_id": "gydOsP9VsdRw3Wg1",
    "data": {
        "actionCategory": {
            "value": ""
        },
        "actionType": {
            "value": "passive"
        },
        "actions": {
            "value": ""
        },
        "description": {
            "chat": "",
            "unidentified": "",
            "value": "<p>You're connected to groups that know what's going on in the streets, and you can get information out of them quickly. When you use Society to @Compendium[pf2e.actionspf2e.Gather Information]{Gather Information} in an area where you have a network (typically a settlement where you've spent at least a week or spent a day of downtime to build a network faster), you can contact a member of these groups to get information directly from them. This usually takes about an hour, and it doesn't draw as much attention as Gathering Information in public might. The check and information gained otherwise follow the normal rules for Gather Information.</p>\n<p>In addition, if you have successfully consulted the underground network, you get a +1 circumstance bonus to the next check to @Compendium[pf2e.actionspf2e.Recall Knowledge (Society)]{Recall Knowledge} you attempt about the subject you were Gathering Information on, or a +2 circumstance bonus if you're using Underworld Lore for the check. The GM might change the Lore skill related to the network depending on your location or the specifics of the network you're tapping into.</p>"
        },
        "featType": {
            "value": "skill"
        },
        "level": {
            "value": "2"
        },
        "prerequisites": {
            "value": [
                "expert in Society",
                "Streetwise"
            ]
        },
        "rarity": {
            "value": "common"
        },
        "rules": [],
        "source": {
            "value": ""
        },
        "traits": {
            "rarity": {
                "value": "common"
            },
            "value": [
                "uncommon",
                "general",
                "skill"
            ]
        },
        "usage": {
            "value": ""
        }
    },
    "flags": {},
    "img": "systems/pf2e/icons/features/feats/feats.jpg",
    "name": "Underground Network",
    "permission": {
        "default": 0
    },
    "type": "feat"
}