{
    "_id": "wHxXVknciaD4X8Ch",
    "data": {
        "actionCategory": {
            "value": ""
        },
        "actionType": {
            "value": "passive"
        },
        "actions": {
            "value": ""
        },
        "description": {
            "chat": "",
            "unidentified": "",
            "value": "<p>Building things is like solving a puzzle, and you know how to use anything at your disposal to get the job done. You gain <em>creation</em> as a 5th-level innate primal spell. You must have an equivalent Bulk of material to create an item, such as wood or scrap metal to make a wheelbarrow. You can cast this spell once each day.</p>"
        },
        "featType": {
            "value": "ancestry"
        },
        "level": {
            "value": "13"
        },
        "prerequisites": {
            "value": [
                "Handy with Your Paws"
            ]
        },
        "rarity": {
            "value": "common"
        },
        "rules": [],
        "source": {
            "value": ""
        },
        "traits": {
            "custom": "",
            "rarity": {
                "value": "common"
            },
            "value": [
                "shoony"
            ]
        },
        "usage": {
            "value": "held-in-one-hand"
        }
    },
    "flags": {},
    "img": "systems/pf2e/icons/features/feats/feats.jpg",
    "name": "Unrivaled Builder",
    "permission": {
        "default": 0
    },
    "type": "feat"
}
