{
    "_id": "39RJF47FLYr5gZ8p",
    "data": {
        "actionCategory": {
            "value": ""
        },
        "actionType": {
            "value": "action"
        },
        "actions": {
            "value": "1"
        },
        "description": {
            "chat": "",
            "unidentified": "",
            "value": "<p><strong>Requirements</strong>: You are riding your mount and wielding a <br>jousting weapon.</p>\n<hr>\n<p>You attempt to knock an opponent off their mount. Make a melee <a class=\"entity-link\" data-pack=\"pf2e.actionspf2e\" data-id=\"VjxZFuUXrCU94MWR\" draggable=\"true\"> Strike</a> against a mounted opponent. If your attack hits, attempt an Athletics check against the opponent's Fortitude DC. If you succeed, the foe is knocked off its mount into a space of its choice adjacent to its mount. If you critically succeed, it lands <a class=\"entity-link\" data-pack=\"pf2e.conditionitems\" data-id=\"j91X7x0XSomq8d60\" draggable=\"true\"><i class=\"fas fa-book-open\"></i> Prone</a>.</p>"
        },
        "featType": {
            "value": "archetype"
        },
        "level": {
            "value": "10"
        },
        "prerequisites": {
            "value": [
                "Cavalier Dedication"
            ]
        },
        "rarity": {
            "value": "common"
        },
        "rules": [],
        "source": {
            "value": ""
        },
        "traits": {
            "rarity": {
                "value": "common"
            },
            "value": [
                "archetype"
            ]
        },
        "usage": {
            "value": ""
        }
    },
    "flags": {},
    "img": "systems/pf2e/icons/features/feats/feats.jpg",
    "name": "Unseat",
    "permission": {
        "default": 0
    },
    "type": "feat"
}
