{
    "_id": "BoqMvGy1jXpsaBbo",
    "data": {
        "actionCategory": {
            "value": ""
        },
        "actionType": {
            "value": "passive"
        },
        "actions": {
            "value": ""
        },
        "description": {
            "chat": "",
            "unidentified": "",
            "value": "<p><span id=\"ctl00_MainContent_DetailedOutput\"><strong>Access</strong> Ulfen ethnicity<br></span></p>\n<hr>\n<p>You trained with shields and weapons as soon as you were old enough to hold them, eager to win honor and glory for yourself. You gain the @Compendium[pf2e.feats-srd.Shield Block]{Shield Block} reaction and are trained in your choice of the battle axe or longsword.</p>"
        },
        "featType": {
            "value": "ancestry"
        },
        "level": {
            "value": "1"
        },
        "prerequisites": {
            "value": [
                ""
            ]
        },
        "rarity": {
            "value": "common"
        },
        "rules": [],
        "source": {
            "value": ""
        },
        "traits": {
            "custom": "",
            "rarity": {
                "value": "common"
            },
            "value": [
                "uncommon",
                "human"
            ]
        },
        "usage": {
            "value": "held-in-one-hand"
        }
    },
    "flags": {},
    "img": "systems/pf2e/icons/features/feats/feats.jpg",
    "name": "Viking Shieldbearer",
    "permission": {
        "default": 0
    },
    "type": "feat"
}