{
    "_id": "wBCt1wcgrjduwHbi",
    "data": {
        "actionCategory": {
            "value": ""
        },
        "actionType": {
            "value": "passive"
        },
        "actions": {
            "value": ""
        },
        "description": {
            "chat": "",
            "unidentified": "",
            "value": "<p>You command unparalleled focus when you commune with the world around you. If you have spent at least 3 Focus Points since the last time you <a class=\"entity-link\" data-pack=\"pf2e.actionspf2e\" data-id=\"OSefkMgojBLqmRDh\" draggable=\"true\"> Refocused</a>, you recover 3 Focus Points when you Refocus instead of 1.</p>"
        },
        "featType": {
            "value": "class"
        },
        "level": {
            "value": "18"
        },
        "prerequisites": {
            "value": [
                "warden's focus"
            ]
        },
        "rarity": {
            "value": "common"
        },
        "rules": [],
        "source": {
            "value": ""
        },
        "traits": {
            "rarity": {
                "value": "common"
            },
            "value": [
                "ranger"
            ]
        },
        "usage": {
            "value": ""
        }
    },
    "flags": {},
    "img": "systems/pf2e/icons/features/feats/feats.jpg",
    "name": "Warden's Wellspring",
    "permission": {
        "default": 0
    },
    "type": "feat"
}
