{
    "_id": "zZCyJhsaugHB6mZW",
    "data": {
        "actionCategory": {
            "value": ""
        },
        "actionType": {
            "value": "action"
        },
        "actions": {
            "value": "1"
        },
        "description": {
            "chat": "",
            "unidentified": "",
            "value": "<p>You menace the target, stoking their fears and drawing their attention.</p>\n<p>Attempt an Intimidation check against the Will DC of a target within 30 feet. If you succeed, for 1 minute, that target gains a +2 status bonus to Perception checks against you, but they take a -2 status penalty to Will saves against fear effects.</p>"
        },
        "featType": {
            "value": "class"
        },
        "level": {
            "value": "6"
        },
        "prerequisites": {
            "value": [
                "trained in Intimidation"
            ]
        },
        "rarity": {
            "value": "common"
        },
        "rules": [],
        "source": {
            "value": ""
        },
        "traits": {
            "rarity": {
                "value": "common"
            },
            "value": [
                "emotion",
                "fear",
                "mental",
                "rogue"
            ]
        },
        "usage": {
            "value": ""
        }
    },
    "flags": {},
    "img": "systems/pf2e/icons/features/feats/feats.jpg",
    "name": "Watch Your Back",
    "permission": {
        "default": 0
    },
    "type": "feat"
}
