{
    "_id": "o98nJriWE95xgweg",
    "data": {
        "actionCategory": {
            "value": ""
        },
        "actionType": {
            "value": "passive"
        },
        "actions": {
            "value": null
        },
        "description": {
            "chat": "",
            "unidentified": "",
            "value": "<p>You are adept at using the unusual resonance of your wayfinder to aid in any deceptions you might employ. Once per day you can activate your wayfinder to cast illusory disguise, heightened to 2nd level, as an arcane spell. Additionally, once per day, you can Activate your wayfinder with a single-action envision activation to transform it into a perfect replica of another similarly sized badge of membership or office, such as an Aspis Consortium badge. This transformation lasts for 1 hour.</p>"
        },
        "featType": {
            "value": "archetype"
        },
        "level": {
            "value": "8"
        },
        "prerequisites": {
            "value": [
                "Pathfinder Agent Dedication", "Wayfinder Resonance Tinkerer"
            ]
        },
        "rarity": {
            "value": "common"
        },
        "rules": [],
        "source": {
            "value": ""
        },
        "traits": {
            "custom": "",
            "rarity": {
                "value": "common"
            },
            "value": [
                "archetype"
            ]
        },
        "usage": {
            "value": "held-in-one-hand"
        }
    },
    "effects": [],
    "flags": {
        "core": {
            "sourceId": "Item.Ec6Vo5QcRI6Eo2hO"
        }
    },
    "img": "systems/pf2e/icons/features/feats/feats.jpg",
    "name": "Wayfinder Resonance Infiltrator",
    "permission": {
        "default": 0
    },
    "type": "feat"
}
