{
    "_id": "h11M3QrIHKLj2ezy",
    "data": {
        "actionCategory": {
            "value": ""
        },
        "actionType": {
            "value": "passive"
        },
        "actions": {
            "value": ""
        },
        "description": {
            "chat": "",
            "unidentified": "",
            "value": "<p>You are fastidious about keeping yourself clean, whether licking your fur or carefully using traditional catfolk hygiene products, to salubrious effect.</p>\n<p>You gain a +1 circumstance bonus to saving throws against diseases. If you roll a success on a saving throw against a disease, you get a critical success instead.</p>"
        },
        "featType": {
            "value": "ancestry"
        },
        "level": {
            "value": "9"
        },
        "prerequisites": {
            "value": [
                ""
            ]
        },
        "rarity": {
            "value": "common"
        },
        "rules": [],
        "source": {
            "value": ""
        },
        "traits": {
            "rarity": {
                "value": "common"
            },
            "value": [
                "catfolk"
            ]
        },
        "usage": {
            "value": ""
        }
    },
    "flags": {},
    "img": "systems/pf2e/icons/features/feats/feats.jpg",
    "name": "Well-Groomed",
    "permission": {
        "default": 0
    },
    "type": "feat"
}
