{
    "_id": "nqOoUH4r8NEi1i2g",
    "data": {
        "actionCategory": {
            "value": ""
        },
        "actionType": {
            "value": "passive"
        },
        "actions": {
            "value": ""
        },
        "containerId": {
            "value": ""
        },
        "description": {
            "chat": "",
            "unidentified": "",
            "value": "<p><strong>Moderate Curse</strong>: People react as though you're insulting them, even in normal conversation. Whenever you attempt to @Compendium[pf2e.actionspf2e.Make an Impression]{Make an Impression}, the outcome is one degree of success worse than the result of your roll. If you converse with someone over a long enough period of time but don't attempt to @Compendium[pf2e.actionspf2e.Make an Impression]{Make an Impression}, you still insult them, and you suffer the effect of a critical failure to @Compendium[pf2e.actionspf2e.Make an Impression]{Make an Impression}.</p>"
        },
        "featType": {
            "value": "curse"
        },
        "level": {
            "value": "0"
        },
        "prerequisites": {
            "value": ""
        },
        "rarity": {
            "value": "common"
        },
        "source": {
            "value": ""
        },
        "traits": {
            "custom": "",
            "rarity": {
                "value": "common"
            },
            "selected": {},
            "value": []
        },
        "usage": {
            "value": "held-in-one-hand"
        }
    },
    "flags": {},
    "img": "systems/pf2e/icons/deity/Calistria.png",
    "name": "Calistra - Moderate Curse",
    "permission": {
        "default": 0
    },
    "type": "feat"
}