{
    "_id": "mcVlGufQ8rQRe61Y",
    "data": {
        "actionCategory": {
            "value": ""
        },
        "actionType": {
            "value": "passive"
        },
        "actions": {
            "value": ""
        },
        "containerId": {
            "value": ""
        },
        "description": {
            "chat": "",
            "unidentified": "",
            "value": "<p><strong>Major Boon</strong>: Desna bestows you with a swirling cloud of lights that forms a pair of wondrous butterfly wings. These wings grant you a @Compendium[pf2e.actionspf2e.Fly]{Fly} Speed of 40 feet and shine dim light to a range of 20 feet.</p>"
        },
        "featType": {
            "value": "deityboon"
        },
        "level": {
            "value": "0"
        },
        "prerequisites": {
            "value": ""
        },
        "rarity": {
            "value": "common"
        },
        "source": {
            "value": ""
        },
        "traits": {
            "custom": "",
            "rarity": {
                "value": "common"
            },
            "selected": {},
            "value": []
        },
        "usage": {
            "value": "held-in-one-hand"
        }
    },
    "flags": {},
    "img": "systems/pf2e/icons/deity/Desna.png",
    "name": "Desna - Major Boon",
    "permission": {
        "default": 0
    },
    "type": "feat"
}