{
    "_id": "nFrCY6tT2B8uxaO3",
    "data": {
        "actionCategory": {
            "value": ""
        },
        "actionType": {
            "value": "passive"
        },
        "actions": {
            "value": ""
        },
        "containerId": {
            "value": ""
        },
        "description": {
            "chat": "",
            "unidentified": "",
            "value": "<p><strong>Major Boon</strong>: You become a friend to the land. You can cast @Compendium[pf2e.spells-srd.Speak with Plants]{Speak with Plants} as a divine innate spell.</p>\n<p>When you are in a healthy natural environment, the land sustains you without need for food or drink.</p>\n<p>You can cast the @Compendium[pf2e.spells-srd.Commune with Nature]{Commune with Nature} ritual without any secondary casters or secondary checks.</p>"
        },
        "featType": {
            "value": "deityboon"
        },
        "level": {
            "value": "0"
        },
        "prerequisites": {
            "value": ""
        },
        "rarity": {
            "value": "common"
        },
        "source": {
            "value": ""
        },
        "traits": {
            "custom": "",
            "rarity": {
                "value": "common"
            },
            "selected": {},
            "value": []
        },
        "usage": {
            "value": "held-in-one-hand"
        }
    },
    "flags": {},
    "img": "systems/pf2e/icons/deity/Erastil.png",
    "name": "Erastil - Major Boon",
    "permission": {
        "default": 0
    },
    "type": "feat"
}