{
    "_id": "dZU3HdI2oO8LFjGq",
    "data": {
        "actionCategory": {
            "value": ""
        },
        "actionType": {
            "value": "passive"
        },
        "actions": {
            "value": ""
        },
        "containerId": {
            "value": ""
        },
        "description": {
            "chat": "",
            "unidentified": "",
            "value": "<p><strong>Major Boon</strong>: When you contract contagions, you experience fever dreams filled with insight.</p>\n<p>Once afflicted with a disease, you gain the effects of @Compendium[pf2e.spells-srd.Foresight]{Foresight} with yourself as the target until no longer afflicted with any disease.</p>"
        },
        "featType": {
            "value": "deityboon"
        },
        "level": {
            "value": "0"
        },
        "prerequisites": {
            "value": ""
        },
        "rarity": {
            "value": "common"
        },
        "source": {
            "value": ""
        },
        "traits": {
            "custom": "",
            "rarity": {
                "value": "common"
            },
            "selected": {},
            "value": []
        },
        "usage": {
            "value": "held-in-one-hand"
        }
    },
    "flags": {},
    "img": "systems/pf2e/icons/deity/Urgathoa.png",
    "name": "Urgathoa - Major Boon",
    "permission": {
        "default": 0
    },
    "type": "feat"
}