{
    "_id": "j9zVZwRBVAcnpEkE",
    "data": {
        "description": {
            "chat": "",
            "unidentified": "",
            "value": "<p>Granted by @Compendium[pf2e.equipment-srd.Cheetah's Elixir (Moderate)]{Cheetah's Elixir (Moderate)}</p>\n<p>Automatically applied effects:</p>\n<ul>\n<li>+10 foot status bonus to Speed</li>\n</ul>"
        },
        "level": {
            "value": 5
        },
        "rarity": {
            "value": "common"
        },
        "rules": [
            {
                "key": "PF2E.RuleElement.FlatModifier",
                "selector": "speed",
                "type": "status",
                "value": 10
            },
            {
                "key": "PF2E.RuleElement.TokenEffectIcon"
            }
        ],
        "source": {
            "value": ""
        },
        "traits": {
            "value": []
        },
        "usage": {
            "value": "held-in-one-hand"
        }
    },
    "effects": [],
    "flags": {},
    "img": "systems/pf2e/icons/equipment/alchemical-items/alchemical-elixirs/cheetahs-elixir.jpg",
    "name": "Effect: Cheetah's Elixir (Moderate)",
    "permission": {
        "default": 0
    },
    "type": "effect"
}