{
    "_id": "iK6JeCsZwm5Vakks",
    "data": {
        "description": {
            "chat": "",
            "unidentified": "",
            "value": "<p>Granted by activating @Compendium[pf2e.equipment-srd.Anklets of Alacrity]{Anklets of Alacrity}.</p>\n<hr />\n<p>Automatically applied effects:</p>\n<ul>\n<li>+20-foot status bonus to Speed</li>\n</ul>"
        },
        "level": {
            "value": 17
        },
        "rarity": {
            "value": "common"
        },
        "rules": [
            {
                "key": "PF2E.RuleElement.FlatModifier",
                "label": "Anklets of Alacrity",
                "selector": "speed",
                "type": "status",
                "value": 20
            },
            {
                "key": "PF2E.RuleElement.TokenEffectIcon"
            }
        ],
        "source": {
            "value": ""
        },
        "traits": {
            "value": []
        },
        "usage": {
            "value": "held-in-one-hand"
        }
    },
    "effects": [],
    "flags": {},
    "img": "systems/pf2e/icons/equipment/worn-items/apex-items/anklets-of-alacrity.jpg",
    "name": "Effect: Anklets of Alacrity",
    "permission": {
        "default": 0
    },
    "type": "effect"
}