{
    "_id": "Wa4317cqU4lJ8vAQ",
    "data": {
        "description": {
            "chat": "",
            "unidentified": "",
            "value": "<p>Granted by @Compendium[pf2e.equipment-srd.Eagle Eye Elixir (Moderate)]{Eagle Eye Elixir (Moderate)}</p>\n<p>Implemented effects:</p>\n<ul>\n<li>+2 item bonus to Perception checks</li>\n<li>+3 item bonus to Perception checks to find secret doors and traps</li>\n</ul>"
        },
        "level": {
            "value": 5
        },
        "rarity": {
            "value": "common"
        },
        "rules": [
            {
                "key": "PF2E.RuleElement.FlatModifier",
                "label": "Eagle Eye Elixir (Moderate)",
                "selector": "perception",
                "type": "item",
                "value": 2
            },
            {
                "key": "PF2E.RuleElement.FlatModifier",
                "label": "Eagle Eye Elixir Moderate (secret doors & traps)",
                "predicate": {
                    "all": [
                        "secret doors and traps"
                    ]
                },
                "selector": "perception",
                "type": "item",
                "value": 3
            },
            {
                "key": "PF2E.RuleElement.TokenEffectIcon"
            }
        ],
        "source": {
            "value": ""
        },
        "traits": {
            "value": []
        },
        "usage": {
            "value": "held-in-one-hand"
        }
    },
    "effects": [],
    "flags": {},
    "img": "systems/pf2e/icons/equipment/alchemical-items/alchemical-elixirs/eagle-eyes-elixir.jpg",
    "name": "Effect: Eagle Eye Elixir (Moderate)",
    "permission": {
        "default": 0
    },
    "type": "effect"
}