{
    "_id": "P7Y7pO2ulZ5wBgxU",
    "data": {
        "description": {
            "chat": "",
            "unidentified": "",
            "value": "<p><strong>Activate</strong> <span style=\"font-family: 'Pathfinder2eActions'; font-size: 1.8em; display: inline;\">D</span> Interact</p>\n<p><strong>Frequency</strong> once per day</p>\n<p><strong>Effect</strong> You trace a finger along the wind motifs on the barding, granting your companion wearing the barding a fly Speed of 30 feet for 10 minutes. Even if the companion doesn't have the mount special ability, it can still Fly while being ridden.</p>\n<hr>\n<p>Automatically applied effects:</p>\n<ul>\n<li>Grants a fly speed for 30 feet</li>\n</ul>"
        },
        "level": {
            "value": 10
        },
        "rarity": {
            "value": "common"
        },
        "rules": [
            {
                "key": "PF2E.RuleElement.BaseSpeed",
                "selector": "fly",
                "value": 30
            },
            {
                "key": "PF2E.RuleElement.TokenEffectIcon"
            }
        ],
        "source": {
            "value": ""
        },
        "traits": {
            "value": []
        },
        "usage": {
            "value": "held-in-one-hand"
        }
    },
    "effects": [],
    "flags": {},
    "img": "systems/pf2e/icons/equipment/worn-items/companion-items/barding-of-the-zephyr.jpg",
    "name": "Effect: Barding of the Zephyr",
    "permission": {
        "default": 0
    },
    "type": "effect"
}
