{
    "_id": "pAMyEbJzWBoYoGhs",
    "data": {
        "description": {
            "chat": "",
            "unidentified": "",
            "value": "<p>Granted by activating @Compendium[pf2e.equipment-srd.Diplomat's Badge]{Diplomat's Badge}.</p>\n<hr />\n<p>Automatically applied effects:</p>\n<ul>\n<li>+2 item bonus to Diplomacy with a specific group</li>\n</ul>"
        },
        "level": {
            "value": 5
        },
        "rarity": {
            "value": "common"
        },
        "rules": [
            {
                "key": "PF2E.RuleElement.FlatModifier",
                "label": "Diplomat's Badge (specific group)",
                "predicate": {
                    "all": [
                        "group"
                    ]
                },
                "selector": "diplomacy",
                "type": "item",
                "value": 2
            },
            {
                "key": "PF2E.RuleElement.TokenEffectIcon"
            }
        ],
        "source": {
            "value": ""
        },
        "traits": {
            "value": []
        },
        "usage": {
            "value": "held-in-one-hand"
        }
    },
    "effects": [],
    "flags": {
        "core": {
            "sourceId": "Item.l3DTpAfBHPk5Kqlm"
        }
    },
    "img": "systems/pf2e/icons/equipment/worn-items/other-worn-items/diplomats-badge.jpg",
    "name": "Effect: Diplomat's Badge",
    "permission": {
        "default": 0
    },
    "type": "effect"
}