{
    "_id": "xFQRiVU6h8EA6Lw9",
    "data": {
        "description": {
            "chat": "",
            "unidentified": "",
            "value": "<p>Granted by @Compendium[pf2e.equipment-srd.Bestial Mutagen (Moderate)]{Bestial Mutagen (Moderate)}</p>\n<p>Implemented effects:</p>\n<ul>\n<li>+2 item bonus to Athletics checks</li>\n<li>+2 item bonus to unarmed attack rolls</li>\n<li>-1 penalty to AC</li>\n<li>-2 to penalty Reflex saves</li>\n</ul>\n<p>Unimplemented effects:</p>\n<ul>\n<li>Gain a claw unarmed attack</li>\n<li>Gain a jaws unarmed attack</li>\n</ul>"
        },
        "level": {
            "value": 3
        },
        "rarity": {
            "value": "common"
        },
        "rules": [
            {
                "key": "PF2E.RuleElement.FlatModifier",
                "label": "Bestial Mutagen (Moderate)",
                "selector": "athletics",
                "type": "item",
                "value": 2
            },
            {
                "key": "PF2E.RuleElement.FlatModifier",
                "label": "Bestial Mutagen (Moderate)",
                "selector": "ac",
                "type": "untyped",
                "value": -1
            },
            {
                "key": "PF2E.RuleElement.FlatModifier",
                "label": "Bestial Mutagen (Moderate)",
                "selector": "reflex",
                "type": "untyped",
                "value": -2
            },
            {
                "key": "PF2E.RuleElement.FlatModifier",
                "label": "Bestial Mutagen, Moderate (Unarmed attacks)",
                "predicate": {
                    "all": [
                        "unarmed"
                    ]
                },
                "selector": "attack",
                "type": "item",
                "value": 2
            },
            {
                "key": "PF2E.RuleElement.TokenEffectIcon"
            }
        ],
        "source": {
            "value": ""
        },
        "traits": {
            "value": []
        },
        "usage": {
            "value": "held-in-one-hand"
        }
    },
    "effects": [],
    "flags": {},
    "img": "systems/pf2e/icons/equipment/alchemical-items/alchemical-elixirs/bestial-mutagen.jpg",
    "name": "Effect: Bestial Mutagen (Moderate)",
    "permission": {
        "default": 0
    },
    "type": "effect"
}