{
    "_id": "xLilBqqf34ZJYO9i",
    "data": {
        "description": {
            "chat": "",
            "unidentified": "",
            "value": "<p>Granted by @Compendium[pf2e.equipment-srd.Juggernaut Mutagen (Greater)]{Juggernaut Mutagen (Greater)}</p>\n<p>Implemented effects:</p>\n<ul>\n<li>+3 item bonus to Fortitude saves</li>\n<li>Gain 30 temporary Hit Points</li>\n<li>-2 penalty to Will saves</li>\n<li>-2 penalty to Perception checks</li>\n<li>-2 penalty to initiative rolls</li>\n</ul>\n<p>Unimplemented effects:</p>\n<ul>\n<li>Whenever you are at maximum Hit Points for at least 1 full minute, you regain the temporary Hit Points.</li>\n</ul>"
        },
        "level": {
            "value": 11
        },
        "rarity": {
            "value": "common"
        },
        "rules": [
            {
                "key": "PF2E.RuleElement.FlatModifier",
                "label": "Juggernaut Mutagen (Greater)",
                "selector": "fortitude",
                "type": "item",
                "value": 3
            },
            {
                "key": "PF2E.RuleElement.FlatModifier",
                "label": "Juggernaut Mutagen (Greater)",
                "selector": "will",
                "type": "untyped",
                "value": -2
            },
            {
                "key": "PF2E.RuleElement.FlatModifier",
                "label": "Juggernaut Mutagen (Greater)",
                "selector": "perception",
                "type": "untyped",
                "value": -2
            },
            {
                "key": "PF2E.RuleElement.FlatModifier",
                "label": "Juggernaut Mutagen (Moderate)",
                "selector": "initiative",
                "type": "untyped",
                "value": -2
            },
            {
                "key": "PF2E.RuleElement.TempHP",
                "value": 30
            },
            {
                "key": "PF2E.RuleElement.TokenEffectIcon"
            }
        ],
        "source": {
            "value": ""
        },
        "traits": {
            "value": []
        },
        "usage": {
            "value": "held-in-one-hand"
        }
    },
    "effects": [],
    "flags": {},
    "img": "systems/pf2e/icons/equipment/alchemical-items/alchemical-elixirs/juggernaut-mutagen.jpg",
    "name": "Effect: Juggernaut Mutagen (Greater)",
    "permission": {
        "default": 0
    },
    "type": "effect"
}