{
    "_id": "wTZnKkT0K4Tdy8mD",
    "data": {
        "description": {
            "chat": "",
            "unidentified": "",
            "value": "<p>Granted by @Compendium[pf2e.equipment-srd.Bravo's Brew (Moderate)]{Bravo's Brew (Moderate)}</p>\n<p>Implemented effects:</p>\n<ul>\n<li>+2 item bonus to Will saves</li>\n<li>+3 item bonus to Will saves against fear</li>\n</ul>"
        },
        "level": {
            "value": 10
        },
        "rarity": {
            "value": "common"
        },
        "rules": [
            {
                "key": "PF2E.RuleElement.FlatModifier",
                "label": "Bravo's Brew (Moderate)",
                "selector": "will",
                "type": "item",
                "value": 2
            },
            {
                "key": "PF2E.RuleElement.FlatModifier",
                "label": "Bravo's Brew Moderate (vs. fear)",
                "predicate": {
                    "all": [
                        "fear"
                    ]
                },
                "selector": "will",
                "type": "item",
                "value": 3
            },
            {
                "key": "PF2E.RuleElement.TokenEffectIcon"
            }
        ],
        "source": {
            "value": ""
        },
        "traits": {
            "value": []
        },
        "usage": {
            "value": "held-in-one-hand"
        }
    },
    "effects": [],
    "flags": {},
    "img": "systems/pf2e/icons/equipment/alchemical-items/alchemical-elixirs/bravos-brew.jpg",
    "name": "Effect: Bravo's Brew (Moderate)",
    "permission": {
        "default": 0
    },
    "type": "effect"
}