{
    "_id": "6PNLBIdlqqWNCFMy",
    "data": {
        "description": {
            "chat": "",
            "unidentified": "",
            "value": "<p>Granted by @Compendium[pf2e.equipment-srd.Quicksilver Mutagen (Lesser)]{Quicksilver Mutagen (Lesser)}</p>\n<p>Implemented effects:</p>\n<ul>\n<li>+1 item bonus to Acrobatics, Stealth and Thievery checks</li>\n<li>+1 item bonus to Reflex saves</li>\n<li>+1 item bonus to ranged attack rolls</li>\n<li>+5 foot status bonus to Speed</li>\n<li>-2 penalty to Fortitude saves</li>\n</ul>\n<p>Unimplemented effects:</p>\n<ul>\n<li>You take damage equal to twice your level; you can't recover Hit Points lost this way by any means while the mutagen lasts</li>\n</ul>"
        },
        "level": {
            "value": 1
        },
        "rarity": {
            "value": "common"
        },
        "rules": [
            {
                "key": "PF2E.RuleElement.FlatModifier",
                "label": "Quicksilver Mutagen (Lesser)",
                "selector": "acrobatics",
                "type": "item",
                "value": 1
            },
            {
                "key": "PF2E.RuleElement.FlatModifier",
                "label": "Quicksilver Mutagen (Lesser)",
                "selector": "stealth",
                "type": "item",
                "value": 1
            },
            {
                "key": "PF2E.RuleElement.FlatModifier",
                "label": "Quicksilver Mutagen (Lesser)",
                "selector": "thievery",
                "type": "item",
                "value": 1
            },
            {
                "key": "PF2E.RuleElement.FlatModifier",
                "label": "Quicksilver Mutagen (Lesser)",
                "selector": "fortitude",
                "type": "untyped",
                "value": -2
            },
            {
                "key": "PF2E.RuleElement.FlatModifier",
                "label": "Quicksilver Mutagen, Lesser (Ranged attacks)",
                "predicate": {
                    "all": [
                        "ranged"
                    ]
                },
                "selector": "attack",
                "type": "item",
                "value": 1
            },
            {
                "key": "PF2E.RuleElement.FlatModifier",
                "label": "Quicksilver Mutagen (Lesser)",
                "selector": "reflex",
                "type": "item",
                "value": 1
            },
            {
                "key": "PF2E.RuleElement.TokenEffectIcon"
            },
            {
                "key": "PF2E.RuleElement.FlatModifier",
                "selector": "speed",
                "type": "status",
                "value": 5
            }
        ],
        "source": {
            "value": ""
        },
        "traits": {
            "value": []
        },
        "usage": {
            "value": "held-in-one-hand"
        }
    },
    "effects": [],
    "flags": {},
    "img": "systems/pf2e/icons/equipment/alchemical-items/alchemical-elixirs/quicksilver-mutagen.jpg",
    "name": "Effect: Quicksilver Mutagen (Lesser)",
    "permission": {
        "default": 0
    },
    "type": "effect"
}