{
    "_id": "GBBjw61g4ekJymT0",
    "data": {
        "description": {
            "chat": "",
            "unidentified": "",
            "value": "<p>Granted by @Compendium[pf2e.equipment-srd.Drakeheart Mutagen (Lesser)]{Drakeheart Mutagen (Lesser)}</p>\n<p><strong>Implemented effects:</strong></p>\n<ul>\n<li>+4 item bonus to AC</li>\n<li>Dexterity cap of +2</li>\n<li>+1 item bonus to Perception checks</li>\n<li>-1 penalty to Will saves</li>\n<li>-1 penalty to Reflex saves</li>\n<li>-1 penalty to all Recall Knowledge checks</li>\n</ul>\n<p><strong>Unimplemented effects:</strong></p>\n<ul>\n<li>Gain the Final Surge action</li>\n</ul>"
        },
        "level": {
            "value": 1
        },
        "rarity": {
            "value": "common"
        },
        "rules": [
            {
                "key": "PF2E.RuleElement.DexterityModifierCap",
                "label": "Drakeheart Mutagen (Lesser)",
                "value": 2
            },
            {
                "key": "PF2E.RuleElement.FlatModifier",
                "label": "Drakeheart Mutagen (Lesser)",
                "selector": "ac",
                "type": "item",
                "value": 4
            },
            {
                "key": "PF2E.RuleElement.FlatModifier",
                "label": "Drakeheart Mutagen (Lesser)",
                "selector": "perception",
                "type": "item",
                "value": 1
            },
            {
                "key": "PF2E.RuleElement.FlatModifier",
                "label": "Drakeheart Mutagen (Lesser)",
                "selector": "will",
                "type": "untyped",
                "value": -1
            },
            {
                "key": "PF2E.RuleElement.FlatModifier",
                "label": "Drakeheart Mutagen (Lesser)",
                "selector": "reflex",
                "type": "untyped",
                "value": -1
            },
            {
                "key": "PF2E.RuleElement.TokenEffectIcon"
            },
            {
                "key": "PF2E.RuleElement.FlatModifier",
                "label": "Drakeheart Mutagen (Recall Knowledge)",
                "predicate": {
                    "all": [
                        "recall-knowledge"
                    ]
                },
                "selector": "skill-check",
                "value": -1
            }
        ],
        "source": {
            "value": ""
        },
        "traits": {
            "value": []
        },
        "usage": {
            "value": "held-in-one-hand"
        }
    },
    "effects": [],
    "flags": {},
    "img": "systems/pf2e/icons/equipment/alchemical-items/alchemical-elixirs/drakeheart-mutagen.jpg",
    "name": "Effect: Drakeheart Mutagen (Lesser)",
    "permission": {
        "default": 0
    },
    "type": "effect"
}