{
    "_id": "l9HRQggofFGIxEse",
    "data": {
        "description": {
            "chat": "",
            "unidentified": "",
            "value": "<p>Granted by @Compendium[pf2e.spells-srd.Heroism]{Heroism}</p>\n<p>Tapping into your inner heroism, you get a +1 status bonus to attack rolls, Perception checks, saving throws, and skill checks.</p>"
        },
        "level": {
            "value": 3
        },
        "rarity": {
            "value": "common"
        },
        "rules": [
            {
                "key": "PF2E.RuleElement.FlatModifier",
                "label": "Heroism",
                "selector": "attack",
                "type": "status",
                "value": {
                    "brackets": [
                        {
                            "end": 5,
                            "start": 3,
                            "value": 1
                        },
                        {
                            "end": 8,
                            "start": 6,
                            "value": 2
                        },
                        {
                            "start": 9,
                            "value": 3
                        }
                    ],
                    "field": "item|data.level.value"
                }
            },
            {
                "key": "PF2E.RuleElement.FlatModifier",
                "label": "Heroism",
                "selector": "perception",
                "type": "status",
                "value": {
                    "brackets": [
                        {
                            "end": 5,
                            "start": 3,
                            "value": 1
                        },
                        {
                            "end": 8,
                            "start": 6,
                            "value": 2
                        },
                        {
                            "start": 9,
                            "value": 3
                        }
                    ],
                    "field": "item|data.level.value"
                }
            },
            {
                "key": "PF2E.RuleElement.FlatModifier",
                "label": "Heroism",
                "selector": "saving-throw",
                "type": "status",
                "value": {
                    "brackets": [
                        {
                            "end": 5,
                            "start": 3,
                            "value": 1
                        },
                        {
                            "end": 8,
                            "start": 6,
                            "value": 2
                        },
                        {
                            "start": 9,
                            "value": 3
                        }
                    ],
                    "field": "item|data.level.value"
                }
            },
            {
                "key": "PF2E.RuleElement.FlatModifier",
                "label": "Heroism",
                "selector": "skill-check",
                "type": "status",
                "value": {
                    "brackets": [
                        {
                            "end": 5,
                            "start": 3,
                            "value": 1
                        },
                        {
                            "end": 8,
                            "start": 6,
                            "value": 2
                        },
                        {
                            "start": 9,
                            "value": 3
                        }
                    ],
                    "field": "item|data.level.value"
                }
            },
            {
                "key": "PF2E.RuleElement.TokenEffectIcon"
            }
        ],
        "source": {
            "value": ""
        },
        "traits": {
            "value": []
        },
        "usage": {
            "value": "held-in-one-hand"
        }
    },
    "effects": [],
    "flags": {
        "core": {
            "sourceId": "Item.OZxCMFlmjXB0CPkX"
        }
    },
    "img": "systems/pf2e/icons/spells/heroism.jpg",
    "name": "Spell Effect: Heroism",
    "permission": {
        "default": 0
    },
    "type": "effect"
}