{
    "_id": "Gqy7K6FnbLtwGpud",
    "data": {
        "description": {
            "chat": "",
            "unidentified": "",
            "value": "<p>Granted by @Compendium[pf2e.spells-srd.Bless]{Bless}</p>\n<p>Blessings from beyond help you strike true. You gain a +1 status bonus to attack rolls.</p>"
        },
        "level": {
            "value": null
        },
        "rarity": {
            "value": "common"
        },
        "rules": [
            {
                "key": "PF2E.RuleElement.FlatModifier",
                "label": "Bless",
                "selector": "attack",
                "type": "status",
                "value": 1
            },
            {
                "key": "PF2E.RuleElement.TokenEffectIcon"
            }
        ],
        "source": {
            "value": ""
        },
        "traits": {
            "value": []
        },
        "usage": {
            "value": "held-in-one-hand"
        }
    },
    "effects": [],
    "flags": {
        "core": {
            "sourceId": "Item.t52OQuMwp61gYVyz"
        }
    },
    "img": "systems/pf2e/icons/spells/bless.jpg",
    "name": "Spell Effect: Bless",
    "permission": {
        "default": 0
    },
    "type": "effect"
}