{
    "_id": "zj2sCM8tQSMG9Qm6",
    "data": {
        "abilities": {
            "cha": {
                "min": 3,
                "mod": 2,
                "value": 14
            },
            "con": {
                "min": 3,
                "mod": 2,
                "value": 14
            },
            "dex": {
                "min": 3,
                "mod": 4,
                "value": 18
            },
            "int": {
                "min": 3,
                "mod": -1,
                "value": 8
            },
            "str": {
                "min": 3,
                "mod": -1,
                "value": 8
            },
            "wis": {
                "min": 3,
                "mod": 3,
                "value": 16
            }
        },
        "attributes": {
            "ac": {
                "_modifiers": [
                    {
                        "custom": false,
                        "enabled": true,
                        "ignored": false,
                        "modifier": 7,
                        "name": "PF2E.BaseModifier",
                        "type": "untyped"
                    },
                    {
                        "custom": false,
                        "enabled": true,
                        "ignored": false,
                        "modifier": 4,
                        "name": "PF2E.AbilityDex",
                        "type": "ability"
                    }
                ],
                "base": 21,
                "breakdown": "Base Armor Class 10, Base Modifier +7, Dexterity +4",
                "check": 0,
                "details": "",
                "dex": 0,
                "item": 0,
                "min": 0,
                "name": "ac",
                "totalModifier": 11,
                "value": 21
            },
            "allSaves": {
                "value": ""
            },
            "ancestryhp": 0,
            "bonusEncumbranceBulk": 0,
            "bonusLimitBulk": 0,
            "classDC": {
                "ability": "str",
                "breakdown": "",
                "item": 0,
                "rank": 0,
                "value": 0
            },
            "classhp": 0,
            "flatbonushp": 0,
            "flatbonussp": 0,
            "hp": {
                "details": "",
                "max": 60,
                "min": 0,
                "temp": 0,
                "tempmax": 0,
                "value": 60
            },
            "init": {
                "bonus": 0,
                "value": 0
            },
            "initiative": {
                "ability": "",
                "circumstance": 0,
                "status": 0
            },
            "levelbonushp": 0,
            "levelbonussp": 0,
            "perception": {
                "_modifiers": [
                    {
                        "custom": false,
                        "enabled": true,
                        "ignored": false,
                        "modifier": 8,
                        "name": "PF2E.BaseModifier",
                        "type": "untyped"
                    },
                    {
                        "custom": false,
                        "enabled": true,
                        "ignored": false,
                        "modifier": 3,
                        "name": "PF2E.AbilityWis",
                        "type": "ability"
                    }
                ],
                "ability": "wis",
                "base": 11,
                "breakdown": "Base Modifier +8, Wisdom +3",
                "item": 0,
                "name": "perception",
                "rank": 0,
                "totalModifier": 11,
                "value": 11
            },
            "resolve": {
                "value": 0
            },
            "shield": {
                "ac": 2,
                "brokenThreshold": "0",
                "hardness": 0,
                "max": "0",
                "min": 0,
                "value": 0
            },
            "sp": {
                "details": "",
                "max": 0,
                "min": 0,
                "value": 0
            },
            "speed": {
                "otherSpeeds": [],
                "special": "",
                "value": "30 feet"
            }
        },
        "currency": {
            "cp": {
                "value": 0
            },
            "gp": {
                "value": 0
            },
            "pp": {
                "value": 0
            },
            "sp": {
                "value": 0
            }
        },
        "customModifiers": {},
        "damageDice": {},
        "details": {
            "alignment": {
                "value": "CN"
            },
            "ancestry": {
                "value": ""
            },
            "biography": {
                "public": "",
                "value": ""
            },
            "class": {
                "value": ""
            },
            "creatureType": "",
            "deity": {
                "image": "systems/pf2e/assets/sheet/deity.png",
                "value": ""
            },
            "flavourText": "",
            "heritage": {
                "value": ""
            },
            "keyability": {
                "value": "str"
            },
            "level": {
                "min": 1,
                "value": 4
            },
            "nethysUrl": "",
            "recallKnowledgeText": "",
            "sidebarText": "",
            "source": {
                "value": ""
            }
        },
        "martial": {
            "advanced": {
                "breakdown": "",
                "rank": 0,
                "value": 0
            },
            "heavy": {
                "breakdown": "",
                "rank": 0,
                "value": 0
            },
            "light": {
                "breakdown": "",
                "rank": 0,
                "value": 0
            },
            "martial": {
                "breakdown": "",
                "rank": 0,
                "value": 0
            },
            "medium": {
                "breakdown": "",
                "rank": 0,
                "value": 0
            },
            "simple": {
                "breakdown": "",
                "rank": 0,
                "value": 0
            },
            "unarmed": {
                "breakdown": "",
                "rank": 0,
                "value": 0
            },
            "unarmored": {
                "breakdown": "",
                "rank": 0,
                "value": 0
            }
        },
        "saves": {
            "fortitude": {
                "_modifiers": [
                    {
                        "custom": false,
                        "enabled": true,
                        "ignored": false,
                        "modifier": 8,
                        "name": "PF2E.BaseModifier",
                        "type": "untyped"
                    },
                    {
                        "custom": false,
                        "enabled": true,
                        "ignored": false,
                        "modifier": 2,
                        "name": "PF2E.AbilityCon",
                        "type": "ability"
                    }
                ],
                "ability": "con",
                "base": 10,
                "breakdown": "Base Modifier +8, Constitution +2",
                "item": 0,
                "name": "fortitude",
                "rank": 0,
                "saveDetail": "",
                "totalModifier": 10,
                "value": 10
            },
            "reflex": {
                "_modifiers": [
                    {
                        "custom": false,
                        "enabled": true,
                        "ignored": false,
                        "modifier": 8,
                        "name": "PF2E.BaseModifier",
                        "type": "untyped"
                    },
                    {
                        "custom": false,
                        "enabled": true,
                        "ignored": false,
                        "modifier": 4,
                        "name": "PF2E.AbilityDex",
                        "type": "ability"
                    }
                ],
                "ability": "dex",
                "base": 12,
                "breakdown": "Base Modifier +8, Dexterity +4",
                "item": 0,
                "name": "reflex",
                "rank": 0,
                "saveDetail": "",
                "totalModifier": 12,
                "value": 12
            },
            "will": {
                "_modifiers": [
                    {
                        "custom": false,
                        "enabled": true,
                        "ignored": false,
                        "modifier": 8,
                        "name": "PF2E.BaseModifier",
                        "type": "untyped"
                    },
                    {
                        "custom": false,
                        "enabled": true,
                        "ignored": false,
                        "modifier": 3,
                        "name": "PF2E.AbilityWis",
                        "type": "ability"
                    }
                ],
                "ability": "wis",
                "base": 11,
                "breakdown": "Base Modifier +8, Wisdom +3",
                "item": 0,
                "name": "will",
                "rank": 0,
                "saveDetail": "",
                "totalModifier": 11,
                "value": 11
            }
        },
        "schema": {
            "version": {
                "value": ""
            }
        },
        "skills": {
            "acr": {
                "_modifiers": [
                    {
                        "custom": false,
                        "enabled": true,
                        "ignored": false,
                        "modifier": 10,
                        "name": "PF2E.BaseModifier",
                        "type": "untyped"
                    },
                    {
                        "custom": false,
                        "enabled": true,
                        "ignored": false,
                        "modifier": 4,
                        "name": "PF2E.AbilityDex",
                        "type": "ability"
                    }
                ],
                "ability": "dex",
                "armor": 1,
                "base": 14,
                "breakdown": "Base Modifier +10, Dexterity +4",
                "expanded": "acrobatics",
                "item": 0,
                "label": "Acrobatics",
                "mod": 0,
                "name": "Acrobatics",
                "rank": 0,
                "totalModifier": 14,
                "value": 14,
                "visible": true
            },
            "arc": {
                "ability": "int",
                "breakdown": "",
                "item": 0,
                "mod": 0,
                "rank": 0,
                "value": 0
            },
            "ath": {
                "ability": "str",
                "armor": 1,
                "breakdown": "",
                "item": 0,
                "mod": 0,
                "rank": 0,
                "value": 0
            },
            "cra": {
                "ability": "int",
                "breakdown": "",
                "item": 0,
                "mod": 0,
                "rank": 0,
                "value": 0
            },
            "dec": {
                "_modifiers": [
                    {
                        "custom": false,
                        "enabled": true,
                        "ignored": false,
                        "modifier": 8,
                        "name": "PF2E.BaseModifier",
                        "type": "untyped"
                    },
                    {
                        "custom": false,
                        "enabled": true,
                        "ignored": false,
                        "modifier": 2,
                        "name": "PF2E.AbilityCha",
                        "type": "ability"
                    }
                ],
                "ability": "cha",
                "base": 10,
                "breakdown": "Base Modifier +8, Charisma +2",
                "expanded": "deception",
                "item": 0,
                "label": "Deception",
                "mod": 0,
                "name": "Deception",
                "rank": 0,
                "totalModifier": 10,
                "value": 10,
                "visible": true
            },
            "deception-(+12-to-create-a-diversion)": {
                "_modifiers": [
                    {
                        "custom": false,
                        "enabled": true,
                        "ignored": false,
                        "modifier": 11,
                        "name": "PF2E.BaseModifier",
                        "type": "untyped"
                    },
                    {
                        "custom": false,
                        "enabled": true,
                        "ignored": false,
                        "modifier": -1,
                        "name": "PF2E.AbilityInt",
                        "type": "ability"
                    }
                ],
                "base": 10,
                "breakdown": "Base Modifier +11, Intelligence -1",
                "expanded": "deception-(+12-to-create-a-diversion)",
                "label": "Deception (+12 to Create a Diversion)",
                "name": "Deception (+12 to Create a Diversion)",
                "totalModifier": 10,
                "value": 10,
                "visible": true
            },
            "dip": {
                "ability": "cha",
                "breakdown": "",
                "item": 0,
                "mod": 0,
                "rank": 0,
                "value": 0
            },
            "itm": {
                "ability": "cha",
                "breakdown": "",
                "item": 0,
                "mod": 0,
                "rank": 0,
                "value": 0
            },
            "med": {
                "ability": "wis",
                "breakdown": "",
                "item": 0,
                "mod": 0,
                "rank": 0,
                "value": 0
            },
            "nat": {
                "ability": "wis",
                "breakdown": "",
                "item": 0,
                "mod": 0,
                "rank": 0,
                "value": 0
            },
            "occ": {
                "ability": "int",
                "breakdown": "",
                "item": 0,
                "mod": 0,
                "rank": 0,
                "value": 0
            },
            "prf": {
                "ability": "cha",
                "breakdown": "",
                "item": 0,
                "mod": 0,
                "rank": 0,
                "value": 0
            },
            "rel": {
                "ability": "wis",
                "breakdown": "",
                "item": 0,
                "mod": 0,
                "rank": 0,
                "value": 0
            },
            "soc": {
                "ability": "int",
                "breakdown": "",
                "item": 0,
                "mod": 0,
                "rank": 0,
                "value": 0
            },
            "ste": {
                "_modifiers": [
                    {
                        "custom": false,
                        "enabled": true,
                        "ignored": false,
                        "modifier": 8,
                        "name": "PF2E.BaseModifier",
                        "type": "untyped"
                    },
                    {
                        "custom": false,
                        "enabled": true,
                        "ignored": false,
                        "modifier": 4,
                        "name": "PF2E.AbilityDex",
                        "type": "ability"
                    }
                ],
                "ability": "dex",
                "armor": 1,
                "base": 12,
                "breakdown": "Base Modifier +8, Dexterity +4",
                "expanded": "stealth",
                "item": 0,
                "label": "Stealth",
                "mod": 0,
                "name": "Stealth",
                "rank": 0,
                "totalModifier": 12,
                "value": 12,
                "visible": true
            },
            "sur": {
                "_modifiers": [
                    {
                        "custom": false,
                        "enabled": true,
                        "ignored": false,
                        "modifier": 9,
                        "name": "PF2E.BaseModifier",
                        "type": "untyped"
                    },
                    {
                        "custom": false,
                        "enabled": true,
                        "ignored": false,
                        "modifier": 3,
                        "name": "PF2E.AbilityWis",
                        "type": "ability"
                    }
                ],
                "ability": "wis",
                "base": 12,
                "breakdown": "Base Modifier +9, Wisdom +3",
                "expanded": "survival",
                "item": 0,
                "label": "Survival",
                "mod": 0,
                "name": "Survival",
                "rank": 0,
                "totalModifier": 12,
                "value": 12,
                "visible": true
            },
            "thi": {
                "ability": "dex",
                "armor": 1,
                "breakdown": "",
                "item": 0,
                "mod": 0,
                "rank": 0,
                "value": 0
            }
        },
        "spells": {
            "spell0": {
                "max": 0
            },
            "spell1": {
                "max": 0
            },
            "spell10": {
                "max": 0
            },
            "spell11": {
                "max": 0
            },
            "spell2": {
                "max": 0
            },
            "spell3": {
                "max": 0
            },
            "spell4": {
                "max": 0
            },
            "spell5": {
                "max": 0
            },
            "spell6": {
                "max": 0
            },
            "spell7": {
                "max": 0
            },
            "spell8": {
                "max": 0
            },
            "spell9": {
                "max": 0
            }
        },
        "statusEffects": [],
        "traits": {
            "ci": [],
            "di": {
                "custom": "",
                "value": [
                    "paralyzed",
                    "sleep"
                ]
            },
            "dr": [],
            "dv": [],
            "languages": {
                "custom": "",
                "selected": [],
                "value": [
                    "draconic"
                ]
            },
            "rarity": {
                "value": "uncommon"
            },
            "senses": {
                "value": "darkvision, scent (imprecise) 30 feet"
            },
            "size": {
                "value": "tiny"
            },
            "traits": {
                "custom": "",
                "value": [
                    "dragon"
                ]
            }
        }
    },
    "flags": {
        "pf2e": {
            "editNPC": {
                "value": false
            }
        },
        "pf2e_updatednpcsheet": {
            "npcNotes": {
                "value": ""
            }
        }
    },
    "img": "icons/svg/mystery-man.svg",
    "items": [
        {
            "_id": "EwBUMghxbAsyxuOi",
            "data": {
                "description": {
                    "chat": "",
                    "unidentified": "",
                    "value": ""
                },
                "featType": "",
                "item": {
                    "value": 0
                },
                "mod": {
                    "value": 14
                },
                "proficient": {
                    "value": 0
                },
                "rarity": {
                    "value": "common"
                },
                "rules": [],
                "source": {
                    "value": ""
                },
                "traits": {
                    "value": []
                },
                "usage": {
                    "value": "held-in-one-hand"
                }
            },
            "flags": {},
            "img": "icons/svg/mystery-man.svg",
            "name": "Acrobatics",
            "type": "lore"
        },
        {
            "_id": "oQJvVNt4Rn1ZygrC",
            "data": {
                "description": {
                    "chat": "",
                    "unidentified": "",
                    "value": ""
                },
                "featType": "",
                "item": {
                    "value": 0
                },
                "mod": {
                    "value": 10
                },
                "proficient": {
                    "value": 0
                },
                "rarity": {
                    "value": "common"
                },
                "rules": [],
                "source": {
                    "value": ""
                },
                "traits": {
                    "value": []
                },
                "usage": {
                    "value": "held-in-one-hand"
                }
            },
            "flags": {},
            "img": "icons/svg/mystery-man.svg",
            "name": "Deception (+12 to Create a Diversion)",
            "type": "lore"
        },
        {
            "_id": "akqAgcSAf7mlaDuu",
            "data": {
                "description": {
                    "chat": "",
                    "unidentified": "",
                    "value": ""
                },
                "featType": "",
                "item": {
                    "value": 0
                },
                "mod": {
                    "value": 12
                },
                "proficient": {
                    "value": 0
                },
                "rarity": {
                    "value": "common"
                },
                "rules": [],
                "source": {
                    "value": ""
                },
                "traits": {
                    "value": []
                },
                "usage": {
                    "value": "held-in-one-hand"
                }
            },
            "flags": {},
            "img": "icons/svg/mystery-man.svg",
            "name": "Stealth",
            "type": "lore"
        },
        {
            "_id": "oytVEDXLxPJNRDUi",
            "data": {
                "description": {
                    "chat": "",
                    "unidentified": "",
                    "value": ""
                },
                "featType": "",
                "item": {
                    "value": 0
                },
                "mod": {
                    "value": 12
                },
                "proficient": {
                    "value": 0
                },
                "rarity": {
                    "value": "common"
                },
                "rules": [],
                "source": {
                    "value": ""
                },
                "traits": {
                    "value": []
                },
                "usage": {
                    "value": "held-in-one-hand"
                }
            },
            "flags": {},
            "img": "icons/svg/mystery-man.svg",
            "name": "Survival",
            "type": "lore"
        },
        {
            "_id": "Q10SWwitCSafoJ4L",
            "data": {
                "actionCategory": {
                    "value": "defensive"
                },
                "actionType": {
                    "value": "reaction"
                },
                "actions": {
                    "value": ""
                },
                "description": {
                    "chat": "",
                    "unidentified": "",
                    "value": "<b>Trigger</b> Another creature in the najra lizard's square succeeds at a Deception check to Create a Diversion; <b>Effect</b> The najra lizard automatically successfully Creates a Diversion against the same targets."
                },
                "rarity": {
                    "value": "common"
                },
                "requirements": {
                    "value": ""
                },
                "rules": [],
                "skill_requirements": {
                    "rank": "",
                    "skill": ""
                },
                "source": {
                    "value": ""
                },
                "traits": {
                    "custom": "",
                    "value": []
                },
                "trigger": {
                    "value": ""
                },
                "usage": {
                    "value": "held-in-one-hand"
                },
                "weapon": {
                    "value": ""
                }
            },
            "flags": {},
            "img": "systems/pf2e/icons/actions/Reaction.png",
            "name": "Shared Diversion",
            "type": "action"
        },
        {
            "_id": "3jd4JNaR2XiNoddM",
            "data": {
                "attack": {
                    "value": ""
                },
                "attackEffects": {
                    "custom": "",
                    "value": [
                        "najra lizard venom "
                    ]
                },
                "bonus": {
                    "value": "14"
                },
                "brokenThreshold": {
                    "value": 0
                },
                "bulkCapacity": {
                    "value": ""
                },
                "collapsed": {
                    "value": false
                },
                "containerId": {
                    "value": ""
                },
                "damageRolls": {
                    "0": {
                        "damage": "2d6",
                        "damageType": "piercing"
                    }
                },
                "description": {
                    "chat": "",
                    "unidentified": "",
                    "value": ""
                },
                "equipped": {
                    "value": false
                },
                "equippedBulk": {
                    "value": ""
                },
                "hardness": {
                    "value": 0
                },
                "hp": {
                    "value": 0
                },
                "identified": {
                    "value": false
                },
                "invested": {
                    "value": false
                },
                "maxHp": {
                    "value": 0
                },
                "negateBulk": {
                    "value": "0"
                },
                "preciousMaterial": {
                    "value": ""
                },
                "preciousMaterialGrade": {
                    "value": ""
                },
                "price": {
                    "value": 0
                },
                "property1": {
                    "critDamage": "",
                    "critDamageType": "",
                    "critDice": 0,
                    "critDie": "",
                    "damageType": "",
                    "dice": 0,
                    "die": "",
                    "value": ""
                },
                "property2": {
                    "critDamage": "",
                    "critDamageType": "",
                    "critDice": 0,
                    "critDie": "",
                    "damageType": "",
                    "dice": 0,
                    "die": "",
                    "value": ""
                },
                "property3": {
                    "critDamage": "",
                    "critDamageType": "",
                    "critDice": 0,
                    "critDie": "",
                    "damageType": "",
                    "dice": 0,
                    "die": "",
                    "value": ""
                },
                "quantity": {
                    "value": 1
                },
                "rarity": {
                    "value": "common"
                },
                "rules": [],
                "source": {
                    "value": ""
                },
                "stackGroup": {
                    "value": ""
                },
                "traits": {
                    "custom": "",
                    "selected": [],
                    "value": []
                },
                "usage": {
                    "value": "held-in-one-hand"
                },
                "weaponType": {
                    "value": "melee"
                },
                "weight": {
                    "value": 0
                }
            },
            "flags": {},
            "img": "icons/svg/mystery-man.svg",
            "name": "jaws",
            "type": "melee"
        },
        {
            "_id": "wpS81V45xNq0wZpT",
            "data": {
                "attack": {
                    "value": ""
                },
                "attackEffects": {
                    "custom": "",
                    "value": [
                        "najra lizard venom"
                    ]
                },
                "bonus": {
                    "value": "14"
                },
                "brokenThreshold": {
                    "value": 0
                },
                "bulkCapacity": {
                    "value": ""
                },
                "collapsed": {
                    "value": false
                },
                "containerId": {
                    "value": ""
                },
                "damageRolls": {
                    "0": {
                        "damage": "1d4",
                        "damageType": "poison"
                    }
                },
                "description": {
                    "chat": "",
                    "unidentified": "",
                    "value": ""
                },
                "equipped": {
                    "value": false
                },
                "equippedBulk": {
                    "value": ""
                },
                "hardness": {
                    "value": 0
                },
                "hp": {
                    "value": 0
                },
                "identified": {
                    "value": false
                },
                "invested": {
                    "value": false
                },
                "maxHp": {
                    "value": 0
                },
                "negateBulk": {
                    "value": "0"
                },
                "preciousMaterial": {
                    "value": ""
                },
                "preciousMaterialGrade": {
                    "value": ""
                },
                "price": {
                    "value": 0
                },
                "property1": {
                    "critDamage": "",
                    "critDamageType": "",
                    "critDice": 0,
                    "critDie": "",
                    "damageType": "",
                    "dice": 0,
                    "die": "",
                    "value": ""
                },
                "property2": {
                    "critDamage": "",
                    "critDamageType": "",
                    "critDice": 0,
                    "critDie": "",
                    "damageType": "",
                    "dice": 0,
                    "die": "",
                    "value": ""
                },
                "property3": {
                    "critDamage": "",
                    "critDamageType": "",
                    "critDice": 0,
                    "critDie": "",
                    "damageType": "",
                    "dice": 0,
                    "die": "",
                    "value": ""
                },
                "quantity": {
                    "value": 1
                },
                "rarity": {
                    "value": "common"
                },
                "rules": [],
                "source": {
                    "value": ""
                },
                "stackGroup": {
                    "value": ""
                },
                "traits": {
                    "custom": "",
                    "selected": [],
                    "value": [
                        "agile",
                        "poison",
                        "range-increment-20"
                    ]
                },
                "usage": {
                    "value": "held-in-one-hand"
                },
                "weaponType": {
                    "value": "ranged"
                },
                "weight": {
                    "value": 0
                }
            },
            "flags": {},
            "img": "icons/svg/mystery-man.svg",
            "name": "venomous spit",
            "type": "melee"
        },
        {
            "_id": "yut11i3oSOwRk5mZ",
            "data": {
                "actionCategory": {
                    "value": "offensive"
                },
                "actionType": {
                    "value": "passive"
                },
                "actions": {
                    "value": ""
                },
                "description": {
                    "chat": "",
                    "unidentified": "",
                    "value": "The creature is extremely thirsty and can't quench its thirst while poisoned; <b>Saving Throw</b> DC 21 Fortitude; <b>Maximum Duration</b> 4 hours; <b>Stage 1</b> 1d4 poison damage, fatigued, and 1d4 damage that can't be recovered until the creature quenches its thirst (1 round); <b>Stage 2</b> as stage 1 (1 hour)"
                },
                "rarity": {
                    "value": "common"
                },
                "requirements": {
                    "value": ""
                },
                "rules": [],
                "skill_requirements": {
                    "rank": "",
                    "skill": ""
                },
                "source": {
                    "value": ""
                },
                "traits": {
                    "custom": "",
                    "value": []
                },
                "trigger": {
                    "value": ""
                },
                "usage": {
                    "value": "held-in-one-hand"
                },
                "weapon": {
                    "value": ""
                }
            },
            "flags": {},
            "img": "systems/pf2e/icons/actions/Passive.png",
            "name": "Najra Lizard Venom",
            "type": "action"
        },
        {
            "_id": "126ppmFKAd49r2hi",
            "data": {
                "actionCategory": {
                    "value": "offensive"
                },
                "actionType": {
                    "value": "passive"
                },
                "actions": {
                    "value": ""
                },
                "description": {
                    "chat": "",
                    "unidentified": "",
                    "value": "The najra lizard's melee Strikes deal 1d6 precision damage to creatures sharing a square with more than one najra lizard."
                },
                "rarity": {
                    "value": "common"
                },
                "requirements": {
                    "value": ""
                },
                "rules": [],
                "skill_requirements": {
                    "rank": "",
                    "skill": ""
                },
                "source": {
                    "value": ""
                },
                "traits": {
                    "custom": "",
                    "value": []
                },
                "trigger": {
                    "value": ""
                },
                "usage": {
                    "value": "held-in-one-hand"
                },
                "weapon": {
                    "value": ""
                }
            },
            "flags": {},
            "img": "systems/pf2e/icons/actions/Passive.png",
            "name": "Najra Swarm Attack",
            "type": "action"
        }
    ],
    "name": "Najra Lizard",
    "permission": {
        "default": 0
    },
    "token": {
        "actorData": {},
        "actorId": "zj2sCM8tQSMG9Qm6",
        "actorLink": false,
        "bar1": {
            "attribute": "attributes.hp"
        },
        "bar2": {},
        "brightLight": 0,
        "brightSight": 0,
        "dimLight": 0,
        "dimSight": 0,
        "displayBars": 20,
        "displayName": 20,
        "disposition": -1,
        "flags": {},
        "height": 1,
        "img": "icons/svg/mystery-man.svg",
        "lightAlpha": 1,
        "lightAngle": 360,
        "lockRotation": false,
        "name": "Najra Lizard",
        "randomImg": false,
        "rotation": 0,
        "scale": 1,
        "sightAngle": 360,
        "tint": null,
        "vision": false,
        "width": 1
    },
    "type": "npc"
}
