{
    "_id": "uNM7qZQokRKAEd7k",
    "data": {
        "actionCategory": {
            "value": ""
        },
        "actionType": {
            "value": "passive"
        },
        "actions": {
            "value": ""
        },
        "description": {
            "chat": "",
            "unidentified": "",
            "value": "<p><span id=\"ctl00_MainContent_DetailedOutput\">As a necromancer, you call upon the powers of life and death. While your school is often vilified for its association with raising the undead, you understand that control over life also means control over healing. You add one 1st-level necromancy spell (such as @Compendium[pf2e.spells-srd.Grim Tendrils]{Grim Tendrils}) to your spellbook. You learn the @Compendium[pf2e.spells-srd.Call of the Grave]{Call of the Grave} school spell. </span></p>"
        },
        "featType": {
            "value": "classfeature"
        },
        "level": {
            "value": "1"
        },
        "prerequisites": {
            "value": ""
        },
        "rarity": {
            "value": "common"
        },
        "source": {
            "value": ""
        },
        "traits": {
            "custom": "",
            "value": [
                "wizard"
            ]
        },
        "usage": {
            "value": "held-in-one-hand"
        }
    },
    "flags": {},
    "img": "systems/pf2e/icons/features/classes/necromancy.jpg",
    "name": "Arcane School: Necromancy",
    "permission": {
        "default": 0
    },
    "type": "feat"
}