{
    "_id": "9SruVg2lZpNaYLOB",
    "data": {
        "actionCategory": {
            "value": ""
        },
        "actionType": {
            "value": "passive"
        },
        "actions": {
            "value": ""
        },
        "description": {
            "chat": "",
            "unidentified": "",
            "value": "<p><span id=\"ctl00_MainContent_DetailedOutput\">When taking advantage of an opening, you both hinder and harm your foe. You gain the @Compendium[pf2e.actionspf2e.Debilitating Strike]{Debilitating Strike} free action. </span></p>"
        },
        "featType": {
            "value": "classfeature"
        },
        "level": {
            "value": "9"
        },
        "prerequisites": {
            "value": ""
        },
        "rarity": {
            "value": "common"
        },
        "source": {
            "value": ""
        },
        "traits": {
            "custom": "",
            "rarity": {
                "value": "common"
            },
            "value": [
                "rogue"
            ]
        },
        "usage": {
            "value": "held-in-one-hand"
        }
    },
    "flags": {},
    "img": "systems/pf2e/icons/features/classes/debilitating-strikes.jpg",
    "name": "Debilitating Strikes",
    "permission": {
        "default": 0
    },
    "type": "feat"
}