{
    "_id": "Km2CaLUuRaxn79kH",
    "data": {
        "actionCategory": {
            "value": ""
        },
        "actionType": {
            "value": "passive"
        },
        "actions": {
            "value": ""
        },
        "description": {
            "chat": "",
            "unidentified": "",
            "value": "<p>Your unbelievable training grants you mental resiliency. Your proficiency rank for Will saves increases to legendary. When you roll a success at a Will save, you get a critical success. When you roll a critical failure at a Will save, you get a failure instead. When you roll a failure on a Will save against a damaging effect, you take half damage.</p>"
        },
        "featType": {
            "value": "classfeature"
        },
        "level": {
            "value": "17"
        },
        "prerequisites": {
            "value": ""
        },
        "rarity": {
            "value": "common"
        },
        "source": {
            "value": ""
        },
        "traits": {
            "custom": "",
            "rarity": {
                "value": "common"
            },
            "value": [
                "bard"
            ]
        },
        "usage": {
            "value": "held-in-one-hand"
        }
    },
    "flags": {},
    "img": "systems/pf2e/icons/features/classes/greater-resolve.jpg",
    "name": "Greater Resolve (Bard)",
    "permission": {
        "default": 0
    },
    "type": "feat"
}
