{
    "_id": "6v4Rj7wWfOH1882r",
    "data": {
        "actionCategory": {
            "value": ""
        },
        "actionType": {
            "value": "passive"
        },
        "actions": {
            "value": ""
        },
        "description": {
            "chat": "",
            "unidentified": "",
            "value": "<p><span id=\"ctl00_MainContent_DetailedOutput\">You have trained to unleash a devastating flurry of attacks upon your prey. Your multiple attack penalty for attacks against your hunted prey is -3 (-2 with an agile weapon) on your second attack of the turn instead of -5, and -6 (-4 with an agile weapon) on your third or subsequent attack of the turn, instead of -10.</span></p>\n<h2 class=\"title\">Masterful Hunter Upgrade<span style=\"float: right;\">Level 17</span></h2>\n<p>You can blend your weapon mastery with skillful targeting to make a series of precise attacks. If you have master proficiency with your weapon, your multiple attack penalty for attacks against your hunted prey is -2 (-1 with an agile weapon) on your second attack of the turn, and -4 (-2 with an agile weapon) on your third and subsequent attacks of the turn.</p>"
        },
        "featType": {
            "value": "classfeature"
        },
        "level": {
            "value": "1"
        },
        "prerequisites": {
            "value": ""
        },
        "rarity": {
            "value": "common"
        },
        "source": {
            "value": ""
        },
        "traits": {
            "custom": "",
            "value": [
                "ranger"
            ]
        },
        "usage": {
            "value": "held-in-one-hand"
        }
    },
    "flags": {},
    "img": "systems/pf2e/icons/features/classes/flurry.jpg",
    "name": "Hunter's Edge: Flurry",
    "permission": {
        "default": 0
    },
    "type": "feat"
}
