{
    "_id": "NBHyoTrI8q62uDsU",
    "data": {
        "actionCategory": {
            "value": ""
        },
        "actionType": {
            "value": "passive"
        },
        "actions": {
            "value": ""
        },
        "description": {
            "chat": "",
            "unidentified": "",
            "value": "<p><span id=\"ctl00_MainContent_DetailedOutput\">You are talented at outwitting and evading your prey. You gain a +2 circumstance bonus to Deception checks, Intimidation checks, Stealth checks, and any checks to Recall Knowledge about the prey, and a +1 circumstance bonus to AC against your prey's attacks.</span></p>\n<h2 class=\"title\">Masterful Hunter Upgrade<span style=\"float: right;\">Level 17</span></h2>\n<p>Your mastery of skills allows you to overwhelm your prey. If you have master proficiency in Deception, Intimidation, Stealth, or the skill you use to Recall Knowledge about your prey, increase the circumstance bonus against the prey with that skill from +2 to +4. If you have master proficiency with your armor, increase the circumstance bonus to AC against the prey from +1 to +2.</p>"
        },
        "featType": {
            "value": "classfeature"
        },
        "level": {
            "value": "1"
        },
        "prerequisites": {
            "value": ""
        },
        "rarity": {
            "value": "common"
        },
        "source": {
            "value": ""
        },
        "traits": {
            "custom": "",
            "value": [
                "ranger"
            ]
        },
        "usage": {
            "value": "held-in-one-hand"
        }
    },
    "flags": {},
    "img": "systems/pf2e/icons/features/classes/outwit.jpg",
    "name": "Hunter's Edge: Outwit",
    "permission": {
        "default": 0
    },
    "type": "feat"
}
