{
    "_id": "8QQxWTxbkae0fJCI",
    "data": {
        "actionCategory": {
            "value": ""
        },
        "actionType": {
            "value": "passive"
        },
        "actions": {
            "value": ""
        },
        "description": {
            "chat": "",
            "unidentified": "",
            "value": "<p><span id=\"ctl00_MainContent_DetailedOutput\">Your reflexes are lightning fast. Your proficiency rank for Reflex saves increases to expert. </span></p>"
        },
        "featType": {
            "value": "classfeature"
        },
        "level": {
            "value": "5"
        },
        "prerequisites": {
            "value": ""
        },
        "rarity": {
            "value": "common"
        },
        "source": {
            "value": ""
        },
        "traits": {
            "custom": "",
            "value": [
                "wizard"
            ]
        },
        "usage": {
            "value": "held-in-one-hand"
        }
    },
    "flags": {},
    "img": "systems/pf2e/icons/features/classes/lightning-reflexes.jpg",
    "name": "Lightning Reflexes (Wizard)",
    "permission": {
        "default": 0
    },
    "type": "feat"
}
