{
    "_id": "tvdb1jkjl2bRZjSp",
    "data": {
        "actionCategory": {
            "value": ""
        },
        "actionType": {
            "value": "passive"
        },
        "actions": {
            "value": ""
        },
        "description": {
            "chat": "",
            "unidentified": "",
            "value": "<p><span>You focus on bizarre mutagenic transformations that sacrifice one aspect of a creature's physical or psychological being in order to strengthen another. You start with the formulas for two 1st-level mutagens in your formula book, in addition to your other formulas.<br><br>You gain the following free action.</span></p>\n<h3 class=\"title\">@Compendium[pf2e.actionspf2e.Mutagenic Flashback]{Mutagenic Flashback}</h3>\n<p><strong>Frequency</strong> once per day</p>\n<hr>\n<p>You experience a brief resurgence of a mutagen. Choose one mutagen you've consumed since your last daily preparations. You gain the effects of that mutagen for 1 minute.</p>\n<h2 class=\"title\">Field Discovery<span style=\"float: right;\">Level 5</span></h2>\n<p>When using advanced alchemy to make mutagens during your daily preparations, you can use a batch of reagents to create any three mutagens instead of just two of the same mutagen.</p>\n<h2 class=\"title\">Perpetual Infusions<span style=\"float: right;\">Level 7</span></h2>\n<p>Choose two of the following formulas: @Compendium[pf2e.equipment-srd.Bestial Mutagen (Lesser)]{Bestial Mutagen (Lesser)}, </span>@Compendium[pf2e.equipment-srd.Cognitive Mutagen (Lesser)]{Cognitive Mutagen (Lesser)}, @Compendium[pf2e.equipment-srd.Juggernaut Mutagen (Lesser)]{Juggernaut Mutagen (Lesser)}, @Compendium[pf2e.equipment-srd.Quicksilver Mutagen (Lesser)]{Quicksilver Mutagen (Lesser)}, @Compendium[pf2e.equipment-srd.Serene Mutagen (Lesser)]{Serene Mutagen (Lesser)}, @Compendium[pf2e.equipment-srd.Silvertongue Mutagen (Lesser)]{Silvertongue Mutagen (Lesser)}.</p>\n<h2 class=\"title\">Perpetual Potency<span style=\"float: right;\">Level 11</span></h2>\n<p>The moderate versions of the mutagens you chose for perpetual infusions.</p>\n<h2 class=\"title\">Greater Field Discovery<span style=\"float: right;\">Level 13</span></h2>\n<p>If you imbibe another mutagen while you are under the effects of a mutagen that you created, you can gain the benefits and the drawbacks of both mutagens at once, despite the fact that they both have the polymorph trait and would not normally function together. If you come under the effects of any further mutagens while benefiting from two mutagens, you lose the benefit of one of the former mutagens of your choice, while retaining the drawbacks of all the mutagens. If you are under the effects of two mutagens and you come under the effect of a non-mutagen polymorph effect, you lose the benefits of the mutagens while retaining the drawbacks of both.</p>\n<h2 class=\"title\">Perpetual Perfection<span style=\"float: right;\">Level 17</span></h2>\n<p>The greater versions of the mutagens you chose for perpetual infusions.</p>"
        },
        "featType": {
            "value": "classfeature"
        },
        "level": {
            "value": "1"
        },
        "prerequisites": {
            "value": ""
        },
        "rarity": {
            "value": "common"
        },
        "source": {
            "value": ""
        },
        "traits": {
            "custom": "",
            "value": [
                "alchemist"
            ]
        },
        "usage": {
            "value": "held-in-one-hand"
        }
    },
    "flags": {},
    "img": "systems/pf2e/icons/features/classes/mutagenist.jpg",
    "name": "Mutagenist",
    "permission": {
        "default": 0
    },
    "type": "feat"
}
