{
    "_id": "j2R64kwUgEJ1TudD",
    "data": {
        "actionCategory": {
            "value": ""
        },
        "actionType": {
            "value": "passive"
        },
        "actions": {
            "value": ""
        },
        "description": {
            "chat": "",
            "unidentified": "",
            "value": "<p>You always find the weak points in your foes' defenses when they're on unfavorable terrain. Enemies are flat-footed to you if they're in natural difficult terrain or in difficult terrain resulting from a snare.</p>"
        },
        "featType": {
            "value": "classfeature"
        },
        "level": {
            "value": "9"
        },
        "prerequisites": {
            "value": ""
        },
        "rarity": {
            "value": "common"
        },
        "source": {
            "value": ""
        },
        "traits": {
            "custom": "",
            "value": [
                "ranger"
            ]
        },
        "usage": {
            "value": "held-in-one-hand"
        }
    },
    "flags": {},
    "img": "systems/pf2e/icons/features/classes/natures-end.jpg",
    "name": "Nature's Edge",
    "permission": {
        "default": 0
    },
    "type": "feat"
}
