{
    "_id": "mZFqRLYOQEqKA8ri",
    "data": {
        "actionCategory": {
            "value": ""
        },
        "actionType": {
            "value": "passive"
        },
        "actions": {
            "value": ""
        },
        "description": {
            "chat": "",
            "unidentified": "",
            "value": "<p><span id=\"ctl00_MainContent_DetailedOutput\">The moderate versions of the mutagens you chose for perpetual infusions. </span></p>"
        },
        "featType": {
            "value": "classfeature"
        },
        "level": {
            "value": "11"
        },
        "prerequisites": {
            "value": ""
        },
        "rarity": {
            "value": "common"
        },
        "source": {
            "value": ""
        },
        "traits": {
            "custom": "",
            "value": [
                "alchemist"
            ]
        },
        "usage": {
            "value": "held-in-one-hand"
        }
    },
    "flags": {},
    "img": "systems/pf2e/icons/features/classes/perpetual-potency-mutagenist.jpg",
    "name": "Perpetual Potency (Mutagenist)",
    "permission": {
        "default": 0
    },
    "type": "feat"
}
