{
    "_id": "Dug1oaVYejLmYEFt",
    "data": {
        "actionCategory": {
            "value": ""
        },
        "actionType": {
            "value": "passive"
        },
        "actions": {
            "value": ""
        },
        "description": {
            "chat": "",
            "unidentified": "",
            "value": "<p>Choose two of the following formulas: @Compendium[pf2e.equipment-srd.Bestial Mutagen (Lesser)]{Bestial Mutagen (Lesser)}, @Compendium[pf2e.equipment-srd.Cognitive Mutagen (Lesser)]{Cognitive Mutagen (Lesser)}, @Compendium[pf2e.equipment-srd.Juggernaut Mutagen (Lesser)]{Juggernaut Mutagen (Lesser)}, @Compendium[pf2e.equipment-srd.Quicksilver Mutagen (Lesser)]{Quicksilver Mutagen (Lesser)}, @Compendium[pf2e.equipment-srd.Serene Mutagen (Lesser)]{Serene Mutagen (Lesser)}, @Compendium[pf2e.equipment-srd.Silvertongue Mutagen (Lesser)]{Silvertongue Mutagen (Lesser)}</p>"
        },
        "featType": {
            "value": "classfeature"
        },
        "level": {
            "value": "7"
        },
        "prerequisites": {
            "value": ""
        },
        "rarity": {
            "value": "common"
        },
        "source": {
            "value": ""
        },
        "traits": {
            "custom": "",
            "value": [
                "alchemist"
            ]
        },
        "usage": {
            "value": "held-in-one-hand"
        }
    },
    "flags": {},
    "img": "systems/pf2e/icons/features/classes/perpetual-infusions-mutagenist.jpg",
    "name": "Perpetual Infusions (Mutagenist)",
    "permission": {
        "default": 0
    },
    "type": "feat"
}