{
    "_id": "fzvIe6FwwCuIdnjX",
    "data": {
        "actionCategory": {
            "value": ""
        },
        "actionType": {
            "value": "passive"
        },
        "actions": {
            "value": ""
        },
        "description": {
            "chat": "",
            "unidentified": "",
            "value": "<p>@Compendium[pf2e.equipment-srd.Antidote (Lesser)]{Lesser antidote} and @Compendium[pf2e.equipment-srd.Antiplague (Lesser)]{lesser antiplague}.</p>"
        },
        "featType": {
            "value": "classfeature"
        },
        "level": {
            "value": "7"
        },
        "prerequisites": {
            "value": ""
        },
        "rarity": {
            "value": "common"
        },
        "source": {
            "value": ""
        },
        "traits": {
            "custom": "",
            "value": [
                "alchemist"
            ]
        },
        "usage": {
            "value": "held-in-one-hand"
        }
    },
    "flags": {},
    "img": "systems/pf2e/icons/features/classes/perpetual-infusions-chirurgeon.jpg",
    "name": "Perpetual Infusions (Chirurgeon)",
    "permission": {
        "default": 0
    },
    "type": "feat"
}