{
    "_id": "DFQDtT1Van4fFEHi",
    "data": {
        "actionCategory": {
            "value": ""
        },
        "actionType": {
            "value": "passive"
        },
        "actions": {
            "value": ""
        },
        "description": {
            "chat": "",
            "unidentified": "",
            "value": "<p>Choose two of the following formulas: @Compendium[pf2e.equipment-srd.Acid Flask (Lesser)]{Acid Flask (Lesser)}, @Compendium[pf2e.equipment-srd.Alchemist's Fire (Lesser)]{Alchemist's Fire (Lesser)}, @Compendium[pf2e.equipment-srd.Bottled Lightning (Lesser)]{Bottled Lightning (Lesser)}, @Compendium[pf2e.equipment-srd.Frost Vial (Lesser)]{Frost Vial (Lesser)}, @Compendium[pf2e.equipment-srd.Tanglefoot Bag (Lesser)]{Tanglefoot Bag (Lesser)}, @Compendium[pf2e.equipment-srd.Thunderstone (Lesser)]{Thunderstone (Lesser)}.</p>"
        },
        "featType": {
            "value": "classfeature"
        },
        "level": {
            "value": "7"
        },
        "prerequisites": {
            "value": ""
        },
        "rarity": {
            "value": "common"
        },
        "source": {
            "value": ""
        },
        "traits": {
            "custom": "",
            "value": [
                "alchemist"
            ]
        },
        "usage": {
            "value": "held-in-one-hand"
        }
    },
    "flags": {},
    "img": "systems/pf2e/icons/features/classes/perpetual-infusions-bomber.jpg",
    "name": "Perpetual Infusions (Bomber)",
    "permission": {
        "default": 0
    },
    "type": "feat"
}