{
    "_id": "sPtl05wwTpqFI0lL",
    "data": {
        "actionCategory": {
            "value": ""
        },
        "actionType": {
            "value": "passive"
        },
        "actions": {
            "value": ""
        },
        "description": {
            "chat": "",
            "unidentified": "",
            "value": "<p><span id=\"ctl00_MainContent_DetailedOutput\">If you need a specific alchemical item on the fly, you can use your infused reagents to quickly create it with the @Compendium[pf2e.actionspf2e.Quick Alchemy]{Quick Alchemy} action.</span></p>"
        },
        "featType": {
            "value": "classfeature"
        },
        "level": {
            "value": "1"
        },
        "prerequisites": {
            "value": ""
        },
        "rarity": {
            "value": "common"
        },
        "source": {
            "value": ""
        },
        "traits": {
            "custom": "",
            "value": [
                "alchemist"
            ]
        },
        "usage": {
            "value": "held-in-one-hand"
        }
    },
    "flags": {},
    "img": "systems/pf2e/icons/features/classes/quick-alchemy.jpg",
    "name": "Quick Alchemy",
    "permission": {
        "default": 0
    },
    "type": "feat"
}