{
    "_id": "2Fe4YZCvAr9Yf6w7",
    "data": {
        "actionCategory": {
            "value": ""
        },
        "actionType": {
            "value": "passive"
        },
        "actions": {
            "value": ""
        },
        "description": {
            "chat": "",
            "unidentified": "",
            "value": "<p>When you strike carefully and with forethought, you deal a telling blow. When making a Strike that adds your Intelligence modifier on your attack roll due to @Compendium[pf2e.classfeatures.Devise a Stratagem]{Devising a Stratagem}, you deal an additional 1d6 precision damage.</p>\n<p>As your investigator level increases, so too does the deadliness of your strategic strike. Increase the number of dice by one at 5th, 9th, 13th, and 17th levels.</p>"
        },
        "featType": {
            "value": "classfeature"
        },
        "level": {
            "value": "1"
        },
        "prerequisites": {
            "value": ""
        },
        "rarity": {
            "value": "common"
        },
        "rules": [],
        "source": {
            "value": ""
        },
        "traits": {
            "custom": "",
            "rarity": {
                "value": "common"
            },
            "value": [
                "investigator"
            ]
        },
        "usage": {
            "value": "held-in-one-hand"
        }
    },
    "effects": [],
    "flags": {},
    "img": "systems/pf2e/icons/features/classes/strategic-strike.jpg",
    "name": "Strategic Strike",
    "permission": {
        "default": 0
    },
    "type": "feat"
}
