{
    "_id": "P9quO9XZi3OWFe1k",
    "data": {
        "actionCategory": {
            "value": ""
        },
        "actionType": {
            "value": "passive"
        },
        "actions": {
            "value": ""
        },
        "description": {
            "chat": "",
            "unidentified": "",
            "value": "<p><strong>Research Field (1st Level):</strong> You specialize in toxins and venoms of all types. You start with the formulas for two common 1st-level alchemical poisons in your formula book, in addition to your other formulas. You can apply an injury poison you're holding to a weapon you're wielding as a single action, rather than as a 2-action activity, and you can change the DCs of your infused poisons to your class DC if it's higher.</p>\n<p><strong>Field Discovery (5th Level):</strong> When using advanced alchemy to make poisons during your daily preparations, you can spend one batch of reagents to create three poisons in any combination, instead of just two of the same poison.</p>\n<p><strong>Perpetual Infusions (7th Level):</strong> Choose two common 1st-level alchemical poisons.</p>\n<p><strong>Perpetual Potency (11th Level):</strong> Choose two common 5th-level or lower alchemical poisons.</p>\n<p><strong>Greater Field Discovery (15th Level):</strong> You can apply two different injury poisons to the same weapon, though not to a piece of ammunition. The two poisons can be up to six levels lower than your level, and you can't use the poisons made without spending a batch of infused reagents via perpetual infusions. Applying the two poisons requires a separate action to apply each poison.</p>\n<p>Once completed, you combine the two poisons on the weapon into a double poison with the lower of the two poisons' DCs. This double poison is only virulent if both poisons were virulent, and if the poisons have a different number of stages, the double poison has a number of stages equal to the poison with the lower number of stages. The target takes the effects of both poisons for its current stage.</p>\n<p><strong>Perpetual Perfection (17th Level):</strong> Choose two common 11th-level or lower alchemical poisons.</p>"
        },
        "featType": {
            "value": "classfeature"
        },
        "level": {
            "value": "1"
        },
        "prerequisites": {
            "value": ""
        },
        "rarity": {
            "value": "common"
        },
        "rules": [],
        "source": {
            "value": ""
        },
        "traits": {
            "custom": "",
            "rarity": {
                "value": "common"
            },
            "value": [
                "alchemist"
            ]
        },
        "usage": {
            "value": "held-in-one-hand"
        }
    },
    "effects": [],
    "flags": {},
    "img": "systems/pf2e/icons/features/classes/toxicologist.jpg",
    "name": "Toxicologist",
    "permission": {
        "default": 0
    },
    "type": "feat"
}
