{
    "_id": "F5BHEav90oOJ2LwN",
    "data": {
        "actionCategory": {
            "value": ""
        },
        "actionType": {
            "value": "passive"
        },
        "actions": {
            "value": ""
        },
        "description": {
            "chat": "",
            "unidentified": "",
            "value": "<p>You've dedicated yourself to learning the intricacies of your weapons. Your proficiency ranks for simple weapons, martial weapons, and unarmed attacks increase to expert. You gain access to the critical specialization effects of all weapons for which you have expert proficiency.</p>"
        },
        "featType": {
            "value": "classfeature"
        },
        "level": {
            "value": "5"
        },
        "prerequisites": {
            "value": ""
        },
        "rarity": {
            "value": "common"
        },
        "source": {
            "value": ""
        },
        "traits": {
            "custom": "",
            "rarity": {
                "value": "common"
            },
            "value": [
                "swashbuckler"
            ]
        },
        "usage": {
            "value": "held-in-one-hand"
        }
    },
    "flags": {},
    "img": "systems/pf2e/icons/features/classes/weapon-expertise.jpg",
    "name": "Weapon Expertise (Swashbuckler)",
    "permission": {
        "default": 0
    },
    "type": "feat"
}
