{
    "_id": "qf12ubZ07Q0z0NcN",
    "data": {
        "actionCategory": {
            "value": ""
        },
        "actionType": {
            "value": "passive"
        },
        "actions": {
            "value": ""
        },
        "description": {
            "chat": "",
            "unidentified": "",
            "value": "<p>The wild places of the world feel the touch of your patron.</p>\n<p><strong>Spell List</strong> primal</p>\n<p><strong>Patron Skill</strong> Nature</p>\n<p><strong>Hex Cantrip</strong> @Compendium[pf2e.spells-srd.Clinging Ice]{Clinging Ice}</p>\n<p><strong>Granted Spell</strong> @Compendium[pf2e.spells-srd.Gust of Wind]{Gust of Wind}</p>"
        },
        "featType": {
            "value": "classfeature"
        },
        "level": {
            "value": "1"
        },
        "prerequisites": {
            "value": ""
        },
        "rarity": {
            "value": "common"
        },
        "rules": [],
        "source": {
            "value": ""
        },
        "traits": {
            "custom": "",
            "rarity": {
                "value": "common"
            },
            "value": [
                "witch"
            ]
        },
        "usage": {
            "value": "held-in-one-hand"
        }
    },
    "effects": [],
    "flags": {},
    "img": "systems/pf2e/icons/features/classes/winter-patron.jpg",
    "name": "Winter Patron",
    "permission": {
        "default": 0
    },
    "type": "feat"
}