{
    "_id": "crF4g9jRN1y84MSD",
    "data": {
        "ability": {
            "label": "Spellcasting Ability",
            "type": "String",
            "value": ""
        },
        "area": {
            "areaType": "cone",
            "label": "Area",
            "type": "String",
            "value": 60
        },
        "areasize": {
            "value": "60-foot cone"
        },
        "components": {
            "label": "Spell Components",
            "type": "String",
            "value": "somatic, verbal"
        },
        "cost": {
            "label": "Cost",
            "type": "String",
            "value": ""
        },
        "damage": {
            "applyMod": false,
            "label": "Spell Damage",
            "type": "String",
            "value": "4d6"
        },
        "damageType": {
            "label": "Damage Type",
            "type": "String",
            "value": ""
        },
        "description": {
            "chat": "",
            "label": "Description",
            "type": "String",
            "unidentified": "",
            "value": "<p>You evoke the energy of an Abyssal realm. The damage types of the spell (one energy and one physical) are based on the result of rolling on the table below.</p>\n<h2>Abyssal Wrath</h2>\n<table style=\"user-select: text; width: 367px; color: #191813; font-size: 13px; height: 87px;\" border=\"1\">\n<tbody style=\"box-sizing: border-box; user-select: text;\">\n<tr style=\"box-sizing: border-box; user-select: text; height: 17px;\">\n<td style=\"box-sizing: border-box; user-select: text; color: white; height: 17px; width: 42px; text-align: center; background-color: #522e2c;\"><strong style=\"box-sizing: border-box; user-select: text;\">1D4</strong></td>\n<td style=\"box-sizing: border-box; user-select: text; color: white; width: 75px; text-align: center; background-color: #522e2c; height: 17px;\"><strong style=\"box-sizing: border-box; user-select: text;\">Realm</strong> </td>\n<td style=\"box-sizing: border-box; user-select: text; color: white; width: 139px; text-align: center; background-color: #522e2c; height: 17px;\"><strong style=\"box-sizing: border-box; user-select: text;\">Manifistation</strong></td>\n<td style=\"box-sizing: border-box; user-select: text; color: white; width: 110px; text-align: center; background-color: #522e2c; height: 17px;\"><strong style=\"box-sizing: border-box; user-select: text;\">Damage and type</strong></td>\n</tr>\n<tr style=\"box-sizing: border-box; user-select: text; height: 17px;\">\n<td style=\"box-sizing: border-box; user-select: text; height: 17px; width: 42px; text-align: center; background-color: #f6f1e1;\">1</td>\n<td style=\"box-sizing: border-box; user-select: text; width: 75px; text-align: center; background-color: #f6f1e1; height: 17px;\"><span  style=\"box-sizing: border-box; user-select: text; display: block;\">Skies</span></td>\n<td style=\"box-sizing: border-box; user-select: text; width: 139px; text-align: center; background-color: #f6f1e1; height: 17px;\">Bolts and lightning and flying debris</td>\n<td style=\"box-sizing: border-box; user-select: text; width: 110px; text-align: center; background-color: #f6f1e1; height: 17px;\">Bludgeoning and electricity</td>\n</tr>\n<tr style=\"box-sizing: border-box; user-select: text; height: 17px;\">\n<td style=\"box-sizing: border-box; user-select: text; height: 17px; width: 42px; text-align: center; background-color: #eee5c8;\">2</td>\n<td style=\"box-sizing: border-box; user-select: text; width: 75px; text-align: center; background-color: #eee5c8; height: 17px;\">Depths<span  style=\"box-sizing: border-box; user-select: text; display: block;\"></span></td>\n<td style=\"box-sizing: border-box; user-select: text; width: 139px; text-align: center; background-color: #eee5c8; height: 17px;\">Acid and demonic shells</td>\n<td style=\"box-sizing: border-box; user-select: text; width: 110px; text-align: center; background-color: #eee5c8; height: 17px;\">Acid and slashing</td>\n</tr>\n<tr style=\"box-sizing: border-box; user-select: text; height: 17px;\">\n<td style=\"box-sizing: border-box; user-select: text; height: 17px; width: 42px; text-align: center; background-color: #f6f1e1;\">3</td>\n<td style=\"box-sizing: border-box; user-select: text; width: 75px; text-align: center; background-color: #f6f1e1; height: 17px;\"><span  style=\"box-sizing: border-box; user-select: text; display: block;\">Frozen</span></td>\n<td style=\"box-sizing: border-box; user-select: text; width: 139px; text-align: center; background-color: #f6f1e1; height: 17px;\">Frigid air and ice</td>\n<td style=\"box-sizing: border-box; user-select: text; width: 110px; text-align: center; background-color: #f6f1e1; height: 17px;\">Bludgeoning and cold</td>\n</tr>\n<tr style=\"box-sizing: border-box; user-select: text; height: 19px;\">\n<td style=\"box-sizing: border-box; user-select: text; height: 19px; width: 42px; text-align: center; background-color: #eee5c8;\">4</td>\n<td style=\"box-sizing: border-box; user-select: text; width: 75px; text-align: center; background-color: #eee5c8; height: 19px;\"><span  style=\"box-sizing: border-box; user-select: text; display: block;\">Volcanic</span></td>\n<td style=\"box-sizing: border-box; user-select: text; width: 139px; text-align: center; background-color: #eee5c8; height: 19px;\">Jagged volcanic rocks and magma</td>\n<td style=\"box-sizing: border-box; user-select: text; width: 110px; text-align: center; background-color: #eee5c8; height: 19px;\">Fire and piercing</td>\n</tr>\n</tbody>\n</table>\n<p><span>You deal 4d6 damage of each of the corresponding damage types to each creature in the cone (8d6 total damage).</span></p>\n<hr />\n<p><span><strong>Heightened (+1)</strong> The damage for each type increases by 1d6.</span></p>"
        },
        "duration": {
            "label": "Duration",
            "type": "String",
            "value": ""
        },
        "level": {
            "label": "Spell Level",
            "type": "Number",
            "value": 5
        },
        "location": {
            "label": "Spellcasting Entry Location",
            "type": "String",
            "value": ""
        },
        "materials": {
            "label": "Materials",
            "type": "String",
            "value": ""
        },
        "prepared": {
            "label": "Prepared Spell",
            "type": "String",
            "value": ""
        },
        "primarycheck": {
            "value": ""
        },
        "range": {
            "label": "Range",
            "type": "String",
            "value": ""
        },
        "rarity": {
            "value": "common"
        },
        "rules": [],
        "save": {
            "basic": "basic",
            "label": "Saving Throw",
            "type": "String",
            "value": "reflex"
        },
        "scaling": {
            "formula": "1d6",
            "mode": "level1"
        },
        "school": {
            "label": "Spell School",
            "type": "String",
            "value": "evo"
        },
        "secondarycasters": {
            "value": ""
        },
        "secondarycheck": {
            "value": ""
        },
        "source": {
            "label": "Source",
            "type": "String",
            "value": "https://2e.aonprd.com/Spells.aspx?ID=492"
        },
        "spellCategorie": {
            "value": "focus"
        },
        "spellCategory": {
            "value": ""
        },
        "spellType": {
            "label": "Spell Type",
            "type": "String",
            "value": "save"
        },
        "sustained": {
            "label": "Can be Sustained",
            "type": "Boolean",
            "value": false
        },
        "target": {
            "label": "Target",
            "type": "String",
            "value": ""
        },
        "time": {
            "label": "Casting Time",
            "type": "String",
            "value": "2"
        },
        "traditions": {
            "label": "Spell Traditions",
            "type": "String",
            "value": [
                "focus"
            ]
        },
        "traits": {
            "custom": "",
            "label": "Spell Traits",
            "rarity": {
                "value": "uncommon"
            },
            "type": "String",
            "value": [
                "uncommon",
                "evocation",
                "sorcerer"
            ]
        },
        "usage": {
            "value": "held-in-one-hand"
        }
    },
    "effects": [],
    "flags": {},
    "img": "systems/pf2e/icons/spells/abyssal-wrath.jpg",
    "name": "Abyssal Wrath",
    "permission": {
        "default": 0
    },
    "type": "spell"
}
