{
    "_id": "nplNt08TvokZUxtR",
    "data": {
        "ability": {
            "value": ""
        },
        "area": {
            "value": ""
        },
        "areasize": {
            "value": ""
        },
        "components": {
            "value": "verbal, somatic"
        },
        "cost": {
            "value": ""
        },
        "damage": {
            "applyMod": false,
            "value": "4d6"
        },
        "damageType": {
            "value": "mental"
        },
        "description": {
            "chat": "",
            "unidentified": "",
            "value": "<p>Your target's mind tumbles down a deep well of dread, dwelling so intently on deep-seated fears that it's painful. The target takes [[/r 4d6 #mental]] mental damage with a Will saving throw.</p>\n<hr />\n<p><strong>Critical Success</strong>: The target is unaffected.</p>\n<p><strong>Success</strong>: The target takes half damage and becomes @Compendium[pf2e.conditionitems.Frightened]{Frightened} 1.</p>\n<p><strong>Failure</strong>: The target takes full damage and becomes Frightened 2.</p>\n<p><strong>Critical Failure</strong>: The target takes double damage and becomes Frightened 3.</p>\n<hr />\n<p><strong>Heightened (+1)</strong>: Increase the damage by [[/r 2d6 #mental]].</p>"
        },
        "duration": {
            "value": ""
        },
        "level": {
            "value": 3
        },
        "location": {
            "value": ""
        },
        "materials": {
            "value": ""
        },
        "prepared": {
            "value": false
        },
        "primarycheck": {
            "value": ""
        },
        "range": {
            "value": "60 feet"
        },
        "rarity": {
            "value": "common"
        },
        "rules": [],
        "save": {
            "basic": "",
            "label": "Saving Throw",
            "type": "String",
            "value": "will"
        },
        "scaling": {
            "formula": "2d6",
            "mode": "level1"
        },
        "school": {
            "value": "enc"
        },
        "secondarycasters": {
            "value": ""
        },
        "secondarycheck": {
            "value": ""
        },
        "source": {
            "label": "Source",
            "type": "String",
            "value": "https://2e.aonprd.com/Spells.aspx?ID=665"
        },
        "spellCategorie": {
            "value": "spell"
        },
        "spellCategory": {
            "value": ""
        },
        "spellType": {
            "label": "Spell Type",
            "type": "String",
            "value": "save"
        },
        "sustained": {
            "value": false
        },
        "target": {
            "value": "1 creature"
        },
        "time": {
            "label": "Casting Time",
            "type": "String",
            "value": "2"
        },
        "traditions": {
            "custom": "",
            "value": [
                "arcane",
                "divine",
                "occult"
            ]
        },
        "traits": {
            "custom": "",
            "rarity": {
                "value": "common"
            },
            "value": [
                "emotion",
                "enchantment",
                "fear",
                "mental"
            ]
        },
        "usage": {
            "value": ""
        }
    },
    "effects": [],
    "flags": {},
    "img": "systems/pf2e/icons/spells/agonizing-despair.jpg",
    "name": "Agonizing Despair",
    "permission": {
        "default": 0
    },
    "type": "spell"
}