{
    "_id": "sRfSBHWHdbIa0aGc",
    "data": {
        "ability": {
            "label": "Spellcasting Ability",
            "type": "String",
            "value": ""
        },
        "area": {
            "areaType": "",
            "label": "Area",
            "type": "String",
            "value": null
        },
        "areasize": {
            "value": ""
        },
        "components": {
            "label": "Spell Components",
            "type": "String",
            "value": "somatic, verbal"
        },
        "cost": {
            "label": "Cost",
            "type": "String",
            "value": ""
        },
        "damage": {
            "applyMod": false,
            "label": "Spell Damage",
            "type": "String",
            "value": "5d6"
        },
        "damageType": {
            "label": "Damage Type",
            "type": "String",
            "value": "cold"
        },
        "description": {
            "chat": "",
            "label": "Description",
            "type": "String",
            "unidentified": "",
            "value": "<p>You shoot an utterly cold ray of darkness tinged with unholy energy. Make a ranged spell attack against the target. You deal 5d6 cold damage, plus 5d6 evil damage if the target is a celestial.</p>\n<p>If the ray passes through an area of magical light or targets a creature affected by magical light, chilling darkness attempts to counteract the light. If you need to determine whether the ray passes through an area of light, draw a line between yourself and the spell's target.</p>\n<hr>\n<p><strong>Critical Success</strong> The target takes double damage.</p>\n<p><strong>Success</strong> The target takes full damage.</p>\n<hr>\n<p><strong>Heightened (+1)</strong> The cold damage increases by 2d6, and the evil damage against celestials increases by 2d6.</p>"
        },
        "duration": {
            "label": "Duration",
            "type": "String",
            "value": ""
        },
        "level": {
            "label": "Spell Level",
            "type": "Number",
            "value": 3
        },
        "location": {
            "label": "Spellcasting Entry Location",
            "type": "String",
            "value": ""
        },
        "materials": {
            "label": "Materials",
            "type": "String",
            "value": ""
        },
        "prepared": {
            "label": "Prepared Spell",
            "type": "String",
            "value": ""
        },
        "primarycheck": {
            "value": ""
        },
        "range": {
            "label": "Range",
            "type": "String",
            "value": "120 feet"
        },
        "rarity": {
            "value": "common"
        },
        "rules": [],
        "save": {
            "basic": "",
            "label": "Saving Throw",
            "type": "String",
            "value": ""
        },
        "scaling": {
            "formula": "2d6",
            "mode": "level1"
        },
        "school": {
            "label": "Spell School",
            "type": "String",
            "value": "evo"
        },
        "secondarycasters": {
            "value": ""
        },
        "secondarycheck": {
            "value": ""
        },
        "source": {
            "label": "Source",
            "type": "String",
            "value": "https://2e.aonprd.com/Spells.aspx?ID=36"
        },
        "spellCategorie": {
            "value": "spell"
        },
        "spellCategory": {
            "value": ""
        },
        "spellType": {
            "label": "Spell Type",
            "type": "String",
            "value": "attack"
        },
        "sustained": {
            "label": "Can be Sustained",
            "type": "Boolean",
            "value": false
        },
        "target": {
            "label": "Target",
            "type": "String",
            "value": "1 creature"
        },
        "time": {
            "label": "Casting Time",
            "type": "String",
            "value": "2"
        },
        "traditions": {
            "label": "Spell Traditions",
            "type": "String",
            "value": [
                "divine"
            ]
        },
        "traits": {
            "label": "Spell Traits",
            "rarity": {
                "value": "common"
            },
            "type": "String",
            "value": [
                "attack",
                "cold",
                "darkness",
                "evil",
                "evocation"
            ]
        },
        "usage": {
            "value": "held-in-one-hand"
        }
    },
    "effects": [],
    "flags": {},
    "img": "systems/pf2e/icons/spells/chilling-darkness.jpg",
    "name": "Chilling Darkness",
    "permission": {
        "default": 0
    },
    "type": "spell"
}
