{
    "_id": "HMTloW1hvRFJ5Z2D",
    "data": {
        "ability": {
            "value": ""
        },
        "area": {
            "value": ""
        },
        "areasize": {
            "value": "10-foot emanation"
        },
        "components": {
            "value": "somatic, verbal"
        },
        "cost": {
            "value": ""
        },
        "damage": {
            "applyMod": false,
            "value": "2d6"
        },
        "damageType": {
            "value": "negative"
        },
        "description": {
            "chat": "",
            "unidentified": "",
            "value": "<p>Your shadow wriggles before spreading out from you, forming a gateway of clinging, consuming shadow through which the horrors of another plane can barely be seen. The first time each turn you @Compendium[pf2e.actionspf2e.Sustain a Spell]{Sustain the Spell}, the radius increases by 5 feet. Each enemy that enters the area or begins its turn in the area takes [[/r 2d6 #negative]] negative damage and must attempt a Reflex save.</p>\n<hr>\n<p><strong>Critical Success</strong> The creature is unaffected.</p>\n<p><strong>Success</strong> The creature sinks partially into the shadow, taking half damage and a -5-foot circumstance penalty to its Speeds for as long it remains in the area.</p>\n<p><strong>Failure</strong> As success, but the creature takes full damage and a 10-foot circumstance penalty.</p>\n<p><strong>Critical Failure</strong> The creature is absorbed into the shadows, where it can be seen below the surface; it takes double damage and is @Compendium[pf2e.conditionitems.Immobilized]{Immobilized} for 1 round or until it @Compendium[pf2e.actionspf2e.Escape]{Escapes}.</p>\n<hr>\n<p><strong>Heightened (+1)</strong> The damage increases by [[/r 1d6 #negative]].</p>"
        },
        "duration": {
            "value": "sustained up to 1 minute"
        },
        "level": {
            "value": 5
        },
        "location": {
            "value": ""
        },
        "materials": {
            "value": ""
        },
        "prepared": {
            "value": ""
        },
        "primarycheck": {
            "value": ""
        },
        "range": {
            "value": ""
        },
        "rarity": {
            "value": "common"
        },
        "rules": [],
        "save": {
            "basic": "",
            "value": "reflex"
        },
        "scaling": {
            "formula": "1d6",
            "mode": "level1"
        },
        "school": {
            "value": "evo"
        },
        "secondarycasters": {
            "value": ""
        },
        "secondarycheck": {
            "value": ""
        },
        "source": {
            "value": ""
        },
        "spellCategorie": {
            "value": "focus"
        },
        "spellCategory": {
            "value": ""
        },
        "spellType": {
            "value": "save"
        },
        "sustained": {
            "value": false
        },
        "target": {
            "value": "enemies in the area"
        },
        "time": {
            "value": "2"
        },
        "traditions": {
            "value": []
        },
        "traits": {
            "custom": "",
            "rarity": {
                "value": "common"
            },
            "value": [
                "evocation",
                "shadow",
                "sorcerer"
            ]
        },
        "usage": {
            "value": "held-in-one-hand"
        }
    },
    "effects": [],
    "flags": {},
    "img": "systems/pf2e/icons/spells/consuming-darkness.jpg",
    "name": "Consuming Darkness",
    "permission": {
        "default": 0
    },
    "type": "spell"
}