{
    "_id": "c3b6LdLlQDPngNIb",
    "data": {
        "ability": {
            "value": ""
        },
        "area": {
            "areaType": "",
            "value": null
        },
        "areasize": {
            "value": ""
        },
        "components": {
            "value": ""
        },
        "cost": {
            "value": "black onyx, see Table 7-1"
        },
        "damage": {
            "applyMod": false,
            "value": ""
        },
        "damageType": {
            "value": ""
        },
        "description": {
            "chat": "",
            "unidentified": "",
            "value": "<p><span>You transform the target into an undead creature with a level up to that allowed in Table 7-1. There are many versions of this ritual, each specific to a particular type of undead (one ritual for all zombies, one for skeletons, one for ghouls, and so on), and the rituals that create rare undead are also rare. Some forms of undead, such as liches, form using their own unique methods and can't be created with a version of <em>create undead</em>. </span></p>\n<h2>Table 7-1: Creatures Creation Rituals</h2>\n<table style=\"width: 379px; user-select: text; color: #191813; font-size: 13px; height: 353px;\" border=\"1\">\n<tbody style=\"box-sizing: border-box; user-select: text;\">\n<tr style=\"box-sizing: border-box; user-select: text; height: 25px;\">\n<td style=\"box-sizing: border-box; user-select: text; color: white; height: 17px; width: 103px; text-align: center; background-color: #522e2c;\"><span><strong>Creature Level</strong></span></td>\n<td style=\"box-sizing: border-box; user-select: text; color: white; width: 165px; text-align: center; background-color: #522e2c; height: 17px;\"><span><strong>Spell Level Required</strong></span></td>\n<td style=\"box-sizing: border-box; user-select: text; color: white; width: 110px; text-align: center; background-color: #522e2c; height: 17px;\"><strong style=\"box-sizing: border-box; user-select: text;\">Cost</strong></td>\n</tr>\n<tr style=\"box-sizing: border-box; user-select: text; height: 17px;\">\n<td style=\"box-sizing: border-box; user-select: text; height: 17px; width: 103px; text-align: center; background-color: #f6f1e1;\"><span>-1 or 0</span></td>\n<td style=\"box-sizing: border-box; user-select: text; width: 165px; text-align: center; background-color: #f6f1e1; height: 17px;\"><span  style=\"box-sizing: border-box; user-select: text; display: block;\">2</span></td>\n<td style=\"box-sizing: border-box; user-select: text; width: 110px; text-align: center; background-color: #f6f1e1; height: 17px;\"><span>15 gp</span></td>\n</tr>\n<tr style=\"box-sizing: border-box; user-select: text; height: 17px;\">\n<td style=\"box-sizing: border-box; user-select: text; height: 17px; width: 103px; text-align: center; background-color: #eee5c8;\"><span>1</span></td>\n<td style=\"box-sizing: border-box; user-select: text; width: 165px; text-align: center; background-color: #eee5c8; height: 17px;\">2<span  style=\"box-sizing: border-box; user-select: text; display: block;\"></span></td>\n<td style=\"box-sizing: border-box; user-select: text; width: 110px; text-align: center; background-color: #eee5c8; height: 17px;\"><span>60 gp</span></td>\n</tr>\n<tr style=\"box-sizing: border-box; user-select: text; height: 17px;\">\n<td style=\"box-sizing: border-box; user-select: text; height: 17px; width: 103px; text-align: center; background-color: #f6f1e1;\">2</td>\n<td style=\"box-sizing: border-box; user-select: text; width: 165px; text-align: center; background-color: #f6f1e1; height: 17px;\"><span  style=\"box-sizing: border-box; user-select: text; display: block;\">3</span></td>\n<td style=\"box-sizing: border-box; user-select: text; width: 110px; text-align: center; background-color: #f6f1e1; height: 17px;\"><span>105 gp</span></td>\n</tr>\n<tr style=\"box-sizing: border-box; user-select: text; height: 19px;\">\n<td style=\"box-sizing: border-box; user-select: text; height: 19px; width: 103px; text-align: center; background-color: #eee5c8;\">3</td>\n<td style=\"box-sizing: border-box; user-select: text; width: 165px; text-align: center; background-color: #eee5c8; height: 19px;\"><span  style=\"box-sizing: border-box; user-select: text; display: block;\">3</span></td>\n<td style=\"box-sizing: border-box; user-select: text; width: 110px; text-align: center; background-color: #eee5c8; height: 19px;\"><span>180 gp</span></td>\n</tr>\n<tr style=\"height: 19px; background-color: #f6f1e1;\">\n<td style=\"box-sizing: border-box; user-select: text; width: 103px; text-align: center; background-color: #f6f1e1; height: 19px;\">4</td>\n<td style=\"box-sizing: border-box; user-select: text; width: 165px; text-align: center; background-color: #f6f1e1; height: 19px;\"><span  style=\"box-sizing: border-box; user-select: text; display: block;\">4</span></td>\n<td style=\"box-sizing: border-box; user-select: text; width: 110px; text-align: center; background-color: #f6f1e1; height: 19px;\"><span>300 gp</span></td>\n</tr>\n<tr style=\"height: 19px;\">\n<td style=\"box-sizing: border-box; user-select: text; width: 103px; text-align: center; background-color: #eee5c8; height: 19px;\">5</td>\n<td style=\"box-sizing: border-box; user-select: text; width: 165px; text-align: center; background-color: #eee5c8; height: 19px;\"><span  style=\"box-sizing: border-box; user-select: text; display: block;\">4</span></td>\n<td style=\"box-sizing: border-box; user-select: text; width: 110px; text-align: center; background-color: #eee5c8; height: 19px;\"><span>480 gp</span></td>\n</tr>\n<tr style=\"height: 19px; background-color: #f6f1e1;\">\n<td style=\"box-sizing: border-box; user-select: text; width: 103px; text-align: center; background-color: #f6f1e1; height: 19px;\">6</td>\n<td style=\"box-sizing: border-box; user-select: text; width: 165px; text-align: center; background-color: #f6f1e1; height: 19px;\"><span  style=\"box-sizing: border-box; user-select: text; display: block;\">5</span></td>\n<td style=\"box-sizing: border-box; user-select: text; width: 110px; text-align: center; background-color: #f6f1e1; height: 19px;\"><span>750 gp</span></td>\n</tr>\n<tr style=\"height: 19px;\">\n<td style=\"box-sizing: border-box; user-select: text; width: 103px; text-align: center; background-color: #eee5c8; height: 19px;\">7</td>\n<td style=\"box-sizing: border-box; user-select: text; width: 165px; text-align: center; background-color: #eee5c8; height: 19px;\"><span  style=\"box-sizing: border-box; user-select: text; display: block;\">5</span></td>\n<td style=\"box-sizing: border-box; user-select: text; width: 110px; text-align: center; background-color: #eee5c8; height: 19px;\"><span>1,080 gp</span></td>\n</tr>\n<tr style=\"height: 19px;\">\n<td style=\"box-sizing: border-box; user-select: text; width: 103px; text-align: center; background-color: #f6f1e1; height: 19px;\">8</td>\n<td style=\"box-sizing: border-box; user-select: text; width: 165px; text-align: center; background-color: #f6f1e1; height: 19px;\"><span  style=\"box-sizing: border-box; user-select: text; display: block;\">6</span></td>\n<td style=\"box-sizing: border-box; user-select: text; width: 110px; text-align: center; background-color: #f6f1e1; height: 19px;\"><span>1,500 gp</span></td>\n</tr>\n<tr style=\"height: 19px;\">\n<td style=\"box-sizing: border-box; user-select: text; width: 103px; text-align: center; background-color: #eee5c8; height: 19px;\">9</td>\n<td style=\"box-sizing: border-box; user-select: text; width: 165px; text-align: center; background-color: #eee5c8; height: 19px;\"><span  style=\"box-sizing: border-box; user-select: text; display: block;\">6</span></td>\n<td style=\"box-sizing: border-box; user-select: text; width: 110px; text-align: center; background-color: #eee5c8; height: 19px;\"><span>2,100 gp</span></td>\n</tr>\n<tr style=\"height: 19px;\">\n<td style=\"box-sizing: border-box; user-select: text; width: 103px; text-align: center; background-color: #f6f1e1; height: 19px;\">10</td>\n<td style=\"box-sizing: border-box; user-select: text; width: 165px; text-align: center; background-color: #f6f1e1; height: 19px;\"><span  style=\"box-sizing: border-box; user-select: text; display: block;\">7</span></td>\n<td style=\"box-sizing: border-box; user-select: text; width: 110px; text-align: center; background-color: #f6f1e1; height: 19px;\"><span>3,000 gp</span></td>\n</tr>\n<tr style=\"height: 19px;\">\n<td style=\"box-sizing: border-box; user-select: text; width: 103px; text-align: center; background-color: #eee5c8; height: 19px;\">11</td>\n<td style=\"box-sizing: border-box; user-select: text; width: 165px; text-align: center; background-color: #eee5c8; height: 19px;\"><span  style=\"box-sizing: border-box; user-select: text; display: block;\">7</span></td>\n<td style=\"box-sizing: border-box; user-select: text; width: 110px; text-align: center; background-color: #eee5c8; height: 19px;\"><span>4,200 gp</span></td>\n</tr>\n<tr style=\"height: 19px;\">\n<td style=\"box-sizing: border-box; user-select: text; width: 103px; text-align: center; background-color: #f6f1e1; height: 19px;\">12</td>\n<td style=\"box-sizing: border-box; user-select: text; width: 165px; text-align: center; background-color: #f6f1e1; height: 19px;\"><span  style=\"box-sizing: border-box; user-select: text; display: block;\">8</span></td>\n<td style=\"box-sizing: border-box; user-select: text; width: 110px; text-align: center; background-color: #f6f1e1; height: 19px;\"><span>6,000 gp</span></td>\n</tr>\n<tr style=\"height: 19px;\">\n<td style=\"box-sizing: border-box; user-select: text; width: 103px; text-align: center; background-color: #eee5c8; height: 19px;\">13</td>\n<td style=\"box-sizing: border-box; user-select: text; width: 165px; text-align: center; background-color: #eee5c8; height: 19px;\"><span  style=\"box-sizing: border-box; user-select: text; display: block;\">8</span></td>\n<td style=\"box-sizing: border-box; user-select: text; width: 110px; text-align: center; background-color: #eee5c8; height: 19px;\"><span>9,000 gp</span></td>\n</tr>\n<tr style=\"height: 19px;\">\n<td style=\"box-sizing: border-box; user-select: text; width: 103px; text-align: center; background-color: #f6f1e1; height: 19px;\">14</td>\n<td style=\"box-sizing: border-box; user-select: text; width: 165px; text-align: center; background-color: #f6f1e1; height: 19px;\"><span  style=\"box-sizing: border-box; user-select: text; display: block;\">9</span></td>\n<td style=\"box-sizing: border-box; user-select: text; width: 110px; text-align: center; background-color: #f6f1e1; height: 19px;\"><span>13,500 gp</span></td>\n</tr>\n<tr style=\"height: 19px;\">\n<td style=\"box-sizing: border-box; user-select: text; width: 103px; text-align: center; background-color: #eee5c8; height: 19px;\">15</td>\n<td style=\"box-sizing: border-box; user-select: text; width: 165px; text-align: center; background-color: #eee5c8; height: 19px;\"><span  style=\"box-sizing: border-box; user-select: text; display: block;\">9</span></td>\n<td style=\"box-sizing: border-box; user-select: text; width: 110px; text-align: center; background-color: #eee5c8; height: 19px;\"><span>19,500 gp</span></td>\n</tr>\n<tr style=\"height: 19px;\">\n<td style=\"box-sizing: border-box; user-select: text; width: 103px; text-align: center; background-color: #f6f1e1; height: 19px;\">16</td>\n<td style=\"box-sizing: border-box; user-select: text; width: 165px; text-align: center; background-color: #f6f1e1; height: 19px;\"><span  style=\"box-sizing: border-box; user-select: text; display: block;\">10</span></td>\n<td style=\"box-sizing: border-box; user-select: text; width: 110px; text-align: center; background-color: #f6f1e1; height: 19px;\"><span>30,000 gp</span></td>\n</tr>\n<tr style=\"height: 19px;\">\n<td style=\"box-sizing: border-box; user-select: text; width: 103px; text-align: center; background-color: #eee5c8; height: 19px;\">17</td>\n<td style=\"box-sizing: border-box; user-select: text; width: 165px; text-align: center; background-color: #eee5c8; height: 19px;\"><span  style=\"box-sizing: border-box; user-select: text; display: block;\">10</span></td>\n<td style=\"box-sizing: border-box; user-select: text; width: 110px; text-align: center; background-color: #eee5c8; height: 19px;\"><span>45,000 gp</span></td>\n</tr>\n</tbody>\n</table>\n<p><span><span><strong>Critical Success</strong> The target becomes an undead creature of the appropriate type. If it's at least 4 levels lower than you, you can make it a minion. This gives it the minion trait, meaning it can use 2 actions when you command it, and commanding it is a single action that has the auditory and concentrate traits. You can have a maximum of four minions under your control. If it's intelligent and doesn't become a minion, the undead is helpful to you for awakening it, though it's still a horrid and evil creature. If it's unintelligent and doesn't become a minion, you can give it one simple command. It pursues that goal single-mindedly, ignoring any of your subsequent commands.</span></span></p>\n<p><span><span><strong>Success</strong> As critical success, except an intelligent undead that doesn't become your minion is only friendly to you, and an unintelligent undead that doesn't become your minion leaves you alone unless you attack it. It marauds the local area rather than following your command.</span></span></p>\n<p><span><span><strong>Failure</strong> You fail to create the undead.</span></span></p>\n<p><span><span><strong>Critical Failure</strong> You create the undead, but its soul, tortured by your foul necromancy, is full of nothing but hatred for you. It attempts to destroy you.</span><br /></span></p>"
        },
        "duration": {
            "value": ""
        },
        "level": {
            "value": 2
        },
        "location": {
            "value": ""
        },
        "materials": {
            "value": ""
        },
        "prepared": {
            "value": ""
        },
        "primarycheck": {
            "value": "Arcana (expert), Occultism (expert), or Religion (expert)"
        },
        "range": {
            "value": "10 feet"
        },
        "rarity": {
            "value": "common"
        },
        "rules": [],
        "save": {
            "basic": "",
            "value": ""
        },
        "scaling": {
            "formula": "",
            "mode": "none"
        },
        "school": {
            "value": "nec"
        },
        "secondarycasters": {
            "value": "1"
        },
        "secondarycheck": {
            "value": "Religion"
        },
        "source": {
            "value": ""
        },
        "spellCategorie": {
            "value": "ritual"
        },
        "spellCategory": {
            "value": ""
        },
        "spellType": {
            "value": "utility"
        },
        "sustained": {
            "value": false
        },
        "target": {
            "value": "1 dead creature"
        },
        "time": {
            "value": "1 day"
        },
        "traditions": {
            "custom": "",
            "value": [
                "ritual"
            ]
        },
        "traits": {
            "custom": "",
            "rarity": {
                "value": "uncommon"
            },
            "value": [
                "evil",
                "necromancy"
            ]
        },
        "usage": {
            "value": "held-in-one-hand"
        }
    },
    "effects": [],
    "flags": {},
    "img": "systems/pf2e/icons/spells/create-undead.jpg",
    "name": "Create Undead",
    "permission": {
        "default": 0
    },
    "type": "spell"
}
