{
    "_id": "0jadeyQIItIuRgeH",
    "data": {
        "ability": {
            "label": "Spellcasting Ability",
            "type": "String",
            "value": ""
        },
        "area": {
            "areaType": "",
            "label": "Area",
            "type": "String",
            "value": null
        },
        "areasize": {
            "value": "60-foot burst"
        },
        "components": {
            "label": "Spell Components",
            "type": "String",
            "value": "somatic, verbal"
        },
        "cost": {
            "label": "Cost",
            "type": "String",
            "value": ""
        },
        "damage": {
            "applyMod": false,
            "label": "Spell Damage",
            "type": "String",
            "value": "8d10"
        },
        "damageType": {
            "label": "Damage Type",
            "type": "String",
            "value": "cold"
        },
        "description": {
            "chat": "",
            "label": "Description",
            "type": "String",
            "unidentified": "",
            "value": "<p>A globe of freezing darkness explodes in the area, dealing 8d10 cold damage to creatures in the area, plus 8d4 additional negative damage to living creatures. Creatures in the area must attempt a Reflex save. If the globe overlaps with an area of magical light or affects a creature affected by magical light, eclipse burst attempts to counteract the light effect.</p>\r<p>\n<hr><b>Critical Success</b>  The creature is unaffected.</p>\r<p>\n<b>Success</b>  The creature takes half damage.</p>\r<p>\n<b>Failure</b>  The creature takes full damage.</p>\r<p>\n<b>Critical Failure</b>  The creature takes double damage. If it's a creature, it becomes @Compendium[pf2e.conditionitems.Blinded]{Blinded} by the darkness for an unlimited duration.</p>\r<p>\n<hr><b>Heightened (+1)</b>  The cold damage increases by 1d10 and the negative damage against the living increases by 1d4.</p>"
        },
        "duration": {
            "label": "Duration",
            "type": "String",
            "value": ""
        },
        "level": {
            "label": "Spell Level",
            "type": "Number",
            "value": 7
        },
        "location": {
            "label": "Spellcasting Entry Location",
            "type": "String",
            "value": ""
        },
        "materials": {
            "label": "Materials",
            "type": "String",
            "value": ""
        },
        "prepared": {
            "label": "Prepared Spell",
            "type": "String",
            "value": ""
        },
        "primarycheck": {
            "value": ""
        },
        "range": {
            "label": "Range",
            "type": "String",
            "value": "500 feet"
        },
        "rarity": {
            "value": "common"
        },
        "rules": [],
        "save": {
            "basic": "",
            "label": "Saving Throw",
            "type": "String",
            "value": "reflex"
        },
        "scaling": {
            "formula": "1d10",
            "mode": "level1"
        },
        "school": {
            "label": "Spell School",
            "type": "String",
            "value": "nec"
        },
        "secondarycasters": {
            "value": ""
        },
        "secondarycheck": {
            "value": ""
        },
        "source": {
            "label": "Source",
            "type": "String",
            "value": "https://2e.aonprd.com/Spells.aspx?ID=96"
        },
        "spellCategorie": {
            "value": "spell"
        },
        "spellCategory": {
            "value": ""
        },
        "spellType": {
            "label": "Spell Type",
            "type": "String",
            "value": "save"
        },
        "sustained": {
            "label": "Can be Sustained",
            "type": "Boolean",
            "value": false
        },
        "target": {
            "label": "Target",
            "type": "String",
            "value": ""
        },
        "time": {
            "label": "Casting Time",
            "type": "String",
            "value": "2"
        },
        "traditions": {
            "label": "Spell Traditions",
            "type": "String",
            "value": [
                "arcane",
                "divine",
                "primal"
            ]
        },
        "traits": {
            "label": "Spell Traits",
            "rarity": {
                "value": "common"
            },
            "type": "String",
            "value": [
                "cold",
                "darkness",
                "necromancy",
                "negative"
            ]
        },
        "usage": {
            "value": "held-in-one-hand"
        }
    },
    "effects": [],
    "flags": {},
    "img": "systems/pf2e/icons/spells/eclipse-burst.jpg",
    "name": "Eclipse Burst",
    "permission": {
        "default": 0
    },
    "type": "spell"
}