{
    "_id": "6s0UW4bujggma9TC",
    "data": {
        "ability": {
            "label": "Spellcasting Ability",
            "type": "String",
            "value": ""
        },
        "area": {
            "areaType": "",
            "label": "Area",
            "type": "String",
            "value": null
        },
        "areasize": {
            "value": ""
        },
        "components": {
            "label": "Spell Components",
            "type": "String",
            "value": "material, somatic, verbal"
        },
        "cost": {
            "label": "Cost",
            "type": "String",
            "value": ""
        },
        "damage": {
            "applyMod": false,
            "label": "Spell Damage",
            "type": "String",
            "value": ""
        },
        "damageType": {
            "label": "Damage Type",
            "type": "String",
            "value": ""
        },
        "description": {
            "chat": "",
            "label": "Description",
            "type": "String",
            "unidentified": "",
            "value": "<p><span>Choose a single statement you want the targets to believe. The fact could be narrow, such as &quot;a dragon is circling overhead and wants to kill me&quot;; wide-reaching, such as &quot;all humanoids are disguised abominations&quot;; or conceptual, such as &quot;if I don't live a kinder life, I'll be punished in the afterlife.&quot; The targets' experiences color how they react to this &quot;truth&quot; and how their behavior changes. If the statement changes what they perceive, they treat the change as a sudden revelation.<br></span></p>\n<p><span>The effect of the spell depends on the targets' Will saves. If a target is already subject to <em>fabricated truth</em>, your spell tries to counteract it. If the counteract check fails, the outcome of the target's saving throw can't be worse than a success. </span></p>\n<hr>\n<p><strong>Critical Success</strong> The target doesn't believe the statement, and it knows you tried to trick it.</p>\n<p><strong>Success</strong> The target doesn't believe the statement or realize you tried to trick it.</p>\n<p><strong>Failure</strong> The target believes the statement for a duration of 1 week.</p>\n<p><strong>Critical Failure</strong> The target believes the statement with unlimited duration.</p>"
        },
        "duration": {
            "label": "Duration",
            "type": "String",
            "value": "varies"
        },
        "level": {
            "label": "Spell Level",
            "type": "Number",
            "value": 10
        },
        "location": {
            "label": "Spellcasting Entry Location",
            "type": "String",
            "value": ""
        },
        "materials": {
            "label": "Materials",
            "type": "String",
            "value": ""
        },
        "prepared": {
            "label": "Prepared Spell",
            "type": "String",
            "value": ""
        },
        "primarycheck": {
            "value": ""
        },
        "range": {
            "label": "Range",
            "type": "String",
            "value": "100 feet"
        },
        "rarity": {
            "value": "common"
        },
        "rules": [],
        "save": {
            "basic": "",
            "label": "Saving Throw",
            "type": "String",
            "value": "will"
        },
        "scaling": {
            "formula": "",
            "mode": "none"
        },
        "school": {
            "label": "Spell School",
            "type": "String",
            "value": "enc"
        },
        "secondarycasters": {
            "value": ""
        },
        "secondarycheck": {
            "value": ""
        },
        "source": {
            "label": "Source",
            "type": "String",
            "value": "https://2e.aonprd.com/Spells.aspx?ID=106"
        },
        "spellCategorie": {
            "value": "spell"
        },
        "spellCategory": {
            "value": ""
        },
        "spellType": {
            "label": "Spell Type",
            "type": "String",
            "value": "save"
        },
        "sustained": {
            "label": "Can be Sustained",
            "type": "Boolean",
            "value": false
        },
        "target": {
            "label": "Target",
            "type": "String",
            "value": "up to 5 creatures"
        },
        "time": {
            "label": "Casting Time",
            "type": "String",
            "value": "3"
        },
        "traditions": {
            "label": "Spell Traditions",
            "type": "String",
            "value": [
                "occult"
            ]
        },
        "traits": {
            "label": "Spell Traits",
            "rarity": {
                "value": "common"
            },
            "type": "String",
            "value": [
                "enchantment",
                "incapacitation",
                "mental"
            ]
        },
        "usage": {
            "value": "held-in-one-hand"
        }
    },
    "effects": [],
    "flags": {},
    "img": "systems/pf2e/icons/spells/fabricated-truth.jpg",
    "name": "Fabricated Truth",
    "permission": {
        "default": 0
    },
    "type": "spell"
}
