{
    "_id": "HES5jvGiNZZnJycK",
    "data": {
        "ability": {
            "value": ""
        },
        "area": {
            "areaType": "emanation",
            "label": "Area",
            "type": "String",
            "value": 20
        },
        "areasize": {
            "label": "Spell Components",
            "type": "String",
            "value": "20-foot cube"
        },
        "components": {
            "value": "material, somatic, verbal"
        },
        "cost": {
            "value": ""
        },
        "damage": {
            "applyMod": false,
            "value": ""
        },
        "damageType": {
            "value": ""
        },
        "description": {
            "chat": "",
            "unidentified": "",
            "value": "<p>You create an immobile, invisible prison of sheer force. The cage is a 20-foot cube made of bands of force, each a half inch thick and a half inch apart, that extend to the Ethereal Plane. Each creature in the area where you create the cage must attempt a Reflex save. If such a creature fails, it becomes trapped inside the cage. If it succeeds, it's pushed outside the cage into a space of its choice. If a creature in the area is too big to fit inside the prison, the spell automatically fails.</p>\n<p>The cage has AC 10, Hardness 20, and 40 Hit Points, and it's immune to critical hits and precision damage. A creature capable of passing through the space between the bars (typically a Tiny creature) can leave; all others are confined within.</p>\n<p>Attacks with a weapon too large to fit between the bars can't pass through the cage, and the bars provide standard cover even against attacks that can pass through the gaps. Spells and breath weapons can pass through the cage uninhibited.</p>\n<p><em>Force cage</em> is immune to counteracting effects of its level or lower, but it is automatically destroyed by a @Compendium[pf2e.spells-srd.Disintegrate]{Disintegrate} spell of any level, or by contact with a @Compendium[pf2e.equipment-srd.Rod of Cancellation]{Rod of Cancellation} (<em>Advanced Players Guide</em> 262) or @Compendium[pf2e.equipment-srd.Sphere of Annihilation]{Sphere of Annihilation} (<em>Gamemastery Guide </em>113).</p>"
        },
        "duration": {
            "value": "sustained up to 1 minute"
        },
        "level": {
            "value": 7
        },
        "location": {
            "value": ""
        },
        "materials": {
            "value": ""
        },
        "prepared": {
            "value": false
        },
        "primarycheck": {
            "value": ""
        },
        "range": {
            "value": "30 feet; 1 cube 20 feet on each side"
        },
        "rarity": {
            "value": "common"
        },
        "rules": [],
        "save": {
            "basic": "",
            "label": "Saving Throw",
            "type": "String",
            "value": "fortitude"
        },
        "scaling": {
            "formula": "",
            "mode": "none"
        },
        "school": {
            "value": "evo"
        },
        "secondarycasters": {
            "value": ""
        },
        "secondarycheck": {
            "value": ""
        },
        "source": {
            "value": ""
        },
        "spellCategorie": {
            "value": "spell"
        },
        "spellCategory": {
            "value": ""
        },
        "spellType": {
            "label": "Spell Type",
            "type": "String",
            "value": "save"
        },
        "sustained": {
            "value": false
        },
        "target": {
            "value": ""
        },
        "time": {
            "value": "3"
        },
        "traditions": {
            "value": [
                "arcane",
                "occult"
            ]
        },
        "traits": {
            "custom": "",
            "rarity": {
                "value": "common"
            },
            "value": [
                "evocation",
                "force"
            ]
        },
        "usage": {
            "value": ""
        }
    },
    "effects": [],
    "flags": {},
    "img": "systems/pf2e/icons/spells/force-cage.jpg",
    "name": "Force Cage",
    "permission": {
        "default": 0
    },
    "type": "spell"
}