{
    "_id": "XI6Lzd2B5pernkPd",
    "data": {
        "ability": {
            "label": "Spellcasting Ability",
            "type": "String",
            "value": ""
        },
        "area": {
            "areaType": "",
            "label": "Area",
            "type": "String",
            "value": null
        },
        "areasize": {
            "value": ""
        },
        "components": {
            "label": "Spell Components",
            "type": "String",
            "value": "somatic, verbal"
        },
        "cost": {
            "label": "Cost",
            "type": "String",
            "value": ""
        },
        "damage": {
            "applyMod": false,
            "label": "Spell Damage",
            "type": "String",
            "value": ""
        },
        "damageType": {
            "label": "Damage Type",
            "type": "String",
            "value": ""
        },
        "description": {
            "chat": "",
            "label": "Description",
            "type": "String",
            "unidentified": "",
            "value": "<p>You envision a simple bug and transform into a Medium animal battle form. When you cast this spell, choose ant, beetle, centipede, mantis, scorpion, or spider. You can decide the specific type of animal (such as such as a ladybug or scarab for beetle), but this has no effect on the form's Size or statistics. While in this form, you gain the animal trait. You can Dismiss this spell.</p>\n<p>You gain the following statistics and abilities regardless of which battle form you choose:</p>\n<ul>\n<li>AC = 18 + your level. Ignore your armor's check penalty and Speed reduction.</li>\n<li>10 temporary Hit Points.</li>\n<li>Low-light vision.</li>\n<li>One or more attacks specific to the battle form you choose, which are the only attacks you can use. You're trained with them. Your attack modifier is +13, and your damage bonus is +2. These attacks are Strength based (for the purpose of the @Compendium[pf2e.conditionitems.Enfeebled]{Enfeebled} condition). If your unarmed attack modifier is higher, you can use it instead.</li>\n<li>Athletics modifier of +13, unless your own is higher.</li>\n</ul>\n<p>You also gain specific abilities based on the form you choose:</p>\n<p><strong>Ant</strong> Speed 30 feet, climb Speed 30 feet; Melee mandibles, Damage 2d6 bludgeoning.</p>\n<p><strong>Beetle</strong> Speed 25 feet; Melee mandibles , Damage 2d10 bludgeoning.</p>\n<p><strong>Centipede</strong> Speed 25 feet, climb Speed 25 feet; darkvision; Melee mandibles, Damage 1d8 piercing plus 1d4 persistent poison.</p>\n<p><strong>Mantis</strong> Speed 40 feet; imprecise scent 30 feet; Melee foreleg , Damage 2d8 bludgeoning.</p>\n<p><strong>Scorpion</strong> Speed 40 feet; darkvision, imprecise tremorsense 60 feet; Melee stinger, Damage 1d8 piercing plus 1d4 persistent poison; Melee pincer (agile), Damage 1d6 bludgeoning.</p>\n<p><strong>Spider</strong> darkvision; Melee fangs, Damage 1d6 piercing plus 1d4 persistent poison; Melee Speed 25 feet, climb Speed 25 feet; Ranged web (range increment 20 feet), Damage entangles the target for 1 round.</p>\n<hr>\n<p><strong>Heightened (4th)</strong> Your battle form is Large, and your attacks have 10-foot reach. You must have enough space to expand into or the spell is lost. You instead gain 15 temporary HP, attack modifier +16, damage bonus +6, and Athletics +16.</p>\n<p><strong>Heightened (5th)</strong> Your battle form is Huge, and your attacks have 15-foot reach. You must have enough space to expand into or the spell is lost. You instead gain 20 temporary HP, attack modifier +18, damage bonus +2 and double damage dice (including @Compendium[pf2e.conditionitems.Persistent Damage]{Persistent Damage}), and Athletics +20.</p>"
        },
        "duration": {
            "label": "Duration",
            "type": "String",
            "value": "1 minute"
        },
        "level": {
            "label": "Spell Level",
            "type": "Number",
            "value": 3
        },
        "location": {
            "label": "Spellcasting Entry Location",
            "type": "String",
            "value": 147
        },
        "materials": {
            "label": "Materials",
            "type": "String",
            "value": ""
        },
        "prepared": {
            "label": "Prepared Spell",
            "type": "String",
            "value": ""
        },
        "primarycheck": {
            "value": ""
        },
        "range": {
            "label": "Range",
            "type": "String",
            "value": ""
        },
        "rarity": {
            "value": "common"
        },
        "rules": [],
        "save": {
            "basic": "",
            "label": "Saving Throw",
            "type": "String",
            "value": ""
        },
        "scaling": {
            "formula": "",
            "mode": "none"
        },
        "school": {
            "label": "Spell School",
            "type": "String",
            "value": "trs"
        },
        "secondarycasters": {
            "value": ""
        },
        "secondarycheck": {
            "value": ""
        },
        "source": {
            "label": "Source",
            "type": "String",
            "value": "https://2e.aonprd.com/Spells.aspx?ID=163"
        },
        "spellCategorie": {
            "value": "spell"
        },
        "spellCategory": {
            "value": ""
        },
        "spellType": {
            "label": "Spell Type",
            "type": "String",
            "value": "utility"
        },
        "sustained": {
            "label": "Can be Sustained",
            "type": "Boolean",
            "value": false
        },
        "target": {
            "label": "Target",
            "type": "String",
            "value": ""
        },
        "time": {
            "label": "Casting Time",
            "type": "String",
            "value": "2"
        },
        "traditions": {
            "label": "Spell Traditions",
            "type": "String",
            "value": [
                "primal"
            ]
        },
        "traits": {
            "label": "Spell Traits",
            "rarity": {
                "value": "common"
            },
            "type": "String",
            "value": [
                "polymorph",
                "transmutation"
            ]
        },
        "usage": {
            "value": "held-in-one-hand"
        }
    },
    "effects": [],
    "flags": {},
    "img": "systems/pf2e/icons/spells/insect-form.jpg",
    "name": "Insect Form",
    "permission": {
        "default": 0
    },
    "type": "spell"
}