{
    "_id": "oo7YcRC2gcez81PV",
    "data": {
        "ability": {
            "label": "Spellcasting Ability",
            "type": "String",
            "value": ""
        },
        "area": {
            "areaType": "",
            "label": "Area",
            "type": "String",
            "value": null
        },
        "areasize": {
            "value": "15-foot cone or more"
        },
        "components": {
            "label": "Spell Components",
            "type": "String",
            "value": "varies"
        },
        "cost": {
            "label": "Cost",
            "type": "String",
            "value": ""
        },
        "damage": {
            "applyMod": false,
            "label": "Spell Damage",
            "type": "String",
            "value": "2d6"
        },
        "damageType": {
            "label": "Damage Type",
            "type": "String",
            "value": "force"
        },
        "description": {
            "chat": "",
            "label": "Description",
            "type": "String",
            "unidentified": "",
            "value": "<p>You unleash your ki as a powerful blast of force that deals 2d6 force damage. If you use 2 actions to cast ki blast, increase the size of the cone to 30 feet and the damage to 3d6. If you use 3 actions to cast ki blast, increase the size of the cone to 60 feet and the damage to 4d6. Each creature in the area must attempt a Fortitude saving throw.</p>\r<p>\n<hr><b>Critical Success</b>  The creature is unaffected.</p>\r<p>\n<b>Success</b>  The creature takes half damage.</p>\r<p>\n<b>Failure</b>  The creature takes full damage and is pushed 5 feet.</p>\r<p>\n<b>Critical Failure</b>  The creature takes double damage and is pushed 10 feet.</p>\r<p>\n<hr><b>Heightened (+1)</b>  The damage increases by 1d6, or by 2d6 if you use 2 or 3 actions.</p>"
        },
        "duration": {
            "label": "Duration",
            "type": "String",
            "value": ""
        },
        "level": {
            "label": "Spell Level",
            "type": "Number",
            "value": 3
        },
        "location": {
            "label": "Spellcasting Entry Location",
            "type": "String",
            "value": ""
        },
        "materials": {
            "label": "Materials",
            "type": "String",
            "value": ""
        },
        "prepared": {
            "label": "Prepared Spell",
            "type": "String",
            "value": ""
        },
        "primarycheck": {
            "value": ""
        },
        "range": {
            "label": "Range",
            "type": "String",
            "value": ""
        },
        "rarity": {
            "value": "common"
        },
        "rules": [],
        "save": {
            "basic": "",
            "label": "Saving Throw",
            "type": "String",
            "value": "fortitude"
        },
        "scaling": {
            "formula": "1d6",
            "mode": "level1"
        },
        "school": {
            "label": "Spell School",
            "type": "String",
            "value": "evo"
        },
        "secondarycasters": {
            "value": ""
        },
        "secondarycheck": {
            "value": ""
        },
        "source": {
            "label": "Source",
            "type": "String",
            "value": "https://2e.aonprd.com/Spells.aspx?ID=484"
        },
        "spellCategorie": {
            "value": "focus"
        },
        "spellCategory": {
            "value": ""
        },
        "spellType": {
            "label": "Spell Type",
            "type": "String",
            "value": "save"
        },
        "sustained": {
            "label": "Can be Sustained",
            "type": "Boolean",
            "value": false
        },
        "target": {
            "label": "Target",
            "type": "String",
            "value": ""
        },
        "time": {
            "label": "Casting Time",
            "type": "String",
            "value": "1 to 3"
        },
        "traditions": {
            "label": "Spell Traditions",
            "type": "String",
            "value": [
                "focus"
            ]
        },
        "traits": {
            "label": "Spell Traits",
            "rarity": {
                "value": "uncommon"
            },
            "type": "String",
            "value": [
                "evocation",
                "force",
                "monk"
            ]
        },
        "usage": {
            "value": "held-in-one-hand"
        }
    },
    "effects": [],
    "flags": {},
    "img": "systems/pf2e/icons/spells/ki-blast.jpg",
    "name": "Ki Blast",
    "permission": {
        "default": 0
    },
    "type": "spell"
}
