{
    "_id": "O9w7r4BKgPogYDDe",
    "data": {
        "ability": {
            "label": "Spellcasting Ability",
            "type": "String",
            "value": ""
        },
        "area": {
            "areaType": "",
            "label": "Area",
            "type": "String",
            "value": null
        },
        "areasize": {
            "value": ""
        },
        "components": {
            "label": "Spell Components",
            "type": "String",
            "value": "somatic, verbal"
        },
        "cost": {
            "label": "Cost",
            "type": "String",
            "value": ""
        },
        "damage": {
            "applyMod": true,
            "label": "Spell Damage",
            "type": "String",
            "value": "1d4"
        },
        "damageType": {
            "label": "Damage Type",
            "type": "String",
            "value": "fire"
        },
        "description": {
            "chat": "",
            "label": "Description",
            "type": "String",
            "unidentified": "",
            "value": "<p>A small ball of flame appears in the palm of your hand, and you lash out with it either in melee or at range. Make a spell attack roll against your target's AC. This is normally a ranged attack, but you can also make a melee attack against a creature in your unarmed reach.</p>\n<p>On a success, you deal 1d4 fire damage plus your spellcasting ability modifier. On a critical success, the target takes double damage and 1d4 persistent fire damage.</p>\n<hr>\n<p><strong>Heightened (+1)</strong> Increase the damage by 1d4 and the @Compendium[pf2e.conditionitems.Persistent Damage]{Persistent Damage} on a critical hit by 1d4.</p>"
        },
        "duration": {
            "label": "Duration",
            "type": "String",
            "value": ""
        },
        "level": {
            "label": "Spell Level",
            "type": "Number",
            "value": 0
        },
        "location": {
            "label": "Spellcasting Entry Location",
            "type": "String",
            "value": 147
        },
        "materials": {
            "label": "Materials",
            "type": "String",
            "value": ""
        },
        "prepared": {
            "label": "Prepared Spell",
            "type": "String",
            "value": ""
        },
        "primarycheck": {
            "value": ""
        },
        "range": {
            "label": "Range",
            "type": "String",
            "value": "30 feet"
        },
        "rarity": {
            "value": "common"
        },
        "rules": [],
        "save": {
            "basic": "",
            "label": "Saving Throw",
            "type": "String",
            "value": ""
        },
        "scaling": {
            "formula": "1d4",
            "mode": "level1"
        },
        "school": {
            "label": "Spell School",
            "type": "String",
            "value": "evo"
        },
        "secondarycasters": {
            "value": ""
        },
        "secondarycheck": {
            "value": ""
        },
        "source": {
            "label": "Source",
            "type": "String",
            "value": ""
        },
        "spellCategorie": {
            "value": "spell"
        },
        "spellCategory": {
            "value": ""
        },
        "spellType": {
            "label": "Spell Type",
            "type": "String",
            "value": "attack"
        },
        "sustained": {
            "label": "Can be Sustained",
            "type": "Boolean",
            "value": false
        },
        "target": {
            "label": "Target",
            "type": "String",
            "value": "1 creature"
        },
        "time": {
            "label": "Casting Time",
            "type": "String",
            "value": "2"
        },
        "traditions": {
            "custom": "",
            "label": "Spell Traditions",
            "type": "String",
            "value": [
                "arcane",
                "primal"
            ]
        },
        "traits": {
            "custom": "",
            "label": "Spell Traits",
            "rarity": {
                "value": "common"
            },
            "type": "String",
            "value": [
                "attack",
                "fire",
                "cantrip",
                "evocation"
            ]
        },
        "usage": {
            "value": "held-in-one-hand"
        }
    },
    "effects": [],
    "flags": {},
    "img": "systems/pf2e/icons/spells/produce-flame.jpg",
    "name": "Produce Flame",
    "permission": {
        "default": 0
    },
    "type": "spell"
}