{
    "_id": "n8eEXXAtguoErW0y",
    "data": {
        "ability": {
            "value": ""
        },
        "area": {
            "value": ""
        },
        "areasize": {
            "value": "30-foot burst"
        },
        "components": {
            "value": "somatic, verbal"
        },
        "cost": {
            "value": ""
        },
        "damage": {
            "applyMod": false,
            "value": "14d4"
        },
        "damageType": {
            "value": "negative"
        },
        "description": {
            "chat": "",
            "unidentified": "",
            "value": "<p>Grasping darkness surges from you, dealing [[/r 14d4 #negative]] negative damage. Each creature in the area must attempt a Fortitude save.</p>\n<hr>\n<p><strong>Critical Success</strong> The creature is unaffected.</p>\n<p><strong>Success</strong> The creature takes half damage and is @Compendium[pf2e.conditionitems.Enfeebled]{Enfeebled} 1 for 1 round.</p>\n<p><strong>Failure</strong> The creature takes full damage and is Enfeebled 2 for 1 round.</p>\n<p><strong>Critical Failure</strong> The creature takes double damage and is @Compendium[pf2e.conditionitems.Stunned]{Stunned} 1, Enfeebled 2 for 1 round, and @Compendium[pf2e.conditionitems.Immobilized]{Immobilized} for 1 round or until it @Compendium[pf2e.actionspf2e.Escape]{Escapes}, whichever comes first.</p>\n<hr>\n<p><strong>Heightened (+1)</strong> The negative damage increases by [[/r 2d4 #negative]].</p>"
        },
        "duration": {
            "value": ""
        },
        "level": {
            "value": 7
        },
        "location": {
            "value": ""
        },
        "materials": {
            "value": ""
        },
        "prepared": {
            "value": ""
        },
        "primarycheck": {
            "value": ""
        },
        "range": {
            "value": ""
        },
        "rarity": {
            "value": "common"
        },
        "rules": [],
        "save": {
            "basic": "",
            "value": "fortitude"
        },
        "scaling": {
            "formula": "2d4",
            "mode": "level1"
        },
        "school": {
            "value": "evo"
        },
        "secondarycasters": {
            "value": ""
        },
        "secondarycheck": {
            "value": ""
        },
        "source": {
            "value": ""
        },
        "spellCategorie": {
            "value": "spell"
        },
        "spellCategory": {
            "value": ""
        },
        "spellType": {
            "value": "save"
        },
        "sustained": {
            "value": false
        },
        "target": {
            "value": ""
        },
        "time": {
            "value": "2"
        },
        "traditions": {
            "value": []
        },
        "traits": {
            "custom": "",
            "rarity": {
                "value": "uncommon"
            },
            "value": [
                "evocation",
                "monk"
            ]
        },
        "usage": {
            "value": "held-in-one-hand"
        }
    },
    "effects": [],
    "flags": {},
    "img": "systems/pf2e/icons/spells/shadows-web.jpg",
    "name": "Shadow's Web",
    "permission": {
        "default": 0
    },
    "type": "spell"
}