{
    "_id": "cOwSsSXRsBaXUvlr",
    "data": {
        "ability": {
            "value": ""
        },
        "area": {
            "areaType": "",
            "value": null
        },
        "areasize": {
            "value": ""
        },
        "components": {
            "value": "somatic, verbal"
        },
        "cost": {
            "value": ""
        },
        "damage": {
            "applyMod": false,
            "value": ""
        },
        "damageType": {
            "value": ""
        },
        "description": {
            "chat": "",
            "unidentified": "",
            "value": "<p>The flow of time congeals around an object or creature, holding it in place. The target must attempt a Will save (an unattended object automatically critically fails its save).</p>\n<hr />\n<p><span><strong>Critical Success</strong> The target is unaffected.</span></p>\n<p><span><strong>Success</strong> The target is <a class=\"entity-link\" draggable=\"true\" data-pack=\"pf2e.conditionitems\" data-id=\"dfCMdR4wnpbYNTix\"> Stunned</a> 1 as time thickens around it.</span></p>\n<p><span><strong>Failure</strong> Time ceases to pass for the target for 1 round. It is invulnerable to all damage, it cannot be targeted or affected by anything, and no rounds elapse for any timed durations, conditions, afflictions, and other effects it has. While in <em>stasis</em>, the target can't be moved, and it remains fixed in place, defying gravity if need be.</span></p>\n<p><span><strong>Critical Failure</strong> As failure, but the target is held in stasis for 3 rounds. At the end of each of its turns, it can attempt a Will save to reduce the remaining duration by 1 round or end it entirely on a critical success. </span></p>"
        },
        "duration": {
            "value": "varies"
        },
        "level": {
            "value": 4
        },
        "location": {
            "value": ""
        },
        "materials": {
            "value": ""
        },
        "prepared": {
            "value": ""
        },
        "primarycheck": {
            "value": ""
        },
        "range": {
            "value": "30 feet"
        },
        "rarity": {
            "value": "common"
        },
        "rules": [],
        "save": {
            "basic": "",
            "value": "will"
        },
        "scaling": {
            "formula": "",
            "mode": "none"
        },
        "school": {
            "value": "trs"
        },
        "secondarycasters": {
            "value": ""
        },
        "secondarycheck": {
            "value": ""
        },
        "source": {
            "value": ""
        },
        "spellCategorie": {
            "value": "focus"
        },
        "spellCategory": {
            "value": ""
        },
        "spellType": {
            "value": "save"
        },
        "sustained": {
            "value": false
        },
        "target": {
            "value": "1 creature or up to 1 Bulk of objects"
        },
        "time": {
            "value": "2"
        },
        "traditions": {
            "custom": "",
            "value": [
                "focus"
            ]
        },
        "traits": {
            "custom": "",
            "rarity": {
                "value": "uncommon"
            },
            "value": [
                "cleric",
                "incapacitation",
                "transmutation"
            ]
        },
        "usage": {
            "value": "held-in-one-hand"
        }
    },
    "effects": [],
    "flags": {},
    "img": "systems/pf2e/icons/spells/stasis.jpg",
    "name": "Stasis",
    "permission": {
        "default": 0
    },
    "type": "spell"
}
