{
    "_id": "FEsuyf203wTNE2et",
    "data": {
        "ability": {
            "label": "Spellcasting Ability",
            "type": "String",
            "value": ""
        },
        "area": {
            "areaType": "",
            "label": "Area",
            "type": "String",
            "value": null
        },
        "areasize": {
            "value": "40-foot emanation"
        },
        "components": {
            "label": "Spell Components",
            "type": "String",
            "value": "somatic, verbal"
        },
        "cost": {
            "label": "Cost",
            "type": "String",
            "value": ""
        },
        "damage": {
            "applyMod": false,
            "label": "Spell Damage",
            "type": "String",
            "value": "8d10"
        },
        "damageType": {
            "label": "Damage Type",
            "type": "String",
            "value": "negative"
        },
        "description": {
            "chat": "",
            "label": "Description",
            "type": "String",
            "unidentified": "",
            "value": "<p>Your scream chills the souls of enemies that hear it. Each living enemy in the area takes 8d10 negative damage and must attempt a Fortitude save.</p>\n<hr />\n<p><strong>Critical Success</strong> The target is unaffected.</p>\n<p><strong>Success</strong> The target takes full damage.</p>\n<p><strong>Failure</strong> The target takes full damage and is @Compendium[pf2e.conditionitems.Drained]{Drained} 1d4.</p>\n<p><strong>Critical Failure</strong> The target takes double damage and is Drained 4.</p>"
        },
        "duration": {
            "label": "Duration",
            "type": "String",
            "value": ""
        },
        "level": {
            "label": "Spell Level",
            "type": "Number",
            "value": 9
        },
        "location": {
            "label": "Spellcasting Entry Location",
            "type": "String",
            "value": ""
        },
        "materials": {
            "label": "Materials",
            "type": "String",
            "value": ""
        },
        "prepared": {
            "label": "Prepared Spell",
            "type": "String",
            "value": ""
        },
        "primarycheck": {
            "value": ""
        },
        "range": {
            "label": "Range",
            "type": "String",
            "value": ""
        },
        "rarity": {
            "value": "common"
        },
        "rules": [],
        "save": {
            "basic": "",
            "label": "Saving Throw",
            "type": "String",
            "value": "fortitude"
        },
        "scaling": {
            "formula": "",
            "mode": "none"
        },
        "school": {
            "label": "Spell School",
            "type": "String",
            "value": "nec"
        },
        "secondarycasters": {
            "value": ""
        },
        "secondarycheck": {
            "value": ""
        },
        "source": {
            "label": "Source",
            "type": "String",
            "value": "https://2e.aonprd.com/Spells.aspx?ID=361"
        },
        "spellCategorie": {
            "value": "spell"
        },
        "spellCategory": {
            "value": ""
        },
        "spellType": {
            "label": "Spell Type",
            "type": "String",
            "value": "save"
        },
        "sustained": {
            "label": "Can be Sustained",
            "type": "Boolean",
            "value": false
        },
        "target": {
            "label": "Target",
            "type": "String",
            "value": "any number of creatures"
        },
        "time": {
            "label": "Casting Time",
            "type": "String",
            "value": "2"
        },
        "traditions": {
            "label": "Spell Traditions",
            "type": "String",
            "value": [
                "divine",
                "occult"
            ]
        },
        "traits": {
            "label": "Spell Traits",
            "rarity": {
                "value": "common"
            },
            "type": "String",
            "value": [
                "auditory",
                "death",
                "necromancy",
                "negative"
            ]
        },
        "usage": {
            "value": "held-in-one-hand"
        }
    },
    "effects": [],
    "flags": {},
    "img": "systems/pf2e/icons/spells/wail-of-the-banshee.jpg",
    "name": "Wail of the Banshee",
    "permission": {
        "default": 0
    },
    "type": "spell"
}