{
    "_id": "NfkxFWUeG6g41e8w",
    "data": {
        "actionCategory": {
            "value": ""
        },
        "actionType": {
            "value": "passive"
        },
        "actions": {
            "value": null
        },
        "containerId": {
            "value": ""
        },
        "description": {
            "chat": "",
            "unidentified": "",
            "value": "<p>Your sharp claws offer an alternative to the fists other humanoids bring to a fight. You have a claw unarmed attack that deals <a class=\"inline-roll roll\" title=\"slashing\" data-mode=\"roll\" data-flavor=\"slashing\" data-formula=\"1d4\"><i class=\"fas fa-dice-d20\"></i> 1d4</a> slashing damage and has the agile and finesse traits.</p>"
        },
        "featType": {
            "value": "ancestryfeature"
        },
        "level": {
            "value": "1"
        },
        "prerequisites": {
            "value": null
        },
        "rarity": {
            "value": "common"
        },
        "rules": [],
        "source": {
            "value": ""
        },
        "traits": {
            "custom": "",
            "rarity": {
                "value": "common"
            },
            "selected": {
                "lizardfolk": "Lizardfolk"
            },
            "value": [
                "lizardfolk"
            ]
        },
        "usage": {
            "value": "held-in-one-hand"
        }
    },
    "effects": [],
    "flags": {},
    "img": "systems/pf2e/icons/features/ancestry/claws.jpg",
    "name": "Claws",
    "permission": {
        "default": 0
    },
    "type": "feat"
}
