{
    "_id": "N36ZR4lh9eCazDaN",
    "data": {
        "actionCategory": {
            "value": ""
        },
        "actionType": {
            "value": "passive"
        },
        "actions": {
            "value": null
        },
        "containerId": {
            "value": ""
        },
        "description": {
            "chat": "",
            "unidentified": "",
            "value": "<p><span id=\"ctl00_MainContent_DetailedOutput\">Either one of your parents was an elf, or one or both were half-elves. You have pointed ears and other telltale signs of elf heritage. You gain the elf trait and <a class=\"entity-link\" draggable=\"true\" data-pack=\"pf2e.ancestryfeatures\" data-id=\"DRtaqOHXTRtGRIUT\"> Low-Light Vision</a>. In addition, you can select elf, half-elf, and human feats whenever you gain an ancestry feat. </span></p>"
        },
        "featType": {
            "value": "ancestryfeature"
        },
        "level": {
            "value": "1"
        },
        "prerequisites": {
            "value": null
        },
        "rarity": {
            "value": "common"
        },
        "rules": [],
        "source": {
            "value": ""
        },
        "traits": {
            "custom": "",
            "rarity": {
                "value": "common"
            },
            "selected": {
                "human": "Human"
            },
            "value": [
                "human"
            ]
        },
        "usage": {
            "value": "held-in-one-hand"
        }
    },
    "effects": [],
    "flags": {},
    "img": "systems/pf2e/icons/features/ancestry/half-elf.jpg",
    "name": "Half-Elf",
    "permission": {
        "default": 0
    },
    "type": "feat"
}
