{
    "_id": "G9Gwfi8ZIva52uGp",
    "data": {
        "actionCategory": {
            "value": ""
        },
        "actionType": {
            "value": "passive"
        },
        "actions": {
            "value": null
        },
        "description": {
            "chat": "",
            "unidentified": "",
            "value": "<p>You were born with a strange blessing: bereft of the typical halfling luck, you can instead manipulate the fortunes of others. You can never take the <a class=\"entity-link\" draggable=\"true\" data-pack=\"pf2e.feats-srd\" data-id=\"ZbRVqf14RTJJIZXG\"> Halfling Luck</a> feat, and you gain the <a class=\"entity-link\" draggable=\"true\" data-pack=\"pf2e.actionspf2e\" data-id=\"hFRHPBj6wjAayNtW\"> Jinx</a> action.</p>"
        },
        "featType": {
            "value": "ancestryfeature"
        },
        "level": {
            "value": "1"
        },
        "prerequisites": {
            "value": null
        },
        "rarity": {
            "value": "common"
        },
        "rules": [],
        "source": {
            "value": ""
        },
        "traits": {
            "rarity": {
                "value": "uncommon"
            },
            "value": []
        },
        "usage": {
            "value": "held-in-one-hand"
        }
    },
    "effects": [],
    "flags": {},
    "img": "systems/pf2e/icons/features/ancestry/jinxed-halfling.jpg",
    "name": "Jinxed Halfling",
    "permission": {
        "default": 0
    },
    "type": "feat"
}
