{
    "_id": "y1EmCv2cEb5hXBwx",
    "data": {
        "actionCategory": {
            "value": ""
        },
        "actionType": {
            "value": "passive"
        },
        "actions": {
            "value": null
        },
        "containerId": {
            "value": ""
        },
        "description": {
            "chat": "",
            "unidentified": "",
            "value": "<p>Your eyes are sharp, allowing you to make out small details about concealed or even invisible creatures that others might miss. You gain a +2 circumstance bonus when using the <a class=\"entity-link\" draggable=\"true\" data-pack=\"pf2e.actionspf2e\" data-id=\"BlAOM2X92SI6HMtJ\"> Seek</a> action to find <a class=\"entity-link\" draggable=\"true\" data-pack=\"pf2e.conditionitems\" data-id=\"iU0fEDdBp3rXpTMC\"> Hidden</a> or <a class=\"entity-link\" draggable=\"true\" data-pack=\"pf2e.conditionitems\" data-id=\"VRSef5y1LmL2Hkjf\"> Undetected</a> creatures within 30 feet of you. When you target an opponent that is <a class=\"entity-link\" draggable=\"true\" data-pack=\"pf2e.conditionitems\" data-id=\"DmAIPqOBomZ7H95W\"> Concealed</a> from you or hidden from you, reduce the DC of the flat check to 3 for a concealed target or 9 for a hidden one.</p>"
        },
        "featType": {
            "value": "ancestryfeature"
        },
        "level": {
            "value": "0"
        },
        "prerequisites": {
            "value": null
        },
        "rarity": {
            "value": "common"
        },
        "rules": [],
        "source": {
            "value": ""
        },
        "traits": {
            "custom": "",
            "rarity": {
                "value": "common"
            },
            "selected": {
                "halfling": "Halfling"
            },
            "value": [
                "halfling"
            ]
        },
        "usage": {
            "value": "held-in-one-hand"
        }
    },
    "effects": [],
    "flags": {},
    "img": "systems/pf2e/icons/features/ancestry/keen-eyes.jpg",
    "name": "Keen Eyes",
    "permission": {
        "default": 0
    },
    "type": "feat"
}
