{
    "_id": "dwKCwwtWetvPmJks",
    "data": {
        "actionCategory": {
            "value": ""
        },
        "actionType": {
            "value": "passive"
        },
        "actions": {
            "value": null
        },
        "description": {
            "chat": "",
            "unidentified": "",
            "value": "<p><span class=\"fontstyle0\">You were born in a rain forest with only tangles of trees<br>providing protection from torrential rainstorms and flash<br>floods. You've learned to move adeptly through jungle<br>terrain and resist the various ailments common in humid<br>environs. You gain a +2 circumstance bonus to Athletics<br>checks to <a class=\"entity-link\" draggable=\"true\" data-pack=\"pf2e.actionspf2e\" data-id=\"pprgrYQ1QnIDGZiy\"> Climb</a> or <a class=\"entity-link\" draggable=\"true\" data-pack=\"pf2e.actionspf2e\" data-id=\"c8TGiZ48ygoSPofx\"> Swim</a> and a +1 circumstance bonus to<br>saving throws against diseases.</span></p>"
        },
        "featType": {
            "value": "ancestryfeature"
        },
        "level": {
            "value": "1"
        },
        "prerequisites": {
            "value": null
        },
        "rarity": {
            "value": "common"
        },
        "rules": [],
        "source": {
            "value": ""
        },
        "traits": {
            "custom": "",
            "rarity": {
                "value": "common"
            },
            "value": [
                "orc"
            ]
        },
        "usage": {
            "value": "held-in-one-hand"
        }
    },
    "effects": [],
    "flags": {},
    "img": "systems/pf2e/icons/features/ancestry/rainfall-orc.jpg",
    "name": "Rainfall Orc",
    "permission": {
        "default": 0
    },
    "type": "feat"
}
