{
    "_id": "rKV11HWREwjjMIum",
    "data": {
        "actionCategory": {
            "value": ""
        },
        "actionType": {
            "value": "passive"
        },
        "actions": {
            "value": null
        },
        "description": {
            "chat": "",
            "unidentified": "",
            "value": "<p>Your bones may be especially light, you may be a rare tengu with wings, or your connection to the spirits of wind and sky might be stronger than most, slowing your descent through the air. You take no damage from falling, regardless of the distance you fall.</p>"
        },
        "featType": {
            "value": "ancestryfeature"
        },
        "level": {
            "value": "1"
        },
        "prerequisites": {
            "value": null
        },
        "rarity": {
            "value": "common"
        },
        "rules": [],
        "source": {
            "value": ""
        },
        "traits": {
            "custom": "",
            "rarity": {
                "value": "common"
            },
            "value": [
                "tengu"
            ]
        },
        "usage": {
            "value": "held-in-one-hand"
        }
    },
    "effects": [],
    "flags": {},
    "img": "systems/pf2e/icons/features/ancestry/skyborn-tengu.jpg",
    "name": "Skyborn Tengu",
    "permission": {
        "default": 0
    },
    "type": "feat"
}
