{
    "_id": "wGMVflH4t1UXrNn5",
    "data": {
        "actionCategory": {
            "value": ""
        },
        "actionType": {
            "value": "passive"
        },
        "actions": {
            "value": null
        },
        "description": {
            "chat": "",
            "unidentified": "",
            "value": "<p>You descend from fiends or bear the mark of the fiendish realms, manifesting as some unusual feature that belies your heritage, such as horns or a tail. You gain the tiefling trait, in addition to the traits from your ancestry. You also gain <a class=\"entity-link\" draggable=\"true\" data-pack=\"pf2e.ancestryfeatures\" data-id=\"DRtaqOHXTRtGRIUT\"> Low-Light Vision</a>, or you gain <a class=\"entity-link\" draggable=\"true\" data-pack=\"pf2e.ancestryfeatures\" data-id=\"HHVQDp61ehcpdiU8\"> Darkvision</a> if your ancestry already has low-light vision. You can choose from tiefling feats and feats from your ancestry whenever you gain an ancestry feat.</p>"
        },
        "featType": {
            "value": "ancestryfeature"
        },
        "level": {
            "value": "1"
        },
        "prerequisites": {
            "value": null
        },
        "rarity": {
            "value": "common"
        },
        "rules": [],
        "source": {
            "value": ""
        },
        "traits": {
            "custom": "",
            "rarity": {
                "value": "uncommon"
            },
            "value": [
                "tiefling"
            ]
        },
        "usage": {
            "value": "held-in-one-hand"
        }
    },
    "effects": [],
    "flags": {},
    "img": "systems/pf2e/icons/features/ancestry/tiefling.jpg",
    "name": "Tiefling",
    "permission": {
        "default": 0
    },
    "type": "feat"
}
