{
    "_id": "XBf4Uz3n0AwSmpXx",
    "data": {
        "actionCategory": {
            "value": ""
        },
        "actionType": {
            "value": "passive"
        },
        "actions": {
            "value": ""
        },
        "containerId": {
            "value": ""
        },
        "description": {
            "chat": "",
            "unidentified": "",
            "value": "<p><strong>[Generic]</strong></p>\n<p><strong>Prerequisites</strong><strong>:</strong> Tier 1 with the Vigilant Seal</p>\n<p><strong>Cost</strong>: 4 Fame</p>\n<p><strong>Effect</strong>: It doesn't matter how powerful your weapons are if you don't know where to strike. Before an adventure, you take time to study a certain category of creatures, making it easier to recall their capabilities later. When you purchase this boon, either select one creature type from <strong>List 1</strong> below, or choose two creature types from <strong>List 2</strong>. While this boon is slotted, you have a +1 circumstance bonus to <span style=\"text-decoration: underline;\">Recall Knowledge</span> about creatures of the selected type(s). If your Reputation Tier for the Vigilant Seal faction is 4, this bonus increases to +2.</p>\n<p><strong>List 1</strong></p>\n<ul>\n<li><a class=\"entity-link\" draggable=\"true\" data-pack=\"pf2e.actionspf2e\" data-id=\"B2BpIZFHoF9Kjzpx\"> Aberration</a>;</li>\n<li><a class=\"entity-link\" draggable=\"true\" data-pack=\"pf2e.actionspf2e\" data-id=\"eT1jXYvz2YH70Ovp\"> Animal</a>;</li>\n<li><a class=\"entity-link\" draggable=\"true\" data-pack=\"pf2e.actionspf2e\" data-id=\"eT1jXYvz2YH70Ovp\"> Beast (nature)</a> or <a class=\"entity-link\" draggable=\"true\" data-pack=\"pf2e.actionspf2e\" data-id=\"KygTSeDvsFoSO6HW\"> Beast (arcana)</a>;</li>\n<li><a class=\"entity-link\" draggable=\"true\" data-pack=\"pf2e.actionspf2e\" data-id=\"KygTSeDvsFoSO6HW\"> Construct (arcana)</a> or <a class=\"entity-link\" draggable=\"true\" data-pack=\"pf2e.actionspf2e\" data-id=\"B0Eu3EfwIa9kyDEA\"> Construct (crafting)</a>;</li>\n<li><a class=\"entity-link\" draggable=\"true\" data-pack=\"pf2e.actionspf2e\" data-id=\"KygTSeDvsFoSO6HW\"> Dragon</a>;</li>\n<li><a class=\"entity-link\" draggable=\"true\" data-pack=\"pf2e.actionspf2e\" data-id=\"KygTSeDvsFoSO6HW\"> Elemental (arcana)</a> or <a class=\"entity-link\" draggable=\"true\" data-pack=\"pf2e.actionspf2e\" data-id=\"eT1jXYvz2YH70Ovp\"> Elemental (nature)</a>;</li>\n<li><a class=\"entity-link\" draggable=\"true\" data-pack=\"pf2e.actionspf2e\" data-id=\"LZgjpWd0pL3vK9Q1\"> Fiend</a> or</li>\n<li><a class=\"entity-link\" draggable=\"true\" data-pack=\"pf2e.actionspf2e\" data-id=\"LZgjpWd0pL3vK9Q1\"> Undead</a>.</li>\n</ul>\n<p><strong>List 2</strong></p>\n<ul>\n<li><a class=\"entity-link\" draggable=\"true\" data-pack=\"pf2e.actionspf2e\" data-id=\"B2BpIZFHoF9Kjzpx\"> Astral</a>;</li>\n<li><a class=\"entity-link\" draggable=\"true\" data-pack=\"pf2e.actionspf2e\" data-id=\"LZgjpWd0pL3vK9Q1\"> Celestial</a>;</li>\n<li><a class=\"entity-link\" draggable=\"true\" data-pack=\"pf2e.actionspf2e\" data-id=\"B2BpIZFHoF9Kjzpx\"> Ethereal</a>;</li>\n<li><a class=\"entity-link\" draggable=\"true\" data-pack=\"pf2e.actionspf2e\" data-id=\"eT1jXYvz2YH70Ovp\"> Fey</a>;</li>\n<li><a class=\"entity-link\" draggable=\"true\" data-pack=\"pf2e.actionspf2e\" data-id=\"eT1jXYvz2YH70Ovp\"> Fungus</a>;</li>\n<li><a class=\"entity-link\" draggable=\"true\" data-pack=\"pf2e.actionspf2e\" data-id=\"KUfLlXDWTcAWhl8l\"> Giant</a>;</li>\n<li><a class=\"entity-link\" draggable=\"true\" data-pack=\"pf2e.actionspf2e\" data-id=\"LZgjpWd0pL3vK9Q1\"> Monitor</a>;</li>\n<li><a class=\"entity-link\" draggable=\"true\" data-pack=\"pf2e.actionspf2e\" data-id=\"B2BpIZFHoF9Kjzpx\"> Ooze</a> or</li>\n<li><a class=\"entity-link\" draggable=\"true\" data-pack=\"pf2e.actionspf2e\" data-id=\"eT1jXYvz2YH70Ovp\"> Plant</a>.</li>\n</ul>"
        },
        "featType": {
            "value": "pfsboon"
        },
        "level": {
            "value": "0"
        },
        "prerequisites": {
            "value": ""
        },
        "rarity": {
            "value": "common"
        },
        "source": {
            "value": ""
        },
        "traits": {
            "custom": "",
            "rarity": {
                "value": "common"
            },
            "selected": {},
            "value": []
        },
        "usage": {
            "value": "held-in-one-hand"
        }
    },
    "flags": {},
    "img": "systems/pf2e/icons/default-icons/mystery-man.png",
    "name": "Adversary Lore",
    "permission": {
        "default": 0
    },
    "type": "feat"
}
