{
    "_id": "wkgBg5UD3bChfl4b",
    "data": {
        "actionCategory": {
            "value": ""
        },
        "actionType": {
            "value": "free"
        },
        "actions": {
            "value": ""
        },
        "containerId": {
            "value": ""
        },
        "description": {
            "chat": "",
            "unidentified": "",
            "value": "<p><strong>[Heroic]</strong></p>\n<p><strong>Prerequisites:</strong> Tier 3 with the Grand Archive</p>\n<p><strong>Cost</strong>: 4 Fame</p>\n<p><strong>Effect</strong>: Desperate moments call for keen insight. You can <span style=\"text-decoration: underline;\">Recall Knowledge</span> as a free action, rolling the skill check twice and using the better result. This is a fortune effect.</p>\n<ul>\n<li>@Compendium[pf2e.actionspf2e.Recall Knowledge (Arcana)]{Recall Knowledge (Arcana)}</li>\n<li>@Compendium[pf2e.actionspf2e.Recall Knowledge (Crafting)]{Recall Knowledge (Crafting)}</li>\n<li>@Compendium[pf2e.actionspf2e.Recall Knowledge (Lore)]{Recall Knowledge (Lore)}</li>\n<li>@Compendium[pf2e.actionspf2e.Recall Knowledge (Medicine)]{Recall Knowledge (Medicine)}</li>\n<li>@Compendium[pf2e.actionspf2e.Recall Knowledge (Nature)]{Recall Knowledge (Nature)}</li>\n<li>@Compendium[pf2e.actionspf2e.Recall Knowledge (Occultism)]{Recall Knowledge (Occultism)}</li>\n<li>@Compendium[pf2e.actionspf2e.Recall Knowledge (Religion)]{Recall Knowledge (Religion)}</li>\n<li>@Compendium[pf2e.actionspf2e.Recall Knowledge (Society)]{Recall Knowledge (Society)}</li>\n</ul>"
        },
        "featType": {
            "value": "pfsboon"
        },
        "level": {
            "value": "0"
        },
        "prerequisites": {
            "value": ""
        },
        "rarity": {
            "value": "common"
        },
        "source": {
            "value": ""
        },
        "traits": {
            "custom": "",
            "rarity": {
                "value": "common"
            },
            "selected": {},
            "value": []
        },
        "usage": {
            "value": "held-in-one-hand"
        }
    },
    "flags": {},
    "img": "systems/pf2e/icons/default-icons/mystery-man.png",
    "name": "Heroic Recall",
    "permission": {
        "default": 0
    },
    "type": "feat"
}