{
    "_id": "95R55tdobViU7ZWe",
    "data": {
        "actionCategory": {
            "value": ""
        },
        "actionType": {
            "value": "passive"
        },
        "actions": {
            "value": ""
        },
        "containerId": {
            "value": ""
        },
        "description": {
            "chat": "",
            "unidentified": "",
            "value": "<p><strong>[Mentor][Social]</strong></p>\n<p><strong>Prerequisites:</strong> Tier 1 with the Grand Archive</p>\n<p><strong>Cost</strong>: 2 Fame</p>\n<p><strong>Effect</strong>: While working with less experienced Pathfinder allies, you provide key spellcasting insights that augment your colleagues' magic. Any PCs benefiting from a Level Bump and whose levels are lower than yours can prepare one additional spell of their highest-level spell slot or cast one additional spell of their highest-level spell slot. When casting spells of a magical tradition that is the same as the tradition you use for spellcasting, the affected PC also increases the Level Bump's modifier to spell DCs to 2.</p>\n<p><strong>Normal</strong>: A Level Bump increases a PC's spell DCs by 1, and it does not grant any additional spells prepared or spell slots.</p>\n<p><strong>Special</strong>: A PC can only benefit from two mentor boons.</p>"
        },
        "featType": {
            "value": "pfsboon"
        },
        "level": {
            "value": "0"
        },
        "prerequisites": {
            "value": ""
        },
        "rarity": {
            "value": "common"
        },
        "source": {
            "value": ""
        },
        "traits": {
            "custom": "",
            "rarity": {
                "value": "common"
            },
            "selected": {},
            "value": []
        },
        "usage": {
            "value": "held-in-one-hand"
        }
    },
    "flags": {},
    "img": "systems/pf2e/icons/default-icons/mystery-man.png",
    "name": "Mentor, Magical",
    "permission": {
        "default": 0
    },
    "type": "feat"
}
