{
    "_id": "vYSA5M9fgBdYiGLT",
    "data": {
        "actionCategory": {
            "value": ""
        },
        "actionType": {
            "value": "passive"
        },
        "actions": {
            "value": ""
        },
        "containerId": {
            "value": ""
        },
        "description": {
            "chat": "",
            "unidentified": "",
            "value": "<p><strong>[Mentor][Social]</strong></p>\n<p><strong>Prerequisites:</strong> Tier 1 with the Vigilant Seal</p>\n<p><strong>Cost</strong>: 2 Fame</p>\n<p><strong>Effect</strong>: While working with less experienced Pathfinder allies, you provide pointers and lead drills that ensure your newer colleagues' attacks strike true. For any PCs benefiting from a Level Bump and whose levels are lower than yours, you increase the Level Bump's modifier to attack rolls and spell attack rolls to 2.</p>\n<p><strong>Normal</strong>: A Level Bump increases a PC's attack roll and spell attack roll modifiers by 1.</p>\n<p><strong>Special</strong>: A PC can only benefit from two mentor boons.</p>"
        },
        "featType": {
            "value": "pfsboon"
        },
        "level": {
            "value": "0"
        },
        "prerequisites": {
            "value": ""
        },
        "rarity": {
            "value": "common"
        },
        "source": {
            "value": ""
        },
        "traits": {
            "custom": "",
            "rarity": {
                "value": "common"
            },
            "selected": {},
            "value": []
        },
        "usage": {
            "value": "held-in-one-hand"
        }
    },
    "flags": {},
    "img": "systems/pf2e/icons/default-icons/mystery-man.png",
    "name": "Mentor, Combat",
    "permission": {
        "default": 0
    },
    "type": "feat"
}
