{
    "_id": "p8TKPInhya6oab1w",
    "data": {
        "actionCategory": {
            "value": ""
        },
        "actionType": {
            "value": "passive"
        },
        "actions": {
            "value": ""
        },
        "containerId": {
            "value": ""
        },
        "description": {
            "chat": "",
            "unidentified": "",
            "value": "<p><strong>[Generic][Slotless]</strong></p>\n<p><strong>Effect</strong>: The Iolite Squad's reports on valuable Pathfinder skills have made it back to Oprak to be incorporated into their training regimens.</p>\n<p>You have gained access to the following background for all of your characters (include a copy of this Chronicle Sheet with any character who selects this background).</p>\n<p>@Compendium[pf2e.backgrounds.Iolite Trainee Hobgoblin]{Iolite Trainee Hobgoblin}</p>"
        },
        "featType": {
            "value": "pfsboon"
        },
        "level": {
            "value": "0"
        },
        "prerequisites": {
            "value": ""
        },
        "rarity": {
            "value": "common"
        },
        "source": {
            "value": ""
        },
        "traits": {
            "custom": "",
            "rarity": {
                "value": "common"
            },
            "selected": {},
            "value": []
        },
        "usage": {
            "value": "held-in-one-hand"
        }
    },
    "flags": {},
    "img": "systems/pf2e/icons/default-icons/mystery-man.png",
    "name": "S1-19 - Iolite Trainee Hobgoblin",
    "permission": {
        "default": 0
    },
    "type": "feat"
}