{
    "_id": "3lHqim7ttvoMmVXW",
    "data": {
        "actionCategory": {
            "value": ""
        },
        "actionType": {
            "value": "passive"
        },
        "actions": {
            "value": ""
        },
        "containerId": {
            "value": ""
        },
        "description": {
            "chat": "",
            "unidentified": "",
            "value": "<p><strong>[Service]</strong></p>\n<p><strong>Prerequisites:</strong> Tier 1 with any faction</p>\n<p><strong>Cost</strong>: 0 Fame</p>\n<p><strong>Effect</strong>: You can return previously purchased boons whose Fame cost is less than or equal to 2 times your Reputation Tier for All Factions so long as the boon is does not have the faction, limited-use, or service traits. You immediately gain an amount of Fame equal to the total Fame cost of the returned boon minus 1.</p>"
        },
        "featType": {
            "value": "pfsboon"
        },
        "level": {
            "value": "0"
        },
        "prerequisites": {
            "value": ""
        },
        "rarity": {
            "value": "common"
        },
        "source": {
            "value": ""
        },
        "traits": {
            "custom": "",
            "rarity": {
                "value": "common"
            },
            "selected": {},
            "value": []
        },
        "usage": {
            "value": "held-in-one-hand"
        }
    },
    "flags": {},
    "img": "systems/pf2e/icons/default-icons/mystery-man.png",
    "name": "Sellback Plan",
    "permission": {
        "default": 0
    },
    "type": "feat"
}
