{
    "_id": "Oia1kqkF4KwdVVaw",
    "content": "<p><span id=\"ctl00_MainContent_DetailedOutput\"><em>Deities work their will upon the world in infinite ways, and you serve as one of their most stalwart mortal servants. Blessed with divine magic, you live the ideals of your faith, adorn yourself with the symbols of your church, and train diligently to wield your deity's favored weapon. Your spells might protect and heal your allies, or they might punish foes and enemies of your faith, as your deity wills. Yours is a life of devotion, spreading the teachings of your faith through both word and deed.</em><br /><br /><strong>Key Ability: WISDOM</strong><br />At 1st level, your class gives you an ability boost to Wisdom.<br /><br /><strong>Hit Points: 8 plus your Constitution modifier</strong><br />You increase your maximum number of HP by this number at 1st level and every level thereafter.<br /></span></p>\n<h1 class=\"title\">Roleplaying the Cleric</h1>\n<h2 class=\"title\">During Combat Encounters...</h2>\n<p>If you're a warpriest, you balance between casting spells and attacking with weapons- typically the favored weapon of your deity. If you're a cloistered cleric, you primarily cast spells. Most of your spells can boost, protect, or heal your allies. Depending on your deity, you get extra spells to heal your allies or harm your enemies.</p>\n<h2 class=\"title\">During Social Encounters...</h2>\n<p>You might make diplomatic overtures or deliver impressive speeches. Because you're wise, you also pick up on falsehoods others tell.</p>\n<h2 class=\"title\">While Exploring...</h2>\n<p>You detect nearby magic and interpret any religious writing you come across. You might also concentrate on a protective spell for your allies in case of attack. After a battle or hazard, you might heal anyone who was hurt.</p>\n<h2 class=\"title\">In Downtime...</h2>\n<p>You might perform services at a temple, travel to spread the word of your deity, research scripture, celebrate holy days, or even found a new temple.</p>\n<h2 class=\"title\">You Might...</h2>\n<ul>\n<li>Visit the temples and holy places sacred to your faith, and have an immediate affinity with other worshippers of your deity.</li>\n<li>Know the teachings of your religion's holy texts and how they apply to a dilemma.</li>\n<li>Cooperate with your allies, provided they don't ask you to go against divine will.</li>\n</ul>\n<h2 class=\"title\">Others Probably...</h2>\n<ul>\n<li>Find your devotion impressive, even if they don't understand it.</li>\n<li>Expect you to heal their wounds.</li>\n<li>Rely on you to interact with other religious figures.</li>\n</ul>\n<h1 class=\"title\">Initial Proficiencies</h1>\n<p>At 1st level, you gain the listed proficiency ranks in the following statistics. You are untrained in anything not listed unless you gain a better proficiency rank in some other way.</p>\n<h2 class=\"title\">Perception</h2>\n<p>Trained in Perception</p>\n<h2 class=\"title\">Saving Throws</h2>\n<p>Trained in Fortitude<br />Trained in Reflex<br />Expert in Will</p>\n<h2 class=\"title\">Skills</h2>\n<p>Trained in Religion<br />Trained in one skill determined by your choice of deity<br />Trained in a number of additional skills equal to 2 plus your Intelligence modifier</p>\n<h2 class=\"title\">Attacks</h2>\n<p>Trained in simple weapons<br />Trained in the favored weapon of your deity. If your deity's favored weapon is uncommon, you also gain access to that weapon.<br />Trained in unarmed attacks</p>\n<h2 class=\"title\">Defenses</h2>\n<p>Untrained in all armor, though your doctrine might alter this<br />Trained in unarmored defense</p>\n<h2 class=\"title\">Spells</h2>\n<p>Trained in divine spell attacks<br />Trained in divine spell DCs</p>\n<h1 class=\"title\">Class Features</h1>\n<p>You gain these features as a Cleric. Abilities gained at higher levels list the levels at which you gain them next to the features' names.</p>\n<table style=\"box-sizing: border-box; user-select: text; width: 901px; color: #191813; height: 359px;\" border=\"1\">\n<tbody style=\"box-sizing: border-box; user-select: text;\">\n<tr style=\"box-sizing: border-box; user-select: text; height: 17px;\">\n<td style=\"box-sizing: border-box; user-select: text; color: white; height: 17px; width: 59px; text-align: center; background-color: #522e2c;\"><strong style=\"box-sizing: border-box; user-select: text;\">Your Leve</strong>l</td>\n<td style=\"box-sizing: border-box; user-select: text; color: white; height: 17px; width: 835px; text-align: center; background-color: #522e2c;\"><strong style=\"box-sizing: border-box; user-select: text;\">Class Features</strong></td>\n</tr>\n<tr style=\"box-sizing: border-box; user-select: text; height: 17px;\">\n<td style=\"box-sizing: border-box; user-select: text; height: 17px; width: 59px; text-align: center; background-color: #f6f1e1;\">1</td>\n<td style=\"box-sizing: border-box; user-select: text; height: 17px; width: 835px; text-align: center; background-color: #f6f1e1;\"><span id=\"ctl00_MainContent_DetailedOutput\">Ancestry and background, initial proficiencies, deity, divine spellcasting, divine font, doctrine</span></td>\n</tr>\n<tr style=\"box-sizing: border-box; user-select: text; height: 17px;\">\n<td style=\"box-sizing: border-box; user-select: text; height: 17px; width: 59px; text-align: center; background-color: #eee5c8;\">2</td>\n<td style=\"box-sizing: border-box; user-select: text; height: 17px; width: 835px; text-align: center; background-color: #eee5c8;\"><span id=\"ctl00_MainContent_DetailedOutput\">Cleric feat, skill feat</span></td>\n</tr>\n<tr style=\"box-sizing: border-box; user-select: text; height: 17px;\">\n<td style=\"box-sizing: border-box; user-select: text; height: 17px; width: 59px; text-align: center; background-color: #f6f1e1;\">3</td>\n<td style=\"box-sizing: border-box; user-select: text; height: 17px; width: 835px; text-align: center; background-color: #f6f1e1;\"><span id=\"ctl00_MainContent_DetailedOutput\">2nd-level spells, general feat, second doctrine, skill increase</span></td>\n</tr>\n<tr style=\"box-sizing: border-box; user-select: text; height: 19px;\">\n<td style=\"box-sizing: border-box; user-select: text; height: 19px; width: 59px; text-align: center; background-color: #eee5c8;\">4</td>\n<td style=\"box-sizing: border-box; user-select: text; height: 19px; width: 835px; text-align: center; background-color: #eee5c8;\"><span id=\"ctl00_MainContent_DetailedOutput\">Cleric feat, skill feat</span></td>\n</tr>\n<tr style=\"box-sizing: border-box; user-select: text; height: 17px;\">\n<td style=\"box-sizing: border-box; user-select: text; height: 17px; width: 59px; text-align: center; background-color: #f6f1e1;\">5</td>\n<td style=\"box-sizing: border-box; user-select: text; height: 17px; width: 835px; text-align: center; background-color: #f6f1e1;\"><span id=\"ctl00_MainContent_DetailedOutput\">3rd-level spells, ability boosts, alertness, ancestry feat, skill increase</span></td>\n</tr>\n<tr style=\"box-sizing: border-box; user-select: text; height: 17px;\">\n<td style=\"box-sizing: border-box; user-select: text; height: 17px; width: 59px; text-align: center; background-color: #eee5c8;\">6</td>\n<td style=\"box-sizing: border-box; user-select: text; height: 17px; width: 835px; text-align: center; background-color: #eee5c8;\"><span id=\"ctl00_MainContent_DetailedOutput\">Cleric feat, skill feat</span></td>\n</tr>\n<tr style=\"box-sizing: border-box; user-select: text; height: 17px;\">\n<td style=\"box-sizing: border-box; user-select: text; height: 17px; width: 59px; text-align: center; background-color: #f6f1e1;\">7</td>\n<td style=\"box-sizing: border-box; user-select: text; height: 17px; width: 835px; text-align: center; background-color: #f6f1e1;\"><span id=\"ctl00_MainContent_DetailedOutput\">4th-level spells, general feat, skill increase, third doctrine</span></td>\n</tr>\n<tr style=\"box-sizing: border-box; user-select: text; height: 17px;\">\n<td style=\"box-sizing: border-box; user-select: text; height: 17px; width: 59px; text-align: center; background-color: #eee5c8;\">8</td>\n<td style=\"box-sizing: border-box; user-select: text; height: 17px; width: 835px; text-align: center; background-color: #eee5c8;\"><span id=\"ctl00_MainContent_DetailedOutput\">Cleric feat, skill feat</span></td>\n</tr>\n<tr style=\"box-sizing: border-box; user-select: text; height: 17px;\">\n<td style=\"box-sizing: border-box; user-select: text; height: 17px; width: 59px; text-align: center; background-color: #f6f1e1;\">9</td>\n<td style=\"box-sizing: border-box; user-select: text; height: 17px; width: 835px; text-align: center; background-color: #f6f1e1;\"><span id=\"ctl00_MainContent_DetailedOutput\">5th-level spells, ancestry feat, resolve, skill increase</span></td>\n</tr>\n<tr style=\"box-sizing: border-box; user-select: text; height: 17px;\">\n<td style=\"box-sizing: border-box; user-select: text; width: 59px; height: 17px; text-align: center; background-color: #eee5c8;\">10</td>\n<td style=\"box-sizing: border-box; user-select: text; width: 835px; height: 17px; text-align: center; background-color: #eee5c8;\"><span id=\"ctl00_MainContent_DetailedOutput\">Ability boosts, cleric feat, skill feat</span></td>\n</tr>\n<tr style=\"box-sizing: border-box; user-select: text; height: 17px;\">\n<td style=\"box-sizing: border-box; user-select: text; width: 59px; height: 17px; text-align: center; background-color: #f6f1e1;\">11</td>\n<td style=\"box-sizing: border-box; user-select: text; width: 835px; height: 17px; text-align: center; background-color: #f6f1e1;\"><span id=\"ctl00_MainContent_DetailedOutput\">6th-level spells, fourth doctrine, general feat, lightning reflexes, skill increase</span></td>\n</tr>\n<tr style=\"box-sizing: border-box; user-select: text; height: 17px;\">\n<td style=\"box-sizing: border-box; user-select: text; width: 59px; height: 17px; text-align: center; background-color: #eee5c8;\">12</td>\n<td style=\"box-sizing: border-box; user-select: text; width: 835px; height: 17px; text-align: center; background-color: #eee5c8;\"><span id=\"ctl00_MainContent_DetailedOutput\">Cleric feat, skill feat</span></td>\n</tr>\n<tr style=\"box-sizing: border-box; user-select: text; height: 17px;\">\n<td style=\"box-sizing: border-box; user-select: text; width: 59px; height: 17px; text-align: center; background-color: #f6f1e1;\">13</td>\n<td style=\"box-sizing: border-box; user-select: text; width: 835px; height: 17px; text-align: center; background-color: #f6f1e1;\"><span id=\"ctl00_MainContent_DetailedOutput\">7th-level spells, ancestry feat, divine defense, skill increase, weapon specialization</span></td>\n</tr>\n<tr style=\"box-sizing: border-box; user-select: text; height: 17px;\">\n<td style=\"box-sizing: border-box; user-select: text; width: 59px; height: 17px; text-align: center; background-color: #eee5c8;\">14</td>\n<td style=\"box-sizing: border-box; user-select: text; width: 835px; height: 17px; text-align: center; background-color: #eee5c8;\"><span id=\"ctl00_MainContent_DetailedOutput\">Cleric feat, skill feat</span></td>\n</tr>\n<tr style=\"box-sizing: border-box; user-select: text; height: 17px;\">\n<td style=\"box-sizing: border-box; user-select: text; width: 59px; height: 17px; text-align: center; background-color: #f6f1e1;\">15</td>\n<td style=\"box-sizing: border-box; user-select: text; width: 835px; height: 17px; text-align: center; background-color: #f6f1e1;\"><span id=\"ctl00_MainContent_DetailedOutput\">8th-level spells, ability boosts, fifth doctrine, general feat, skill increase</span></td>\n</tr>\n<tr style=\"box-sizing: border-box; user-select: text; height: 17px;\">\n<td style=\"box-sizing: border-box; user-select: text; width: 59px; height: 17px; text-align: center; background-color: #eee5c8;\">16</td>\n<td style=\"box-sizing: border-box; user-select: text; width: 835px; height: 17px; text-align: center; background-color: #eee5c8;\"><span id=\"ctl00_MainContent_DetailedOutput\">Cleric feat, skill feat</span></td>\n</tr>\n<tr style=\"box-sizing: border-box; user-select: text; height: 17px;\">\n<td style=\"box-sizing: border-box; user-select: text; width: 59px; height: 17px; text-align: center; background-color: #f6f1e1;\">17</td>\n<td style=\"box-sizing: border-box; user-select: text; width: 835px; height: 17px; text-align: center; background-color: #f6f1e1;\"><span id=\"ctl00_MainContent_DetailedOutput\">9th-level spells, ancestry feat, skill increase</span></td>\n</tr>\n<tr style=\"box-sizing: border-box; user-select: text; height: 17px;\">\n<td style=\"box-sizing: border-box; user-select: text; width: 59px; height: 17px; text-align: center; background-color: #eee5c8;\">18</td>\n<td style=\"box-sizing: border-box; user-select: text; width: 835px; height: 17px; text-align: center; background-color: #eee5c8;\"><span id=\"ctl00_MainContent_DetailedOutput\">Cleric feat, skill feat</span></td>\n</tr>\n<tr style=\"box-sizing: border-box; user-select: text; height: 17px;\">\n<td style=\"box-sizing: border-box; user-select: text; width: 59px; height: 17px; text-align: center; background-color: #f6f1e1;\">19</td>\n<td style=\"box-sizing: border-box; user-select: text; width: 835px; height: 17px; text-align: center; background-color: #f6f1e1;\"><span id=\"ctl00_MainContent_DetailedOutput\">Final doctrine, general feat, miraculous spell, skill increase</span></td>\n</tr>\n<tr style=\"box-sizing: border-box; user-select: text; height: 17px;\">\n<td style=\"box-sizing: border-box; user-select: text; width: 59px; text-align: center; height: 17px; background-color: #eee5c8;\">20</td>\n<td style=\"box-sizing: border-box; user-select: text; width: 835px; text-align: center; height: 17px; background-color: #eee5c8;\"><span id=\"ctl00_MainContent_DetailedOutput\">Ability boosts, cleric feat, skill feat</span></td>\n</tr>\n</tbody>\n</table>\n<p style=\"box-sizing: border-box; user-select: text; color: #191813;\"></p>\n<h2 class=\"title\">Ancestry and Background</h2>\n<p>In addition to the abilities provided by your class at 1st level, you have the benefits of your selected ancestry and background, as described in Chapter 2.</p>\n<h2 class=\"title\">Deity</h2>\n<p>As a cleric, you are a mortal servitor of a deity you revere above all others. The most common deities in Pathfinder appear on pages 437-440, along with their alignments, areas of concern, and the benefits you get for being a cleric of that deity. Your alignment must be one allowed by your deity, as listed in their entry. Your deity grants you the trained proficiency rank in one skill and with the deity's favored weapon. If the favored weapon is uncommon, you also get access to that weapon.</p>\n<p>Your deity also adds spells to your spell list. You can prepare these just like you can any spell on the divine spell list, once you can prepare spells of their level as a cleric. Some of these spells aren't normally on the divine list, but they're divine spells if you prepare them this way.</p>\n<p>A list of all deities can be found in the Deities compendium.</p>\n<h3 class=\"title\"><strong>Anathema</strong></h3>\n<p><span id=\"ctl00_MainContent_DetailedOutput\">Acts fundamentally opposed to your deity's alignment or ideals are anathema to your faith. Learning or casting spells, committing acts, and using items that are anathema to your deity remove you from your deity's good graces.<br /></span></p>\n<p><span id=\"ctl00_MainContent_DetailedOutput\">Casting spells with the evil trait is almost always anathema to good deities, and casting good spells is likewise anathema to evil deities; similarly, casting chaotic spells is anathema to lawful deities, and casting lawful spells is anathema to chaotic deities. A neutral cleric who worships a neutral deity isn't limited this way, but their alignment might change over time if they frequently cast spells or use abilities with a certain alignment. Similarly, casting spells that are anathema to the tenets or goals of your faith could interfere with your connection to your deity. For example, casting a spell to create undead would be anathema to @Compendium[pf2e.deities.Pharasma]{Pharasma}, the goddess of death. For borderline cases, you and your GM determine which acts are anathema.<br /></span></p>\n<p><span id=\"ctl00_MainContent_DetailedOutput\">If you perform enough acts that are anathema to your deity, or if your alignment changes to one not allowed by your deity, you lose the magical abilities that come from your connection to your deity. The class features that you lose are determined by the GM, but they likely include your divine font and all divine spellcasting. These abilities can be regained only if you demonstrate your repentance by conducting an @Compendium[pf2e.spells-srd.Atone]{Atone} ritual.</span></p>\n<p style=\"box-sizing: border-box; user-select: text; color: #191813;\"></p>\n<h2 class=\"title\">Divine Font</h2>\n<p><span id=\"ctl00_MainContent_DetailedOutput\">Through your deity's blessing, you gain additional spells that channel either the life force called positive energy or its counterforce, negative energy. When you prepare your spells each day, you can prepare additional @Compendium[pf2e.spells-srd.Heal]{Heal} or @Compendium[pf2e.spells-srd.Harm]{Harm} spells, depending on your deity. The divine font spell your deity provides is listed in the Divine Font entry for your deity on pages 437-440; if both are listed, you can choose between <em>heal</em> or <em>harm</em>. Once you choose, you can't change your choice short of an ethical shift or divine intervention.<br /></span></p>\n<p><span id=\"ctl00_MainContent_DetailedOutput\"><strong>Healing Font</strong>: You gain additional spell slots each day at your highest level of cleric spell slots. You can prepare only <em>heal</em> spells (page 343) in these slots, and the number of slots is equal to 1 plus your Charisma modifier.<br /></span></p>\n<p><span id=\"ctl00_MainContent_DetailedOutput\"><strong>Harmful Font</strong>: You gain additional spell slots each day at your highest level of cleric spell slots. You can prepare only <em>harm</em> spells (page 343) in these slots, and the number of slots is equal to 1 plus your Charisma modifier.<br /></span></p>\n<h2 class=\"title\">Divine Spellcasting</h2>\n<p>Your deity bestows on you the power to cast divine spells. You can cast divine spells using the Cast a Spell activity, and you can supply material, somatic, and verbal components when casting spells (see Casting Spells on page 302). Because you're a cleric, you can usually hold a divine focus (such as a religious symbol) for spells requiring material components instead of needing to use a spell component pouch.</p>\n<p>At 1st level, you can prepare two 1st-level spells and five cantrips each morning from the common spells on the divine spell list in this book (page 309) or from other divine spells to which you gain access. Prepared spells remain available to you until you cast them or until you prepare your spells again. The number of spells you can prepare is called your spell slots.</p>\n<p>As you increase in level as a cleric, the number of spells you can prepare each day increases, as does the highest level of spell you can cast, as shown in Table 3-9: Cleric Spells per Day on page 120.</p>\n<p>Some of your spells require you to attempt a spell attack roll to see how effective they are, or your enemies to roll against your spell DC (typically by attempting a saving throw). Since your key ability is Wisdom, your spell attack rolls and spell DCs use your Wisdom modifier. Details on calculating these statistics appear on page 447.</p>\n<h3 class=\"title\"><strong>Heightening Spells</strong></h3>\n<p>When you get spell slots of 2nd level and higher, you can fill those slots with stronger versions of lower-level spells. This increases the spell's level, heightening it to match the spell slot. Many spells have specific improvements when they are heightened to certain levels.</p>\n<h3 class=\"title\"><strong>Cantrips</strong></h3>\n<p>A cantrip is a special type of spell that doesn't use spell slots. You can cast a cantrip at will, any number of times per day. A cantrip is always automatically heightened to half your level rounded up-this is usually equal to the highest level of spell you can cast as a cleric. For example, as a 1st-level cleric, your cantrips are 1st-level spells, and as a 5th-level cleric, your cantrips are 3rd-level spells.</p>\n<table style=\"box-sizing: border-box; user-select: text; width: 1001px; color: #191813; height: 396px;\" border=\"1\">\n<tbody style=\"box-sizing: border-box; user-select: text;\">\n<tr style=\"box-sizing: border-box; user-select: text; height: 17px;\">\n<td style=\"box-sizing: border-box; user-select: text; color: white; width: 139px; height: 17px; background-color: #522e2c; text-align: center;\"><span id=\"ctl00_MainContent_DetailedOutput\" style=\"box-sizing: border-box; user-select: text;\"><strong style=\"box-sizing: border-box; user-select: text;\">Your Level</strong></span></td>\n<td style=\"box-sizing: border-box; user-select: text; color: white; height: 17px; background-color: #522e2c; text-align: center; width: 171px;\"><strong style=\"box-sizing: border-box; user-select: text;\">Cantrips</strong></td>\n<td style=\"box-sizing: border-box; user-select: text; color: white; width: 68px; height: 17px; background-color: #522e2c; text-align: center;\"><strong style=\"box-sizing: border-box; user-select: text;\">1st</strong></td>\n<td style=\"box-sizing: border-box; user-select: text; color: white; width: 69px; height: 17px; background-color: #522e2c; text-align: center;\"><strong style=\"box-sizing: border-box; user-select: text;\">2nd</strong></td>\n<td style=\"box-sizing: border-box; user-select: text; color: white; width: 68px; height: 17px; background-color: #522e2c; text-align: center;\"><strong style=\"box-sizing: border-box; user-select: text;\">3rd</strong></td>\n<td style=\"box-sizing: border-box; user-select: text; color: white; width: 68px; height: 17px; background-color: #522e2c; text-align: center;\"><strong style=\"box-sizing: border-box; user-select: text;\">4th</strong></td>\n<td style=\"box-sizing: border-box; user-select: text; color: white; width: 68px; height: 17px; background-color: #522e2c; text-align: center;\"><strong style=\"box-sizing: border-box; user-select: text;\">5th</strong></td>\n<td style=\"box-sizing: border-box; user-select: text; color: white; width: 68px; height: 17px; background-color: #522e2c; text-align: center;\"><strong style=\"box-sizing: border-box; user-select: text;\">6th</strong></td>\n<td style=\"box-sizing: border-box; user-select: text; color: white; width: 69px; height: 17px; background-color: #522e2c; text-align: center;\"><strong style=\"box-sizing: border-box; user-select: text;\">7th</strong></td>\n<td style=\"box-sizing: border-box; user-select: text; color: white; width: 69px; height: 17px; background-color: #522e2c; text-align: center;\"><strong style=\"box-sizing: border-box; user-select: text;\">8th</strong></td>\n<td style=\"box-sizing: border-box; user-select: text; color: white; width: 69px; height: 17px; background-color: #522e2c; text-align: center;\"><strong style=\"box-sizing: border-box; user-select: text;\">9th</strong></td>\n<td style=\"box-sizing: border-box; user-select: text; color: white; width: 74px; height: 17px; background-color: #522e2c; text-align: center;\"><strong style=\"box-sizing: border-box; user-select: text;\">10th</strong></td>\n</tr>\n<tr style=\"box-sizing: border-box; user-select: text; height: 17px;\">\n<td style=\"box-sizing: border-box; user-select: text; width: 139px; height: 17px; background-color: #f6f1e1; text-align: center;\">1</td>\n<td style=\"box-sizing: border-box; user-select: text; width: 171px; height: 17px; background-color: #f6f1e1; text-align: center;\">5</td>\n<td style=\"box-sizing: border-box; user-select: text; width: 68px; height: 17px; background-color: #f6f1e1; text-align: center;\">2*</td>\n<td style=\"box-sizing: border-box; user-select: text; width: 69px; height: 17px; background-color: #f6f1e1; text-align: center;\"><span id=\"ctl00_MainContent_DetailedOutput\" style=\"box-sizing: border-box; user-select: text;\">-</span></td>\n<td style=\"box-sizing: border-box; user-select: text; width: 68px; height: 17px; background-color: #f6f1e1; text-align: center;\"><span id=\"ctl00_MainContent_DetailedOutput\" style=\"box-sizing: border-box; user-select: text;\">-</span></td>\n<td style=\"box-sizing: border-box; user-select: text; width: 68px; height: 17px; background-color: #f6f1e1; text-align: center;\"><span id=\"ctl00_MainContent_DetailedOutput\" style=\"box-sizing: border-box; user-select: text;\">-</span></td>\n<td style=\"box-sizing: border-box; user-select: text; width: 68px; height: 17px; background-color: #f6f1e1; text-align: center;\"><span id=\"ctl00_MainContent_DetailedOutput\" style=\"box-sizing: border-box; user-select: text;\">-</span></td>\n<td style=\"box-sizing: border-box; user-select: text; width: 68px; height: 17px; background-color: #f6f1e1; text-align: center;\"><span id=\"ctl00_MainContent_DetailedOutput\" style=\"box-sizing: border-box; user-select: text;\">-</span></td>\n<td style=\"box-sizing: border-box; user-select: text; width: 69px; height: 17px; background-color: #f6f1e1; text-align: center;\"><span id=\"ctl00_MainContent_DetailedOutput\" style=\"box-sizing: border-box; user-select: text;\">-</span></td>\n<td style=\"box-sizing: border-box; user-select: text; width: 69px; height: 17px; background-color: #f6f1e1; text-align: center;\"><span id=\"ctl00_MainContent_DetailedOutput\" style=\"box-sizing: border-box; user-select: text;\">-</span></td>\n<td style=\"box-sizing: border-box; user-select: text; width: 69px; height: 17px; background-color: #f6f1e1; text-align: center;\"><span id=\"ctl00_MainContent_DetailedOutput\" style=\"box-sizing: border-box; user-select: text;\">-</span></td>\n<td style=\"box-sizing: border-box; user-select: text; width: 74px; height: 17px; background-color: #f6f1e1; text-align: center;\"><span id=\"ctl00_MainContent_DetailedOutput\" style=\"box-sizing: border-box; user-select: text;\">-</span></td>\n</tr>\n<tr style=\"box-sizing: border-box; user-select: text; height: 17px;\">\n<td style=\"box-sizing: border-box; user-select: text; width: 139px; background-color: #eee5c8; height: 17px; text-align: center;\">2</td>\n<td style=\"box-sizing: border-box; user-select: text; width: 171px; background-color: #eee5c8; height: 17px; text-align: center;\">5</td>\n<td style=\"box-sizing: border-box; user-select: text; width: 68px; background-color: #eee5c8; height: 17px; text-align: center;\">3*</td>\n<td style=\"box-sizing: border-box; user-select: text; width: 69px; background-color: #eee5c8; height: 17px; text-align: center;\"><span id=\"ctl00_MainContent_DetailedOutput\" style=\"box-sizing: border-box; user-select: text;\">-</span></td>\n<td style=\"box-sizing: border-box; user-select: text; width: 68px; background-color: #eee5c8; height: 17px; text-align: center;\"><span id=\"ctl00_MainContent_DetailedOutput\" style=\"box-sizing: border-box; user-select: text;\">-</span></td>\n<td style=\"box-sizing: border-box; user-select: text; width: 68px; background-color: #eee5c8; height: 17px; text-align: center;\"><span id=\"ctl00_MainContent_DetailedOutput\" style=\"box-sizing: border-box; user-select: text;\">-</span></td>\n<td style=\"box-sizing: border-box; user-select: text; width: 68px; background-color: #eee5c8; height: 17px; text-align: center;\"><span id=\"ctl00_MainContent_DetailedOutput\" style=\"box-sizing: border-box; user-select: text;\">-</span></td>\n<td style=\"box-sizing: border-box; user-select: text; width: 68px; background-color: #eee5c8; height: 17px; text-align: center;\"><span id=\"ctl00_MainContent_DetailedOutput\" style=\"box-sizing: border-box; user-select: text;\">-</span></td>\n<td style=\"box-sizing: border-box; user-select: text; width: 69px; background-color: #eee5c8; height: 17px; text-align: center;\"><span id=\"ctl00_MainContent_DetailedOutput\" style=\"box-sizing: border-box; user-select: text;\">-</span></td>\n<td style=\"box-sizing: border-box; user-select: text; width: 69px; background-color: #eee5c8; height: 17px; text-align: center;\"><span id=\"ctl00_MainContent_DetailedOutput\" style=\"box-sizing: border-box; user-select: text;\">-</span></td>\n<td style=\"box-sizing: border-box; user-select: text; width: 69px; background-color: #eee5c8; height: 17px; text-align: center;\"><span id=\"ctl00_MainContent_DetailedOutput\" style=\"box-sizing: border-box; user-select: text;\">-</span></td>\n<td style=\"box-sizing: border-box; user-select: text; width: 74px; background-color: #eee5c8; height: 17px; text-align: center;\"><span id=\"ctl00_MainContent_DetailedOutput\" style=\"box-sizing: border-box; user-select: text;\">-</span></td>\n</tr>\n<tr style=\"box-sizing: border-box; user-select: text; height: 17px;\">\n<td style=\"box-sizing: border-box; user-select: text; width: 139px; background-color: #f6f1e1; height: 17px; text-align: center;\">3</td>\n<td style=\"box-sizing: border-box; user-select: text; width: 171px; background-color: #f6f1e1; height: 17px; text-align: center;\">5</td>\n<td style=\"box-sizing: border-box; user-select: text; width: 68px; background-color: #f6f1e1; height: 17px; text-align: center;\">3</td>\n<td style=\"box-sizing: border-box; user-select: text; width: 69px; background-color: #f6f1e1; height: 17px; text-align: center;\">2*</td>\n<td style=\"box-sizing: border-box; user-select: text; width: 68px; background-color: #f6f1e1; height: 17px; text-align: center;\"><span id=\"ctl00_MainContent_DetailedOutput\" style=\"box-sizing: border-box; user-select: text;\">-</span></td>\n<td style=\"box-sizing: border-box; user-select: text; width: 68px; background-color: #f6f1e1; height: 17px; text-align: center;\"><span id=\"ctl00_MainContent_DetailedOutput\" style=\"box-sizing: border-box; user-select: text;\">-</span></td>\n<td style=\"box-sizing: border-box; user-select: text; width: 68px; background-color: #f6f1e1; height: 17px; text-align: center;\"><span id=\"ctl00_MainContent_DetailedOutput\" style=\"box-sizing: border-box; user-select: text;\">-</span></td>\n<td style=\"box-sizing: border-box; user-select: text; width: 68px; background-color: #f6f1e1; height: 17px; text-align: center;\"><span id=\"ctl00_MainContent_DetailedOutput\" style=\"box-sizing: border-box; user-select: text;\">-</span></td>\n<td style=\"box-sizing: border-box; user-select: text; width: 69px; background-color: #f6f1e1; height: 17px; text-align: center;\"><span id=\"ctl00_MainContent_DetailedOutput\" style=\"box-sizing: border-box; user-select: text;\">-</span></td>\n<td style=\"box-sizing: border-box; user-select: text; width: 69px; background-color: #f6f1e1; height: 17px; text-align: center;\"><span id=\"ctl00_MainContent_DetailedOutput\" style=\"box-sizing: border-box; user-select: text;\">-</span></td>\n<td style=\"box-sizing: border-box; user-select: text; width: 69px; background-color: #f6f1e1; height: 17px; text-align: center;\"><span id=\"ctl00_MainContent_DetailedOutput\" style=\"box-sizing: border-box; user-select: text;\">-</span></td>\n<td style=\"box-sizing: border-box; user-select: text; width: 74px; background-color: #f6f1e1; height: 17px; text-align: center;\"><span id=\"ctl00_MainContent_DetailedOutput\" style=\"box-sizing: border-box; user-select: text;\">-</span></td>\n</tr>\n<tr style=\"box-sizing: border-box; user-select: text; height: 17px;\">\n<td style=\"box-sizing: border-box; user-select: text; width: 139px; background-color: #eee5c8; height: 17px; text-align: center;\">4</td>\n<td style=\"box-sizing: border-box; user-select: text; width: 171px; background-color: #eee5c8; height: 17px; text-align: center;\">5</td>\n<td style=\"box-sizing: border-box; user-select: text; width: 68px; background-color: #eee5c8; height: 17px; text-align: center;\">3</td>\n<td style=\"box-sizing: border-box; user-select: text; width: 69px; background-color: #eee5c8; height: 17px; text-align: center;\">3*</td>\n<td style=\"box-sizing: border-box; user-select: text; width: 68px; background-color: #eee5c8; height: 17px; text-align: center;\"><span id=\"ctl00_MainContent_DetailedOutput\" style=\"box-sizing: border-box; user-select: text;\">-</span></td>\n<td style=\"box-sizing: border-box; user-select: text; width: 68px; background-color: #eee5c8; height: 17px; text-align: center;\"><span id=\"ctl00_MainContent_DetailedOutput\" style=\"box-sizing: border-box; user-select: text;\">-</span></td>\n<td style=\"box-sizing: border-box; user-select: text; width: 68px; background-color: #eee5c8; height: 17px; text-align: center;\"><span id=\"ctl00_MainContent_DetailedOutput\" style=\"box-sizing: border-box; user-select: text;\">-</span></td>\n<td style=\"box-sizing: border-box; user-select: text; width: 68px; background-color: #eee5c8; height: 17px; text-align: center;\"><span id=\"ctl00_MainContent_DetailedOutput\" style=\"box-sizing: border-box; user-select: text;\">-</span></td>\n<td style=\"box-sizing: border-box; user-select: text; width: 69px; background-color: #eee5c8; height: 17px; text-align: center;\"><span id=\"ctl00_MainContent_DetailedOutput\" style=\"box-sizing: border-box; user-select: text;\">-</span></td>\n<td style=\"box-sizing: border-box; user-select: text; width: 69px; background-color: #eee5c8; height: 17px; text-align: center;\"><span id=\"ctl00_MainContent_DetailedOutput\" style=\"box-sizing: border-box; user-select: text;\">-</span></td>\n<td style=\"box-sizing: border-box; user-select: text; width: 69px; background-color: #eee5c8; height: 17px; text-align: center;\"><span id=\"ctl00_MainContent_DetailedOutput\" style=\"box-sizing: border-box; user-select: text;\">-</span></td>\n<td style=\"box-sizing: border-box; user-select: text; width: 74px; background-color: #eee5c8; height: 17px; text-align: center;\"><span id=\"ctl00_MainContent_DetailedOutput\" style=\"box-sizing: border-box; user-select: text;\">-</span></td>\n</tr>\n<tr style=\"box-sizing: border-box; user-select: text; height: 17px;\">\n<td style=\"box-sizing: border-box; user-select: text; width: 139px; background-color: #f6f1e1; height: 17px; text-align: center;\">5</td>\n<td style=\"box-sizing: border-box; user-select: text; width: 171px; background-color: #f6f1e1; height: 17px; text-align: center;\">5</td>\n<td style=\"box-sizing: border-box; user-select: text; width: 68px; background-color: #f6f1e1; height: 17px; text-align: center;\">3</td>\n<td style=\"box-sizing: border-box; user-select: text; width: 69px; background-color: #f6f1e1; height: 17px; text-align: center;\">3</td>\n<td style=\"box-sizing: border-box; user-select: text; width: 68px; background-color: #f6f1e1; height: 17px; text-align: center;\">2*</td>\n<td style=\"box-sizing: border-box; user-select: text; width: 68px; background-color: #f6f1e1; height: 17px; text-align: center;\"><span id=\"ctl00_MainContent_DetailedOutput\" style=\"box-sizing: border-box; user-select: text;\">-</span></td>\n<td style=\"box-sizing: border-box; user-select: text; width: 68px; background-color: #f6f1e1; height: 17px; text-align: center;\"><span id=\"ctl00_MainContent_DetailedOutput\" style=\"box-sizing: border-box; user-select: text;\">-</span></td>\n<td style=\"box-sizing: border-box; user-select: text; width: 68px; background-color: #f6f1e1; height: 17px; text-align: center;\"><span id=\"ctl00_MainContent_DetailedOutput\" style=\"box-sizing: border-box; user-select: text;\">-</span></td>\n<td style=\"box-sizing: border-box; user-select: text; width: 69px; background-color: #f6f1e1; height: 17px; text-align: center;\"><span id=\"ctl00_MainContent_DetailedOutput\" style=\"box-sizing: border-box; user-select: text;\">-</span></td>\n<td style=\"box-sizing: border-box; user-select: text; width: 69px; background-color: #f6f1e1; height: 17px; text-align: center;\"><span id=\"ctl00_MainContent_DetailedOutput\" style=\"box-sizing: border-box; user-select: text;\">-</span></td>\n<td style=\"box-sizing: border-box; user-select: text; width: 69px; background-color: #f6f1e1; height: 17px; text-align: center;\"><span id=\"ctl00_MainContent_DetailedOutput\" style=\"box-sizing: border-box; user-select: text;\">-</span></td>\n<td style=\"box-sizing: border-box; user-select: text; width: 74px; background-color: #f6f1e1; height: 17px; text-align: center;\"><span id=\"ctl00_MainContent_DetailedOutput\" style=\"box-sizing: border-box; user-select: text;\">-</span></td>\n</tr>\n<tr style=\"box-sizing: border-box; user-select: text; height: 17px;\">\n<td style=\"box-sizing: border-box; user-select: text; width: 139px; background-color: #eee5c8; height: 17px; text-align: center;\">6</td>\n<td style=\"box-sizing: border-box; user-select: text; width: 171px; background-color: #eee5c8; height: 17px; text-align: center;\">5</td>\n<td style=\"box-sizing: border-box; user-select: text; width: 68px; background-color: #eee5c8; height: 17px; text-align: center;\">3</td>\n<td style=\"box-sizing: border-box; user-select: text; width: 69px; background-color: #eee5c8; height: 17px; text-align: center;\">3</td>\n<td style=\"box-sizing: border-box; user-select: text; width: 68px; background-color: #eee5c8; height: 17px; text-align: center;\">3*</td>\n<td style=\"box-sizing: border-box; user-select: text; width: 68px; background-color: #eee5c8; height: 17px; text-align: center;\"><span id=\"ctl00_MainContent_DetailedOutput\" style=\"box-sizing: border-box; user-select: text;\">-</span></td>\n<td style=\"box-sizing: border-box; user-select: text; width: 68px; background-color: #eee5c8; height: 17px; text-align: center;\"><span id=\"ctl00_MainContent_DetailedOutput\" style=\"box-sizing: border-box; user-select: text;\">-</span></td>\n<td style=\"box-sizing: border-box; user-select: text; width: 68px; background-color: #eee5c8; height: 17px; text-align: center;\"><span id=\"ctl00_MainContent_DetailedOutput\" style=\"box-sizing: border-box; user-select: text;\">-</span></td>\n<td style=\"box-sizing: border-box; user-select: text; width: 69px; background-color: #eee5c8; height: 17px; text-align: center;\"><span id=\"ctl00_MainContent_DetailedOutput\" style=\"box-sizing: border-box; user-select: text;\">-</span></td>\n<td style=\"box-sizing: border-box; user-select: text; width: 69px; background-color: #eee5c8; height: 17px; text-align: center;\"><span id=\"ctl00_MainContent_DetailedOutput\" style=\"box-sizing: border-box; user-select: text;\">-</span></td>\n<td style=\"box-sizing: border-box; user-select: text; width: 69px; background-color: #eee5c8; height: 17px; text-align: center;\"><span id=\"ctl00_MainContent_DetailedOutput\" style=\"box-sizing: border-box; user-select: text;\">-</span></td>\n<td style=\"box-sizing: border-box; user-select: text; width: 74px; background-color: #eee5c8; height: 17px; text-align: center;\"><span id=\"ctl00_MainContent_DetailedOutput\" style=\"box-sizing: border-box; user-select: text;\">-</span></td>\n</tr>\n<tr style=\"box-sizing: border-box; user-select: text; height: 17px;\">\n<td style=\"box-sizing: border-box; user-select: text; width: 139px; background-color: #f6f1e1; height: 17px; text-align: center;\">7</td>\n<td style=\"box-sizing: border-box; user-select: text; width: 171px; background-color: #f6f1e1; height: 17px; text-align: center;\">5</td>\n<td style=\"box-sizing: border-box; user-select: text; width: 68px; background-color: #f6f1e1; height: 17px; text-align: center;\">3</td>\n<td style=\"box-sizing: border-box; user-select: text; width: 69px; background-color: #f6f1e1; height: 17px; text-align: center;\">3</td>\n<td style=\"box-sizing: border-box; user-select: text; width: 68px; background-color: #f6f1e1; height: 17px; text-align: center;\">3</td>\n<td style=\"box-sizing: border-box; user-select: text; width: 68px; background-color: #f6f1e1; height: 17px; text-align: center;\">2*</td>\n<td style=\"box-sizing: border-box; user-select: text; width: 68px; background-color: #f6f1e1; height: 17px; text-align: center;\"><span id=\"ctl00_MainContent_DetailedOutput\" style=\"box-sizing: border-box; user-select: text;\">-</span></td>\n<td style=\"box-sizing: border-box; user-select: text; width: 68px; background-color: #f6f1e1; height: 17px; text-align: center;\"><span id=\"ctl00_MainContent_DetailedOutput\" style=\"box-sizing: border-box; user-select: text;\">-</span></td>\n<td style=\"box-sizing: border-box; user-select: text; width: 69px; background-color: #f6f1e1; height: 17px; text-align: center;\"><span id=\"ctl00_MainContent_DetailedOutput\" style=\"box-sizing: border-box; user-select: text;\">-</span></td>\n<td style=\"box-sizing: border-box; user-select: text; width: 69px; background-color: #f6f1e1; height: 17px; text-align: center;\"><span id=\"ctl00_MainContent_DetailedOutput\" style=\"box-sizing: border-box; user-select: text;\">-</span></td>\n<td style=\"box-sizing: border-box; user-select: text; width: 69px; background-color: #f6f1e1; height: 17px; text-align: center;\"><span id=\"ctl00_MainContent_DetailedOutput\" style=\"box-sizing: border-box; user-select: text;\">-</span></td>\n<td style=\"box-sizing: border-box; user-select: text; width: 74px; background-color: #f6f1e1; height: 17px; text-align: center;\"><span id=\"ctl00_MainContent_DetailedOutput\" style=\"box-sizing: border-box; user-select: text;\">-</span></td>\n</tr>\n<tr style=\"box-sizing: border-box; user-select: text; height: 17px;\">\n<td style=\"box-sizing: border-box; user-select: text; width: 139px; background-color: #eee5c8; height: 17px; text-align: center;\">8</td>\n<td style=\"box-sizing: border-box; user-select: text; width: 171px; background-color: #eee5c8; height: 17px; text-align: center;\">5</td>\n<td style=\"box-sizing: border-box; user-select: text; width: 68px; background-color: #eee5c8; height: 17px; text-align: center;\">3</td>\n<td style=\"box-sizing: border-box; user-select: text; width: 69px; background-color: #eee5c8; height: 17px; text-align: center;\">3</td>\n<td style=\"box-sizing: border-box; user-select: text; width: 68px; background-color: #eee5c8; height: 17px; text-align: center;\">3</td>\n<td style=\"box-sizing: border-box; user-select: text; width: 68px; background-color: #eee5c8; height: 17px; text-align: center;\">3*</td>\n<td style=\"box-sizing: border-box; user-select: text; width: 68px; background-color: #eee5c8; height: 17px; text-align: center;\"><span id=\"ctl00_MainContent_DetailedOutput\" style=\"box-sizing: border-box; user-select: text;\">-</span></td>\n<td style=\"box-sizing: border-box; user-select: text; width: 68px; background-color: #eee5c8; height: 17px; text-align: center;\"><span id=\"ctl00_MainContent_DetailedOutput\" style=\"box-sizing: border-box; user-select: text;\">-</span></td>\n<td style=\"box-sizing: border-box; user-select: text; width: 69px; background-color: #eee5c8; height: 17px; text-align: center;\"><span id=\"ctl00_MainContent_DetailedOutput\" style=\"box-sizing: border-box; user-select: text;\">-</span></td>\n<td style=\"box-sizing: border-box; user-select: text; width: 69px; background-color: #eee5c8; height: 17px; text-align: center;\"><span id=\"ctl00_MainContent_DetailedOutput\" style=\"box-sizing: border-box; user-select: text;\">-</span></td>\n<td style=\"box-sizing: border-box; user-select: text; width: 69px; background-color: #eee5c8; height: 17px; text-align: center;\"><span id=\"ctl00_MainContent_DetailedOutput\" style=\"box-sizing: border-box; user-select: text;\">-</span></td>\n<td style=\"box-sizing: border-box; user-select: text; width: 74px; background-color: #eee5c8; height: 17px; text-align: center;\"><span id=\"ctl00_MainContent_DetailedOutput\" style=\"box-sizing: border-box; user-select: text;\">-</span></td>\n</tr>\n<tr style=\"box-sizing: border-box; user-select: text; height: 17px;\">\n<td style=\"box-sizing: border-box; user-select: text; width: 139px; background-color: #f6f1e1; height: 17px; text-align: center;\">9</td>\n<td style=\"box-sizing: border-box; user-select: text; width: 171px; background-color: #f6f1e1; height: 17px; text-align: center;\">5</td>\n<td style=\"box-sizing: border-box; user-select: text; width: 68px; background-color: #f6f1e1; height: 17px; text-align: center;\">3</td>\n<td style=\"box-sizing: border-box; user-select: text; width: 69px; background-color: #f6f1e1; height: 17px; text-align: center;\">3</td>\n<td style=\"box-sizing: border-box; user-select: text; width: 68px; background-color: #f6f1e1; height: 17px; text-align: center;\">3</td>\n<td style=\"box-sizing: border-box; user-select: text; width: 68px; background-color: #f6f1e1; height: 17px; text-align: center;\">3</td>\n<td style=\"box-sizing: border-box; user-select: text; width: 68px; background-color: #f6f1e1; height: 17px; text-align: center;\">2*</td>\n<td style=\"box-sizing: border-box; user-select: text; width: 68px; background-color: #f6f1e1; height: 17px; text-align: center;\"><span id=\"ctl00_MainContent_DetailedOutput\" style=\"box-sizing: border-box; user-select: text;\">-</span></td>\n<td style=\"box-sizing: border-box; user-select: text; width: 69px; background-color: #f6f1e1; height: 17px; text-align: center;\"><span id=\"ctl00_MainContent_DetailedOutput\" style=\"box-sizing: border-box; user-select: text;\">-</span></td>\n<td style=\"box-sizing: border-box; user-select: text; width: 69px; background-color: #f6f1e1; height: 17px; text-align: center;\"><span id=\"ctl00_MainContent_DetailedOutput\" style=\"box-sizing: border-box; user-select: text;\">-</span></td>\n<td style=\"box-sizing: border-box; user-select: text; width: 69px; background-color: #f6f1e1; height: 17px; text-align: center;\"><span id=\"ctl00_MainContent_DetailedOutput\" style=\"box-sizing: border-box; user-select: text;\">-</span></td>\n<td style=\"box-sizing: border-box; user-select: text; width: 74px; background-color: #f6f1e1; height: 17px; text-align: center;\"><span id=\"ctl00_MainContent_DetailedOutput\" style=\"box-sizing: border-box; user-select: text;\">-</span></td>\n</tr>\n<tr style=\"box-sizing: border-box; user-select: text; height: 17px;\">\n<td style=\"box-sizing: border-box; user-select: text; width: 139px; background-color: #eee5c8; height: 17px; text-align: center;\">10</td>\n<td style=\"box-sizing: border-box; user-select: text; width: 171px; background-color: #eee5c8; height: 17px; text-align: center;\">5</td>\n<td style=\"box-sizing: border-box; user-select: text; width: 68px; background-color: #eee5c8; height: 17px; text-align: center;\">3</td>\n<td style=\"box-sizing: border-box; user-select: text; width: 69px; background-color: #eee5c8; height: 17px; text-align: center;\">3</td>\n<td style=\"box-sizing: border-box; user-select: text; width: 68px; background-color: #eee5c8; height: 17px; text-align: center;\">3</td>\n<td style=\"box-sizing: border-box; user-select: text; width: 68px; background-color: #eee5c8; height: 17px; text-align: center;\">3</td>\n<td style=\"box-sizing: border-box; user-select: text; width: 68px; background-color: #eee5c8; height: 17px; text-align: center;\">3*</td>\n<td style=\"box-sizing: border-box; user-select: text; width: 68px; background-color: #eee5c8; height: 17px; text-align: center;\"><span id=\"ctl00_MainContent_DetailedOutput\" style=\"box-sizing: border-box; user-select: text;\">-</span></td>\n<td style=\"box-sizing: border-box; user-select: text; width: 69px; background-color: #eee5c8; height: 17px; text-align: center;\"><span id=\"ctl00_MainContent_DetailedOutput\" style=\"box-sizing: border-box; user-select: text;\">-</span></td>\n<td style=\"box-sizing: border-box; user-select: text; width: 69px; background-color: #eee5c8; height: 17px; text-align: center;\"><span id=\"ctl00_MainContent_DetailedOutput\" style=\"box-sizing: border-box; user-select: text;\">-</span></td>\n<td style=\"box-sizing: border-box; user-select: text; width: 69px; background-color: #eee5c8; height: 17px; text-align: center;\"><span id=\"ctl00_MainContent_DetailedOutput\" style=\"box-sizing: border-box; user-select: text;\">-</span></td>\n<td style=\"box-sizing: border-box; user-select: text; width: 74px; background-color: #eee5c8; height: 17px; text-align: center;\"><span id=\"ctl00_MainContent_DetailedOutput\" style=\"box-sizing: border-box; user-select: text;\">-</span></td>\n</tr>\n<tr style=\"box-sizing: border-box; user-select: text; height: 17px;\">\n<td style=\"box-sizing: border-box; user-select: text; width: 139px; background-color: #f6f1e1; height: 17px; text-align: center;\">11</td>\n<td style=\"box-sizing: border-box; user-select: text; width: 171px; background-color: #f6f1e1; height: 17px; text-align: center;\">5</td>\n<td style=\"box-sizing: border-box; user-select: text; width: 68px; background-color: #f6f1e1; height: 17px; text-align: center;\">3</td>\n<td style=\"box-sizing: border-box; user-select: text; width: 69px; background-color: #f6f1e1; height: 17px; text-align: center;\">3</td>\n<td style=\"box-sizing: border-box; user-select: text; width: 68px; background-color: #f6f1e1; height: 17px; text-align: center;\">3</td>\n<td style=\"box-sizing: border-box; user-select: text; width: 68px; background-color: #f6f1e1; height: 17px; text-align: center;\">3</td>\n<td style=\"box-sizing: border-box; user-select: text; width: 68px; background-color: #f6f1e1; height: 17px; text-align: center;\">3</td>\n<td style=\"box-sizing: border-box; user-select: text; width: 68px; background-color: #f6f1e1; height: 17px; text-align: center;\">2*</td>\n<td style=\"box-sizing: border-box; user-select: text; width: 69px; background-color: #f6f1e1; height: 17px; text-align: center;\"><span id=\"ctl00_MainContent_DetailedOutput\" style=\"box-sizing: border-box; user-select: text;\">-</span></td>\n<td style=\"box-sizing: border-box; user-select: text; width: 69px; background-color: #f6f1e1; height: 17px; text-align: center;\"><span id=\"ctl00_MainContent_DetailedOutput\" style=\"box-sizing: border-box; user-select: text;\">-</span></td>\n<td style=\"box-sizing: border-box; user-select: text; width: 69px; background-color: #f6f1e1; height: 17px; text-align: center;\"><span id=\"ctl00_MainContent_DetailedOutput\" style=\"box-sizing: border-box; user-select: text;\">-</span></td>\n<td style=\"box-sizing: border-box; user-select: text; width: 74px; background-color: #f6f1e1; height: 17px; text-align: center;\"><span id=\"ctl00_MainContent_DetailedOutput\" style=\"box-sizing: border-box; user-select: text;\">-</span></td>\n</tr>\n<tr style=\"box-sizing: border-box; user-select: text; height: 17px;\">\n<td style=\"box-sizing: border-box; user-select: text; width: 139px; background-color: #eee5c8; height: 17px; text-align: center;\">12</td>\n<td style=\"box-sizing: border-box; user-select: text; width: 171px; background-color: #eee5c8; height: 17px; text-align: center;\">5</td>\n<td style=\"box-sizing: border-box; user-select: text; width: 68px; background-color: #eee5c8; height: 17px; text-align: center;\">3</td>\n<td style=\"box-sizing: border-box; user-select: text; width: 69px; background-color: #eee5c8; height: 17px; text-align: center;\">3</td>\n<td style=\"box-sizing: border-box; user-select: text; width: 68px; background-color: #eee5c8; height: 17px; text-align: center;\">3</td>\n<td style=\"box-sizing: border-box; user-select: text; width: 68px; background-color: #eee5c8; height: 17px; text-align: center;\">3</td>\n<td style=\"box-sizing: border-box; user-select: text; width: 68px; background-color: #eee5c8; height: 17px; text-align: center;\">3</td>\n<td style=\"box-sizing: border-box; user-select: text; width: 68px; background-color: #eee5c8; height: 17px; text-align: center;\">3*</td>\n<td style=\"box-sizing: border-box; user-select: text; width: 69px; background-color: #eee5c8; height: 17px; text-align: center;\"><span id=\"ctl00_MainContent_DetailedOutput\" style=\"box-sizing: border-box; user-select: text;\">-</span></td>\n<td style=\"box-sizing: border-box; user-select: text; width: 69px; background-color: #eee5c8; height: 17px; text-align: center;\"><span id=\"ctl00_MainContent_DetailedOutput\" style=\"box-sizing: border-box; user-select: text;\">-</span></td>\n<td style=\"box-sizing: border-box; user-select: text; width: 69px; background-color: #eee5c8; height: 17px; text-align: center;\"><span id=\"ctl00_MainContent_DetailedOutput\" style=\"box-sizing: border-box; user-select: text;\">-</span></td>\n<td style=\"box-sizing: border-box; user-select: text; width: 74px; background-color: #eee5c8; height: 17px; text-align: center;\"><span id=\"ctl00_MainContent_DetailedOutput\" style=\"box-sizing: border-box; user-select: text;\">-</span></td>\n</tr>\n<tr style=\"box-sizing: border-box; user-select: text; height: 17px;\">\n<td style=\"box-sizing: border-box; user-select: text; width: 139px; background-color: #f6f1e1; height: 17px; text-align: center;\">13</td>\n<td style=\"box-sizing: border-box; user-select: text; width: 171px; background-color: #f6f1e1; height: 17px; text-align: center;\">5</td>\n<td style=\"box-sizing: border-box; user-select: text; width: 68px; background-color: #f6f1e1; height: 17px; text-align: center;\">3</td>\n<td style=\"box-sizing: border-box; user-select: text; width: 69px; background-color: #f6f1e1; height: 17px; text-align: center;\">3</td>\n<td style=\"box-sizing: border-box; user-select: text; width: 68px; background-color: #f6f1e1; height: 17px; text-align: center;\">3</td>\n<td style=\"box-sizing: border-box; user-select: text; width: 68px; background-color: #f6f1e1; height: 17px; text-align: center;\">3</td>\n<td style=\"box-sizing: border-box; user-select: text; width: 68px; background-color: #f6f1e1; height: 17px; text-align: center;\">3</td>\n<td style=\"box-sizing: border-box; user-select: text; width: 68px; background-color: #f6f1e1; height: 17px; text-align: center;\">3</td>\n<td style=\"box-sizing: border-box; user-select: text; width: 69px; background-color: #f6f1e1; height: 17px; text-align: center;\">2*</td>\n<td style=\"box-sizing: border-box; user-select: text; width: 69px; background-color: #f6f1e1; height: 17px; text-align: center;\"><span id=\"ctl00_MainContent_DetailedOutput\" style=\"box-sizing: border-box; user-select: text;\">-</span></td>\n<td style=\"box-sizing: border-box; user-select: text; width: 69px; background-color: #f6f1e1; height: 17px; text-align: center;\"><span id=\"ctl00_MainContent_DetailedOutput\" style=\"box-sizing: border-box; user-select: text;\">-</span></td>\n<td style=\"box-sizing: border-box; user-select: text; width: 74px; background-color: #f6f1e1; height: 17px; text-align: center;\"><span id=\"ctl00_MainContent_DetailedOutput\" style=\"box-sizing: border-box; user-select: text;\">-</span></td>\n</tr>\n<tr style=\"box-sizing: border-box; user-select: text; height: 17px;\">\n<td style=\"box-sizing: border-box; user-select: text; width: 139px; background-color: #eee5c8; height: 17px; text-align: center;\">14</td>\n<td style=\"box-sizing: border-box; user-select: text; width: 171px; background-color: #eee5c8; height: 17px; text-align: center;\">5</td>\n<td style=\"box-sizing: border-box; user-select: text; width: 68px; background-color: #eee5c8; height: 17px; text-align: center;\">3</td>\n<td style=\"box-sizing: border-box; user-select: text; width: 69px; background-color: #eee5c8; height: 17px; text-align: center;\">3</td>\n<td style=\"box-sizing: border-box; user-select: text; width: 68px; background-color: #eee5c8; height: 17px; text-align: center;\">3</td>\n<td style=\"box-sizing: border-box; user-select: text; width: 68px; background-color: #eee5c8; height: 17px; text-align: center;\">3</td>\n<td style=\"box-sizing: border-box; user-select: text; width: 68px; background-color: #eee5c8; height: 17px; text-align: center;\">3</td>\n<td style=\"box-sizing: border-box; user-select: text; width: 68px; background-color: #eee5c8; height: 17px; text-align: center;\">3</td>\n<td style=\"box-sizing: border-box; user-select: text; width: 69px; background-color: #eee5c8; height: 17px; text-align: center;\">3*</td>\n<td style=\"box-sizing: border-box; user-select: text; width: 69px; background-color: #eee5c8; height: 17px; text-align: center;\"><span id=\"ctl00_MainContent_DetailedOutput\" style=\"box-sizing: border-box; user-select: text;\">-</span></td>\n<td style=\"box-sizing: border-box; user-select: text; width: 69px; background-color: #eee5c8; height: 17px; text-align: center;\"><span id=\"ctl00_MainContent_DetailedOutput\" style=\"box-sizing: border-box; user-select: text;\">-</span></td>\n<td style=\"box-sizing: border-box; user-select: text; width: 74px; background-color: #eee5c8; height: 17px; text-align: center;\"><span id=\"ctl00_MainContent_DetailedOutput\" style=\"box-sizing: border-box; user-select: text;\">-</span></td>\n</tr>\n<tr style=\"box-sizing: border-box; user-select: text; height: 17px;\">\n<td style=\"box-sizing: border-box; user-select: text; width: 139px; background-color: #f6f1e1; height: 17px; text-align: center;\">15</td>\n<td style=\"box-sizing: border-box; user-select: text; width: 171px; background-color: #f6f1e1; height: 17px; text-align: center;\">5</td>\n<td style=\"box-sizing: border-box; user-select: text; width: 68px; background-color: #f6f1e1; height: 17px; text-align: center;\">3</td>\n<td style=\"box-sizing: border-box; user-select: text; width: 69px; background-color: #f6f1e1; height: 17px; text-align: center;\">3</td>\n<td style=\"box-sizing: border-box; user-select: text; width: 68px; background-color: #f6f1e1; height: 17px; text-align: center;\">3</td>\n<td style=\"box-sizing: border-box; user-select: text; width: 68px; background-color: #f6f1e1; height: 17px; text-align: center;\">3</td>\n<td style=\"box-sizing: border-box; user-select: text; width: 68px; background-color: #f6f1e1; height: 17px; text-align: center;\">3</td>\n<td style=\"box-sizing: border-box; user-select: text; width: 68px; background-color: #f6f1e1; height: 17px; text-align: center;\">3</td>\n<td style=\"box-sizing: border-box; user-select: text; width: 69px; background-color: #f6f1e1; height: 17px; text-align: center;\">3</td>\n<td style=\"box-sizing: border-box; user-select: text; width: 69px; background-color: #f6f1e1; height: 17px; text-align: center;\">2*</td>\n<td style=\"box-sizing: border-box; user-select: text; width: 69px; background-color: #f6f1e1; height: 17px; text-align: center;\"><span id=\"ctl00_MainContent_DetailedOutput\" style=\"box-sizing: border-box; user-select: text;\">-</span></td>\n<td style=\"box-sizing: border-box; user-select: text; width: 74px; background-color: #f6f1e1; height: 17px; text-align: center;\"><span id=\"ctl00_MainContent_DetailedOutput\" style=\"box-sizing: border-box; user-select: text;\">-</span></td>\n</tr>\n<tr style=\"box-sizing: border-box; user-select: text; height: 17px;\">\n<td style=\"box-sizing: border-box; user-select: text; width: 139px; background-color: #eee5c8; height: 17px; text-align: center;\">16</td>\n<td style=\"box-sizing: border-box; user-select: text; width: 171px; background-color: #eee5c8; height: 17px; text-align: center;\">5</td>\n<td style=\"box-sizing: border-box; user-select: text; width: 68px; background-color: #eee5c8; height: 17px; text-align: center;\">3</td>\n<td style=\"box-sizing: border-box; user-select: text; width: 69px; background-color: #eee5c8; height: 17px; text-align: center;\">3</td>\n<td style=\"box-sizing: border-box; user-select: text; width: 68px; background-color: #eee5c8; height: 17px; text-align: center;\">3</td>\n<td style=\"box-sizing: border-box; user-select: text; width: 68px; background-color: #eee5c8; height: 17px; text-align: center;\">3</td>\n<td style=\"box-sizing: border-box; user-select: text; width: 68px; background-color: #eee5c8; height: 17px; text-align: center;\">3</td>\n<td style=\"box-sizing: border-box; user-select: text; width: 68px; background-color: #eee5c8; height: 17px; text-align: center;\">3</td>\n<td style=\"box-sizing: border-box; user-select: text; width: 69px; background-color: #eee5c8; height: 17px; text-align: center;\">3</td>\n<td style=\"box-sizing: border-box; user-select: text; width: 69px; background-color: #eee5c8; height: 17px; text-align: center;\">3*</td>\n<td style=\"box-sizing: border-box; user-select: text; width: 69px; background-color: #eee5c8; height: 17px; text-align: center;\"><span id=\"ctl00_MainContent_DetailedOutput\" style=\"box-sizing: border-box; user-select: text;\">-</span></td>\n<td style=\"box-sizing: border-box; user-select: text; width: 74px; background-color: #eee5c8; height: 17px; text-align: center;\"><span id=\"ctl00_MainContent_DetailedOutput\" style=\"box-sizing: border-box; user-select: text;\">-</span></td>\n</tr>\n<tr style=\"box-sizing: border-box; user-select: text; height: 17px;\">\n<td style=\"box-sizing: border-box; user-select: text; width: 139px; background-color: #f6f1e1; height: 17px; text-align: center;\">17</td>\n<td style=\"box-sizing: border-box; user-select: text; width: 171px; background-color: #f6f1e1; height: 17px; text-align: center;\">5</td>\n<td style=\"box-sizing: border-box; user-select: text; width: 68px; background-color: #f6f1e1; height: 17px; text-align: center;\">3</td>\n<td style=\"box-sizing: border-box; user-select: text; width: 69px; background-color: #f6f1e1; height: 17px; text-align: center;\">3</td>\n<td style=\"box-sizing: border-box; user-select: text; width: 68px; background-color: #f6f1e1; height: 17px; text-align: center;\">3</td>\n<td style=\"box-sizing: border-box; user-select: text; width: 68px; background-color: #f6f1e1; height: 17px; text-align: center;\">3</td>\n<td style=\"box-sizing: border-box; user-select: text; width: 68px; background-color: #f6f1e1; height: 17px; text-align: center;\">3</td>\n<td style=\"box-sizing: border-box; user-select: text; width: 68px; background-color: #f6f1e1; height: 17px; text-align: center;\">3</td>\n<td style=\"box-sizing: border-box; user-select: text; width: 69px; background-color: #f6f1e1; height: 17px; text-align: center;\">3</td>\n<td style=\"box-sizing: border-box; user-select: text; width: 69px; background-color: #f6f1e1; height: 17px; text-align: center;\">3</td>\n<td style=\"box-sizing: border-box; user-select: text; width: 69px; background-color: #f6f1e1; height: 17px; text-align: center;\">2*</td>\n<td style=\"box-sizing: border-box; user-select: text; width: 74px; background-color: #f6f1e1; height: 17px; text-align: center;\"><span id=\"ctl00_MainContent_DetailedOutput\" style=\"box-sizing: border-box; user-select: text;\">-</span></td>\n</tr>\n<tr style=\"box-sizing: border-box; user-select: text; height: 17px;\">\n<td style=\"box-sizing: border-box; user-select: text; width: 139px; background-color: #eee5c8; height: 17px; text-align: center;\">18</td>\n<td style=\"box-sizing: border-box; user-select: text; width: 171px; background-color: #eee5c8; height: 17px; text-align: center;\">5</td>\n<td style=\"box-sizing: border-box; user-select: text; width: 68px; background-color: #eee5c8; height: 17px; text-align: center;\">3</td>\n<td style=\"box-sizing: border-box; user-select: text; width: 69px; background-color: #eee5c8; height: 17px; text-align: center;\">3</td>\n<td style=\"box-sizing: border-box; user-select: text; width: 68px; background-color: #eee5c8; height: 17px; text-align: center;\">3</td>\n<td style=\"box-sizing: border-box; user-select: text; width: 68px; background-color: #eee5c8; height: 17px; text-align: center;\">3</td>\n<td style=\"box-sizing: border-box; user-select: text; width: 68px; background-color: #eee5c8; height: 17px; text-align: center;\">3</td>\n<td style=\"box-sizing: border-box; user-select: text; width: 68px; background-color: #eee5c8; height: 17px; text-align: center;\">3</td>\n<td style=\"box-sizing: border-box; user-select: text; width: 69px; background-color: #eee5c8; height: 17px; text-align: center;\">3</td>\n<td style=\"box-sizing: border-box; user-select: text; width: 69px; background-color: #eee5c8; height: 17px; text-align: center;\">3</td>\n<td style=\"box-sizing: border-box; user-select: text; width: 69px; background-color: #eee5c8; height: 17px; text-align: center;\">3*</td>\n<td style=\"box-sizing: border-box; user-select: text; width: 74px; background-color: #eee5c8; height: 17px; text-align: center;\"><span id=\"ctl00_MainContent_DetailedOutput\" style=\"box-sizing: border-box; user-select: text;\">-</span></td>\n</tr>\n<tr style=\"box-sizing: border-box; user-select: text; height: 16px;\">\n<td style=\"box-sizing: border-box; user-select: text; width: 139px; background-color: #f6f1e1; height: 16px; text-align: center;\">19</td>\n<td style=\"box-sizing: border-box; user-select: text; width: 171px; background-color: #f6f1e1; height: 16px; text-align: center;\">5</td>\n<td style=\"box-sizing: border-box; user-select: text; width: 68px; background-color: #f6f1e1; height: 16px; text-align: center;\">3</td>\n<td style=\"box-sizing: border-box; user-select: text; width: 69px; background-color: #f6f1e1; height: 16px; text-align: center;\">3</td>\n<td style=\"box-sizing: border-box; user-select: text; width: 68px; background-color: #f6f1e1; height: 16px; text-align: center;\">3</td>\n<td style=\"box-sizing: border-box; user-select: text; width: 68px; background-color: #f6f1e1; height: 16px; text-align: center;\">3</td>\n<td style=\"box-sizing: border-box; user-select: text; width: 68px; background-color: #f6f1e1; height: 16px; text-align: center;\">3</td>\n<td style=\"box-sizing: border-box; user-select: text; width: 68px; background-color: #f6f1e1; height: 16px; text-align: center;\">3</td>\n<td style=\"box-sizing: border-box; user-select: text; width: 69px; background-color: #f6f1e1; height: 16px; text-align: center;\">3</td>\n<td style=\"box-sizing: border-box; user-select: text; width: 69px; background-color: #f6f1e1; height: 16px; text-align: center;\">3</td>\n<td style=\"box-sizing: border-box; user-select: text; width: 69px; background-color: #f6f1e1; height: 16px; text-align: center;\">3</td>\n<td style=\"box-sizing: border-box; user-select: text; width: 74px; background-color: #f6f1e1; height: 16px; text-align: center;\">1* &dagger;</td>\n</tr>\n<tr style=\"box-sizing: border-box; user-select: text; height: 17px;\">\n<td style=\"box-sizing: border-box; user-select: text; width: 139px; background-color: #eee5c8; height: 17px; text-align: center;\">20</td>\n<td style=\"box-sizing: border-box; user-select: text; width: 171px; background-color: #eee5c8; height: 17px; text-align: center;\">5</td>\n<td style=\"box-sizing: border-box; user-select: text; width: 68px; background-color: #eee5c8; height: 17px; text-align: center;\">3</td>\n<td style=\"box-sizing: border-box; user-select: text; width: 69px; background-color: #eee5c8; height: 17px; text-align: center;\">3</td>\n<td style=\"box-sizing: border-box; user-select: text; width: 68px; background-color: #eee5c8; height: 17px; text-align: center;\">3</td>\n<td style=\"box-sizing: border-box; user-select: text; width: 68px; background-color: #eee5c8; height: 17px; text-align: center;\">3</td>\n<td style=\"box-sizing: border-box; user-select: text; width: 68px; background-color: #eee5c8; height: 17px; text-align: center;\">3</td>\n<td style=\"box-sizing: border-box; user-select: text; width: 68px; background-color: #eee5c8; height: 17px; text-align: center;\">3</td>\n<td style=\"box-sizing: border-box; user-select: text; width: 69px; background-color: #eee5c8; height: 17px; text-align: center;\">3</td>\n<td style=\"box-sizing: border-box; user-select: text; width: 69px; background-color: #eee5c8; height: 17px; text-align: center;\">3</td>\n<td style=\"box-sizing: border-box; user-select: text; width: 69px; background-color: #eee5c8; height: 17px; text-align: center;\">3</td>\n<td style=\"box-sizing: border-box; user-select: text; width: 74px; background-color: #eee5c8; height: 17px; text-align: center;\">1* &dagger;</td>\n</tr>\n<tr style=\"height: 20px;\">\n<td style=\"color: white; box-sizing: border-box; user-select: text; width: 1000px; background-color: #522e2c; text-align: center; height: 40px;\" colspan=\"12\"><span id=\"ctl00_MainContent_DetailedOutput\">* Your divine font gives you additional <em>heal</em> or <em>harm</em> spells of this level. The number is equal to 1 + your Charisma modifier.<br />&dagger; The miraculous spell class feature gives you a 10th-level spell slot that works a bit differently from other spell slots.</span></td>\n</tr>\n</tbody>\n</table>\n<p></p>\n<h2 class=\"title\">Doctrine</h2>\n<p>Even among followers of the same deity, there are numerous doctrines and beliefs, which sometimes vary wildly between clerics. At 1st level, you select a doctrine and gain the benefits of its first doctrine. The doctrines presented in this book are cloistered cleric and warpriest. Each doctrine grants you initial benefits at 1st level. At 3rd, 7th, 11th, 15th, and 19th levels, you gain the benefits granted by your doctrine's second, third, fourth, fifth, and final doctrines respectively.</p>\n<p>Doctrines can be found here (@Compendium[pf2e.classfeatures.Cloistered Cleric]{Cloistered Cleric} and @Compendium[pf2e.classfeatures.Warpriest]{Warpriest}).</p>\n<h2 class=\"title\">Initial Proficiencies</h2>\n<p>At 1st level, you gain a number of proficiencies that represent your basic training, noted at the start of this class.</p>\n<h2 class=\"title\">Cleric Feats<span style=\"float: right;\">Level 2</span></h2>\n<p>At 2nd level and every 2 levels thereafter, you gain a cleric class feat. These begin on page 121.</p>\n<h2 class=\"title\">General Feats<span style=\"float: right;\">Level 3</span></h2>\n<p>At 3rd level and every 4 levels thereafter, you gain a general feat. General feats are listed in Chapter 5.</p>\n<h2 class=\"title\">Skill Feats<span style=\"float: right;\">Level 3</span></h2>\n<p>At 2nd level and every 2 levels thereafter, you gain a skill feat. Skill feats can be found in Chapter 5 and have the skill trait. You must be trained or better in the corresponding skill to select a skill feat.</p>\n<h2 class=\"title\">Skill Increases<span style=\"float: right;\">Level 3</span></h2>\n<p>At 3rd level and every 2 levels thereafter, you gain a skill increase. You can use this increase to either become trained in one skill you're untrained in, or become an expert in one skill in which you're already trained.</p>\n<p>You can use any of these skill increases you gain at 7th level or higher to become a master in a skill in which you're already an expert, and any of these skill increases you gain at 15th level or higher to become legendary in a skill in which you're already a master.</p>\n<h2 class=\"title\">Ability Boosts<span style=\"float: right;\">Level 5</span></h2>\n<p>At 5th level and every 5 levels thereafter, you boost four different ability scores. You can use these ability boosts to increase your ability scores above 18. Boosting an ability score increases it by 1 if it's already 18 or above, or by 2 if it starts out below 18.</p>\n<h2 class=\"title\">Alertness<span style=\"float: right;\">Level 5</span></h2>\n<p>You remain alert to threats around you. Your proficiency rank for Perception increases to expert.</p>\n<h2 class=\"title\">Ancestry Feats<span style=\"float: right;\">Level 5</span></h2>\n<p>In addition to the ancestry feat you started with, you gain an ancestry feat at 5th level and every 4 levels thereafter. The list of ancestry feats available to you can be found in your ancestry's entry in Chapter 2.</p>\n<h2 class=\"title\">Resolve<span style=\"float: right;\">Level 9</span></h2>\n<p>You've steeled your mind with resolve. Your proficiency rank for Will saves increases to master. When you roll a success at a Will save, you get a critical success instead.</p>\n<h2 class=\"title\">Lightning Reflexes<span style=\"float: right;\">Level 11</span></h2>\n<p>Your reflexes are lightning fast. Your proficiency rank for Reflex saves increases to expert.</p>\n<h2 class=\"title\">Divine Defense<span style=\"float: right;\">Level 13</span></h2>\n<p>Your training and your deity protect you from harm. Your proficiency rank in unarmored defense increases to expert.</p>\n<h2 class=\"title\">Weapon Specialization<span style=\"float: right;\">Level 13</span></h2>\n<p>You've learned how to inflict greater injuries with the weapons you know best. You deal 2 additional damage with weapons and unarmed attacks in which you are an expert. This damage increases to 3 if you're a master, and to 4 if you're legendary.</p>\n<h2 class=\"title\">Miraculous Spell<span style=\"float: right;\">Level 19</span></h2>\n<p>You're exalted by your deity and gain truly incredible spells. You gain a single 10th-level spell slot and can prepare a spell in that slot using divine spellcasting. You don't gain more 10th-level spells as you level up, though you can take the @Compendium[pf2e.feats-srd.Maker of Miracles]{Maker of Miracles} feat to gain a second slot.</p>\n<p></p>\n<p></p>\n<p style=\"box-sizing: border-box; user-select: text; color: #191813;\"></p>",
    "flags": {},
    "name": "Cleric",
    "permission": {
        "default": 0
    }
}