{
    "_id": "lifEnSfGjmeKcH8Y",
    "content": "<p><em>Many warriors rely on brute force, weighty armor, or cumbersome weapons. </em><em>For you, battle is a dance where you move among foes with style and grace. </em><em>You dart among combatants with flair and land powerful finishing moves </em><em>with a flick of the wrist and a flash of the blade, all while countering attacks with elegant </em><em>ripostes that keep enemies off balance. Harassing and thwarting your foes lets you charm </em><em>fate and cheat death time and again with aplomb and plenty of flair.</em></p>\n<p><span id=\"ctl00_MainContent_DetailedOutput\"><strong>Key Ability: DEXTERITY</strong><br>At 1st level, your class gives you an ability boost to your choice of Strength or Dexterity.<br><br><strong>Hit Points: 10 plus your Constitution modifier</strong><br>You increase your maximum number of HP by this number at 1st level and every level thereafter.<br></span></p>\n<h1 class=\"title\">Roleplaying the Swashbuckler</h1>\n<h2 class=\"title\">During Combat Encounters...</h2>\n<p>You show off to gain panache, leveraging your flair to build up to powerful finishing moves. You stay nimble, moving into the best position to perform your maneuvers while dodging enemy blows and responding with swift ripostes. Depending on your swashbuckler's style, you might dance among your foes; slip past their defenses; or beguile, distract, or frighten them.</p>\n<h2 class=\"title\">During Social Encounters...</h2>\n<p>You are equally likely to charm or intimidate others-or both. You might be an adept socialite, or you might create distractions for others who do the talking.</p>\n<h2 class=\"title\">While Exploring...</h2>\n<p>You keep a careful eye on your surroundings and other people, always prepared to leap into action with bravado and flair. You interact with the environment in bold, sweeping strokes rather than skulking to avoid detection.</p>\n<h2 class=\"title\">In Downtime...</h2>\n<p>You might carouse at the tavern, repair and maintain your armaments, or train to learn new techniques. To maintain your impressive reputation, you might build an organization in your name or establish a following of admirers.</p>\n<h2 class=\"title\">You Might...</h2>\n<ul>\n<li>Portray yourself as a heroic daredevil or a roguish braggart, knowing you can live up to the image you present.</li>\n<li>Hold yourself in high esteem, confident in your abilities and your reputation.</li>\n<li>Practice your skills and maneuvers regularly to ensure you never grow rusty.</li>\n</ul>\n<h2 class=\"title\">Others Probably...</h2>\n<ul>\n<li>Admire your theatrics, bravado, and skill with a blade.</li>\n<li>Find you arrogant unless they know you well enough to appreciate your style.</li>\n<li>Underestimate how much of a threat you pose until they face the end of your deadly blade.</li>\n</ul>\n<h1 class=\"title\">Initial Proficiencies</h1>\n<p>At 1st level, you gain the listed proficiency ranks in the following statistics. You are untrained in anything not listed unless you gain a better proficiency rank in some other way.</p>\n<h2 class=\"title\">Perception</h2>\n<p>Expert in Perception</p>\n<h2 class=\"title\">Saving Throws</h2>\n<p>Trained in Fortitude<br>Expert in Reflex<br>Expert in Will</p>\n<h2 class=\"title\">Skills</h2>\n<p>Trained in your choice of Acrobatics<br>Trained in one skill determined by your swashbuckler's style<br>Trained in a number of additional skills equal to 4 plus your Intelligence modifier</p>\n<h2 class=\"title\">Attacks</h2>\n<p>Trained in simple weapons<br>Trained in martial weapons<br>Trained in unarmed attacks</p>\n<h2 class=\"title\">Defenses</h2>\n<p>Trained in light armor<br>Trained in unarmored defense</p>\n<h2 class=\"title\">Class DC</h2>\n<p>Trained in swashbuckler class DC</p>\n<h1 class=\"title\">Class Features</h1>\n<p>You gain these features as a Fighter. Abilities gained at higher levels list the levels at which you gain them next to the features' names.</p>\n<table style=\"box-sizing: border-box; user-select: text; width: 901px; color: #191813; height: 359px;\" border=\"1\">\n<tbody style=\"box-sizing: border-box; user-select: text;\">\n<tr style=\"box-sizing: border-box; user-select: text; height: 17px;\">\n<td style=\"box-sizing: border-box; user-select: text; color: white; height: 17px; width: 59px; text-align: center; background-color: #522e2c;\"><strong style=\"box-sizing: border-box; user-select: text;\">Your Leve</strong>l</td>\n<td style=\"box-sizing: border-box; user-select: text; color: white; height: 17px; width: 841px; text-align: center; background-color: #522e2c;\"><strong style=\"box-sizing: border-box; user-select: text;\">Class Features</strong></td>\n</tr>\n<tr style=\"box-sizing: border-box; user-select: text; height: 17px;\">\n<td style=\"box-sizing: border-box; user-select: text; height: 17px; width: 59px; text-align: center; background-color: #f6f1e1;\">1</td>\n<td style=\"box-sizing: border-box; user-select: text; height: 17px; width: 841px; text-align: center; background-color: #f6f1e1;\"><span id=\"ctl00_MainContent_DetailedOutput\">Ancestry and background, initial proficiencies, panache, swashbuckler's style, precise strike (2d6), confident finisher, swashbuckler feat</span></td>\n</tr>\n<tr style=\"box-sizing: border-box; user-select: text; height: 17px;\">\n<td style=\"box-sizing: border-box; user-select: text; height: 17px; width: 59px; text-align: center; background-color: #eee5c8;\">2</td>\n<td style=\"box-sizing: border-box; user-select: text; height: 17px; width: 841px; text-align: center; background-color: #eee5c8;\"><span id=\"ctl00_MainContent_DetailedOutput\">Skill feat, swashbuckler feat</span></td>\n</tr>\n<tr style=\"box-sizing: border-box; user-select: text; height: 17px;\">\n<td style=\"box-sizing: border-box; user-select: text; height: 17px; width: 59px; text-align: center; background-color: #f6f1e1;\">3</td>\n<td style=\"box-sizing: border-box; user-select: text; height: 17px; width: 841px; text-align: center; background-color: #f6f1e1;\"><span id=\"ctl00_MainContent_DetailedOutput\">General feat, great fortitudfe, opportune riposte, skill increase, stylish trick, vivcaious speed +10 feet</span></td>\n</tr>\n<tr style=\"box-sizing: border-box; user-select: text; height: 19px;\">\n<td style=\"box-sizing: border-box; user-select: text; height: 19px; width: 59px; text-align: center; background-color: #eee5c8;\">4</td>\n<td style=\"box-sizing: border-box; user-select: text; height: 19px; width: 841px; text-align: center; background-color: #eee5c8;\">Skill feat, swashbuckler feat</td>\n</tr>\n<tr style=\"box-sizing: border-box; user-select: text; height: 17px;\">\n<td style=\"box-sizing: border-box; user-select: text; height: 17px; width: 59px; text-align: center; background-color: #f6f1e1;\">5</td>\n<td style=\"box-sizing: border-box; user-select: text; height: 17px; width: 841px; text-align: center; background-color: #f6f1e1;\"><span id=\"ctl00_MainContent_DetailedOutput\">Ability boosts, ancestry feat, precise strike (3d6), skill increase, weapon expertise</span></td>\n</tr>\n<tr style=\"box-sizing: border-box; user-select: text; height: 17px;\">\n<td style=\"box-sizing: border-box; user-select: text; height: 17px; width: 59px; text-align: center; background-color: #eee5c8;\">6</td>\n<td style=\"box-sizing: border-box; user-select: text; height: 17px; width: 841px; text-align: center; background-color: #eee5c8;\">Skill feat, swashbuckler feat</td>\n</tr>\n<tr style=\"box-sizing: border-box; user-select: text; height: 17px;\">\n<td style=\"box-sizing: border-box; user-select: text; height: 17px; width: 59px; text-align: center; background-color: #f6f1e1;\">7</td>\n<td style=\"box-sizing: border-box; user-select: text; height: 17px; width: 841px; text-align: center; background-color: #f6f1e1;\"><span id=\"ctl00_MainContent_DetailedOutput\">Evasion, general feat, skill increase, stylish trick, vivacious speed +15 feet, weapon specialization</span></td>\n</tr>\n<tr style=\"box-sizing: border-box; user-select: text; height: 17px;\">\n<td style=\"box-sizing: border-box; user-select: text; height: 17px; width: 59px; text-align: center; background-color: #eee5c8;\">8</td>\n<td style=\"box-sizing: border-box; user-select: text; height: 17px; width: 841px; text-align: center; background-color: #eee5c8;\">Skill feat, swashbuckler feat</td>\n</tr>\n<tr style=\"box-sizing: border-box; user-select: text; height: 17px;\">\n<td style=\"box-sizing: border-box; user-select: text; height: 17px; width: 59px; text-align: center; background-color: #f6f1e1;\">9</td>\n<td style=\"box-sizing: border-box; user-select: text; height: 17px; width: 841px; text-align: center; background-color: #f6f1e1;\"><span id=\"ctl00_MainContent_DetailedOutput\">Ancestry feat, exemplary finish, precise strike (4d6), skill increase, swashbuckler expertise</span></td>\n</tr>\n<tr style=\"box-sizing: border-box; user-select: text; height: 17px;\">\n<td style=\"box-sizing: border-box; user-select: text; width: 59px; height: 17px; text-align: center; background-color: #eee5c8;\">10</td>\n<td style=\"box-sizing: border-box; user-select: text; width: 841px; height: 17px; text-align: center; background-color: #eee5c8;\"><span id=\"ctl00_MainContent_DetailedOutput\">Ability boosts, s</span>kill feat, swashbuckler feat</td>\n</tr>\n<tr style=\"box-sizing: border-box; user-select: text; height: 17px;\">\n<td style=\"box-sizing: border-box; user-select: text; width: 59px; height: 17px; text-align: center; background-color: #f6f1e1;\">11</td>\n<td style=\"box-sizing: border-box; user-select: text; width: 841px; height: 17px; text-align: center; background-color: #f6f1e1;\"><span id=\"ctl00_MainContent_DetailedOutput\">Continuous flair, general feat, skill increase, vigilant senses, vivacious speed +20 feet</span></td>\n</tr>\n<tr style=\"box-sizing: border-box; user-select: text; height: 17px;\">\n<td style=\"box-sizing: border-box; user-select: text; width: 59px; height: 17px; text-align: center; background-color: #eee5c8;\">12</td>\n<td style=\"box-sizing: border-box; user-select: text; width: 841px; height: 17px; text-align: center; background-color: #eee5c8;\">Skill feat, swashbuckler feat</td>\n</tr>\n<tr style=\"box-sizing: border-box; user-select: text; height: 17px;\">\n<td style=\"box-sizing: border-box; user-select: text; width: 59px; height: 17px; text-align: center; background-color: #f6f1e1;\">13</td>\n<td style=\"box-sizing: border-box; user-select: text; width: 841px; height: 17px; text-align: center; background-color: #f6f1e1;\"><span id=\"ctl00_MainContent_DetailedOutput\">Ancestry feat, improved evasions, light armor expertise, pricse strike (5d6), skill increase, weapon mastery</span></td>\n</tr>\n<tr style=\"box-sizing: border-box; user-select: text; height: 17px;\">\n<td style=\"box-sizing: border-box; user-select: text; width: 59px; height: 17px; text-align: center; background-color: #eee5c8;\">14</td>\n<td style=\"box-sizing: border-box; user-select: text; width: 841px; height: 17px; text-align: center; background-color: #eee5c8;\">Skill feat, swashbuckler feat</td>\n</tr>\n<tr style=\"box-sizing: border-box; user-select: text; height: 17px;\">\n<td style=\"box-sizing: border-box; user-select: text; width: 59px; height: 17px; text-align: center; background-color: #f6f1e1;\">15</td>\n<td style=\"box-sizing: border-box; user-select: text; width: 841px; height: 17px; text-align: center; background-color: #f6f1e1;\"><span id=\"ctl00_MainContent_DetailedOutput\">Ability boosts, general feat, greater weapon specialization, keen flair, skill increase, stylish trick, vivacious speed +25 feet</span></td>\n</tr>\n<tr style=\"box-sizing: border-box; user-select: text; height: 17px;\">\n<td style=\"box-sizing: border-box; user-select: text; width: 59px; height: 17px; text-align: center; background-color: #eee5c8;\">16</td>\n<td style=\"box-sizing: border-box; user-select: text; width: 841px; height: 17px; text-align: center; background-color: #eee5c8;\">Skill feat, swashbuckler feat</td>\n</tr>\n<tr style=\"box-sizing: border-box; user-select: text; height: 17px;\">\n<td style=\"box-sizing: border-box; user-select: text; width: 59px; height: 17px; text-align: center; background-color: #f6f1e1;\">17</td>\n<td style=\"box-sizing: border-box; user-select: text; width: 841px; height: 17px; text-align: center; background-color: #f6f1e1;\"><span id=\"ctl00_MainContent_DetailedOutput\">Ancestry feat, precise strike (6d6), resolve, skill increase</span></td>\n</tr>\n<tr style=\"box-sizing: border-box; user-select: text; height: 17px;\">\n<td style=\"box-sizing: border-box; user-select: text; width: 59px; height: 17px; text-align: center; background-color: #eee5c8;\">18</td>\n<td style=\"box-sizing: border-box; user-select: text; width: 841px; height: 17px; text-align: center; background-color: #eee5c8;\">Skill feat, swashbuckler feat</td>\n</tr>\n<tr style=\"box-sizing: border-box; user-select: text; height: 17px;\">\n<td style=\"box-sizing: border-box; user-select: text; width: 59px; height: 17px; text-align: center; background-color: #f6f1e1;\">19</td>\n<td style=\"box-sizing: border-box; user-select: text; width: 841px; height: 17px; text-align: center; background-color: #f6f1e1;\"><span id=\"ctl00_MainContent_DetailedOutput\">Eternal confidence, general feat, light armor mastery, skill increase, vivacious speed +30 feet</span></td>\n</tr>\n<tr style=\"box-sizing: border-box; user-select: text; height: 17px;\">\n<td style=\"box-sizing: border-box; user-select: text; width: 59px; text-align: center; height: 17px; background-color: #eee5c8;\">20</td>\n<td style=\"box-sizing: border-box; user-select: text; width: 841px; text-align: center; height: 17px; background-color: #eee5c8;\"><span id=\"ctl00_MainContent_DetailedOutput\">Ability boosts, s</span>kill feat, swashbuckler feat</td>\n</tr>\n</tbody>\n</table>\n<p style=\"box-sizing: border-box; user-select: text; color: #191813;\"></p>\n<h2 class=\"title\">Ancestry and Background</h2>\n<p style=\"box-sizing: border-box; user-select: text; color: #191813;\"><span id=\"ctl00_MainContent_DetailedOutput\">In addition to the abilities provided by your class at 1st level, you have the benefits of your selected ancestry and background, as described in Chapter 2.<br></span></p>\n<h2 class=\"title\">Initial Proficiencies</h2>\n<p style=\"box-sizing: border-box; user-select: text; color: #191813;\">At 1st level you gain a number of proficiencies that represent your basic training. These proficiencies are noted at the start of this class.</p>\n<h2 class=\"title\">Panache</h2>\n<p style=\"box-sizing: border-box; user-select: text; color: #191813;\"><span style=\"color: #191813;\">You care as much about the way you accomplish something </span><span style=\"color: #191813;\">as whether you actually accomplish it in the first place. </span><span style=\"color: #191813;\">When you perform an action with particular bravado, you can leverage this moment of verve to perform spectacular, </span><span style=\"color: #191813;\">deadly maneuvers. This state of flair is called panache, and </span><span style=\"color: #191813;\">you are either in a state of panache or you are not.</span></p>\n<p style=\"box-sizing: border-box; user-select: text; color: #191813;\"><span style=\"color: #191813;\">You gain panache by successfully performing the skill </span><span style=\"color: #191813;\">check associated with specific actions that have a bit of </span><span style=\"color: #191813;\">flair, including @Compendium[pf2e.actionspf2e.Tumble Through]{Tumble Through} (Core Rulebook 240) </span><span style=\"color: #191813;\">and additional actions determined by your swashbuckler's </span><span style=\"color: #191813;\">style (see below). At the GM's discretion, after succeeding </span><span style=\"color: #191813;\">at a check to perform a particularly daring action, such as </span><span style=\"color: #191813;\">swinging on a chandelier or sliding down a drapery, you </span><span style=\"color: #191813;\">also gain panache if your result is high enough (typically </span><span style=\"color: #191813;\">the very hard DC for your level, but the GM can choose a </span><span style=\"color: #191813;\">different threshold).</span></p>\n<p style=\"box-sizing: border-box; user-select: text; color: #191813;\"><span style=\"color: #191813;\">While you have panache, you gain a +5-foot status bonus </span><span style=\"color: #191813;\">to your Speeds and gain a +1 circumstance bonus to checks </span><span style=\"color: #191813;\">to Tumble Through or to take any actions that give you </span><span style=\"color: #191813;\">panache due to your style. The precise strike class feature </span><span style=\"color: #191813;\">(page 85) also causes you to deal extra precision damage </span><span style=\"color: #191813;\">while you have panache. Powerful finisher actions, including @Compendium[pf2e.classfeatures.Confident Finisher]{Confident Finisher}</span><span style=\"color: #191813;\"> (page 85), can be used only while you </span><span style=\"color: #191813;\">have panache and cause you to lose your panache.</span></p>\n<p style=\"box-sizing: border-box; user-select: text; color: #191813;\"><span style=\"color: #191813;\">Normally, you gain and use panache only in combat </span><span style=\"color: #191813;\">encounters; when an encounter ends, you lose panache.</span></p>\n<h2 class=\"title\">Swashbuckler's Style</h2>\n<p style=\"box-sizing: border-box; user-select: text; color: #191813;\"><span style=\"color: #191813;\">As a swashbuckler, you have your own distinctive style that </span><span style=\"color: #191813;\">enables you to gracefully handle everyday events and life-or-</span><span style=\"color: #191813;\">death situations alike. Choose a swashbuckler's style. </span><span style=\"color: #191813;\">This style determines the additional actions you use to gain </span><span style=\"color: #191813;\">panache and makes you trained in the skill related to that </span><span style=\"color: #191813;\">action. The styles presented in this book are as follows.</span></p>\n<p style=\"box-sizing: border-box; user-select: text; color: #191813;\"><strong><span style=\"color: #191813;\">Battledancer</span></strong></p>\n<p style=\"box-sizing: border-box; user-select: text; color: #191813;\"><span style=\"color: #191813;\">To you, a fight is a kind of performance art, and you </span><span style=\"color: #191813;\">command your foes' attention with mesmerizing motions. </span><span style=\"color: #191813;\">You are trained in Performance and gain the @Compendium[pf2e.feats-srd.Fascinating Performance]{Fascinating Performance}</span><span style=\"color: #191813;\"> skill feat (Core Rulebook 261). You gain </span><span style=\"color: #191813;\">panache during an encounter when the result of your </span><span style=\"color: #191813;\">Performance check to @Compendium[pf2e.actionspf2e.Perform]{Perform}exceeds the Will DC of an </span><span style=\"color: #191813;\">observing foe, even if the foe isn't @Compendium[pf2e.conditionitems.Fascinated]{Fascinated}.</span></p>\n<p style=\"box-sizing: border-box; user-select: text; color: #191813;\"><strong><span style=\"color: #191813;\">Braggart</span></strong></p>\n<p style=\"box-sizing: border-box; user-select: text; color: #191813;\"><span style=\"color: #191813;\">You boast, taunt, and psychologically needle your foes. </span><span style=\"color: #191813;\">You are trained in Intimidation. You gain panache </span><span style=\"color: #191813;\">during an encounter whenever you successfully @Compendium[pf2e.actionspf2e.Demoralize]{Demoralize}</span><span style=\"color: #191813;\"> a foe.</span></p>\n<p style=\"box-sizing: border-box; user-select: text; color: #191813;\"><strong><span style=\"color: #191813;\">Fencer</span></strong></p>\n<p style=\"box-sizing: border-box; user-select: text; color: #191813;\"><span style=\"color: #191813;\">You move carefully, feinting and creating false openings to </span><span style=\"color: #191813;\">lead your foes into inopportune attacks. You are trained </span><span style=\"color: #191813;\">in Deception. You gain panache during an encounter </span><span style=\"color: #191813;\">whenever you successfully @Compendium[pf2e.actionspf2e.Feint]{Feint} or @Compendium[pf2e.actionspf2e.Create a Diversion]{Create a Diversion} </span><span style=\"color: #191813;\">against a foe.</span></p>\n<p style=\"box-sizing: border-box; user-select: text; color: #191813;\"><strong><span style=\"color: #191813;\">Gymnast</span></strong></p>\n<p style=\"box-sizing: border-box; user-select: text; color: #191813;\"><span style=\"color: #191813;\">You reposition, maneuver, and bewilder your foes with daring feats of physical prowess. You are trained </span><span style=\"color: #191813;\">in Athletics. You gain panache during an encounter </span><span style=\"color: #191813;\">whenever you successfully @Compendium[pf2e.actionspf2e.Grapple]{Grapple}, @Compendium[pf2e.actionspf2e.Shove]{Shove}, or @Compendium[pf2e.actionspf2e.Trip]{Trip} a foe.</span></p>\n<p style=\"box-sizing: border-box; user-select: text; color: #191813;\"><strong><span style=\"color: #191813;\">Wit</span></strong></p>\n<p style=\"box-sizing: border-box; user-select: text; color: #191813;\"><span style=\"color: #191813;\">You are friendly, clever, and full of humor, always knowing </span><span style=\"color: #191813;\">just what to say in any situation. Your witticisms leave </span><span style=\"color: #191813;\">foes unprepared for the skill and speed of your attacks. </span><span style=\"color: #191813;\">You are trained in Diplomacy and gain the @Compendium[pf2e.feats-srd.Bon Mot]{Bon Mot} skill </span><span style=\"color: #191813;\">feat (page 203). You gain panache during an encounter </span><span style=\"color: #191813;\">whenever you succeed at a Bon Mot against a foe.</span></p>\n<h2 class=\"title\">Precise Strike</h2>\n<p style=\"box-sizing: border-box; user-select: text; color: #191813;\"></p>\n<p style=\"box-sizing: border-box; user-select: text; color: #191813;\"><span style=\"color: #191813;\">You strike with flair. When you have panache and you </span><span style=\"color: #191813;\">Strike with an agile or finesse melee weapon or agile or </span><span style=\"color: #191813;\">finesse unarmed attack, you deal [[/r 2 #precision]] additional precision </span><span style=\"color: #191813;\">damage. If the strike is part of a finisher, the additional </span><span style=\"color: #191813;\">damage is [[/r 2d6 #precision]] precision damage instead.</span></p>\n<p style=\"box-sizing: border-box; user-select: text; color: #191813;\"><span style=\"color: #191813;\">As your swashbuckler level increases, so does your </span><span style=\"color: #191813;\">additional damage for precise strike. Increase the </span><span style=\"color: #191813;\">amount of additional damage on a Strike and the </span><span style=\"color: #191813;\">number of additional dice on a finisher by </span><span style=\"color: #191813;\">one at 5th, 9th, 13th, and 17th levels.</span></p>\n<h2 class=\"title\">Confident Finisher</h2>\n<p style=\"box-sizing: border-box; user-select: text; color: #191813;\"></p>\n<p style=\"box-sizing: border-box; user-select: text; color: #191813;\"><span style=\"color: #191813;\">You gain an elegant finishing attack you </span><span style=\"color: #191813;\">can make when you have panache. </span><span style=\"color: #191813;\">The finisher trait is described </span><span style=\"color: #191813;\">on page 87. You gain the </span><span style=\"color: #191813;\">Confident Finisher action.</span></p>\n<h2 class=\"title\">Swashbuckler Feats</h2>\n<p style=\"box-sizing: border-box; user-select: text; color: #191813;\"><span style=\"color: #191813;\">At 1st level and every even-numbered level, you </span><span style=\"color: #191813;\">gain a swashbuckler class feat.</span></p>\n<h2 class=\"title\">Skill Feats<span style=\"float: right;\">Level 2</span></h2>\n<p style=\"box-sizing: border-box; user-select: text; color: #191813;\">At 2nd level and every 2 levels thereafter, you gain a skill feat. Skill feats can be found in Chapter 5 and have the skill trait. You must be trained or better in the corresponding skill to select a skill feat.</p>\n<h2 class=\"title\">General Feats<span style=\"float: right;\">Level 3</span></h2>\n<p style=\"box-sizing: border-box; user-select: text; color: #191813;\">At 3rd level and every 4 levels thereafter, you gain a general feat. General feats are listed in Chapter 5.</p>\n<h2 class=\"title\">Great Fortitude<span style=\"float: right;\">Level 3</span></h2>\n<p style=\"box-sizing: border-box; user-select: text; color: #191813;\"><span style=\"color: #191813;\">Your physique is incredibly hardy, granting you increased </span><span style=\"color: #191813;\">endurance. Your proficiency rank for Fortitude saves </span><span style=\"color: #191813;\">increases to expert.</span></p>\n<h2 class=\"title\">Opportune Riposte<span style=\"float: right;\">Level 3</span></h2>\n<p style=\"box-sizing: border-box; user-select: text; color: #191813;\"><span style=\"color: #191813;\">You turn the tables on foes who fumble, capitalizing </span><span style=\"color: #191813;\">immediately on their mistake. You gain the @Compendium[pf2e.actionspf2e.Opportune Riposte]{Opportune Riposte}</span><span style=\"color: #191813;\"> reaction.</span></p>\n<h2 class=\"title\">Skill Increases<span style=\"float: right;\">Level 3</span></h2>\n<p style=\"box-sizing: border-box; user-select: text; color: #191813;\">At 3rd level and every 2 levels thereafter, you gain a skill increase. You can use this increase either to increase your proficiency rank to trained in one skill you're untrained in, or to increase your proficiency rank in one skill in which you're already trained to expert.</p>\n<p style=\"box-sizing: border-box; user-select: text; color: #191813;\">At 7th level, you can use skill increases to increase your proficiency rank to master in a skill in which you're already an expert, and at 15th level, you can use them to increase your proficiency rank to legendary in a skill in which you're already a master.</p>\n<h2 class=\"title\">Stylish Tricks<span style=\"float: right;\">Level 3</span></h2>\n<p style=\"box-sizing: border-box; user-select: text; color: #191813;\"><span style=\"color: #191813;\">At 3rd level, 7th level, and 15th level, you gain a skill feat. This feat must be for </span><span style=\"color: #191813;\">Acrobatics or the trained skill from your swashbuckler's style.</span></p>\n<h2 class=\"title\">Vivacious Speed<span style=\"float: right;\">Level 3</span></h2>\n<p style=\"box-sizing: border-box; user-select: text; color: #191813;\"><span style=\"color: #191813;\">When you've made an impression, you move even faster than normal, darting about </span><span style=\"color: #191813;\">the battlefield with incredible speed. Increase the status bonus to your Speeds when </span><span style=\"color: #191813;\">you have panache to a +10-foot status bonus; this bonus increases by 5 feet at 7th, </span><span style=\"color: #191813;\">11th, 15th, and 19th levels. When you don't have panache, you still get half this status </span><span style=\"color: #191813;\">bonus to your Speed, rounded down to the nearest 5-foot increment. </span></p>\n<h2 class=\"title\">Ability Boosts<span style=\"float: right;\">Level 5</span></h2>\n<p style=\"box-sizing: border-box; user-select: text; color: #191813;\">At 5th level and every 5 levels thereafter, you boost four different ability scores. You can use these ability boosts to increase your ability scores above 18. Boosting an ability score increases it by 1 if it's already 18 or above, or by 2 if it starts out below 18.</p>\n<h2 class=\"title\">Ancestry Feats<span style=\"float: right;\">Level 5</span></h2>\n<p style=\"box-sizing: border-box; user-select: text; color: #191813;\">In addition to the ancestry feat you started with, you gain an ancestry feat at 5th level and every 4 levels thereafter. The list of ancestry feats available to you can be found in your ancestry's entry in Chapter 2.</p>\n<h2 class=\"title\">Weapon Expertise<span style=\"float: right;\">Level 5</span></h2>\n<p style=\"box-sizing: border-box; user-select: text; color: #191813;\"><span style=\"color: #191813;\">You've dedicated yourself to learning the intricacies of your weapons. Your </span><span style=\"color: #191813;\">proficiency ranks for simple weapons, martial weapons, and unarmed attacks </span><span style=\"color: #191813;\">increase to expert. You gain access to the critical specialization effects of all weapons </span><span style=\"color: #191813;\">for which you have expert proficiency.</span></p>\n<h2 class=\"title\">Evasion<span style=\"float: right;\">Level 7</span></h2>\n<p style=\"box-sizing: border-box; user-select: text; color: #191813;\"><span style=\"color: #191813;\">You've learned to move quickly to avoid explosions, a dragon's breath, and worse. </span><span style=\"color: #191813;\">Your proficiency rank for Reflex saves increases to master. When you roll a success </span><span style=\"color: #191813;\">on a Reflex save, you get a critical success instead.</span></p>\n<h2 class=\"title\">Weapon Specialization<span style=\"float: right;\">Level 7</span></h2>\n<p style=\"box-sizing: border-box; user-select: text; color: #191813;\">You've learned how to inflict greater injuries with the weapons you know best. You deal 2 additional damage with weapons and unarmed attacks in which you are an expert. This damage increases to 3 if you're a master, and to 4 if you're legendary.</p>\n<h2 class=\"title\">Exemplary Finisher<span style=\"float: right;\">Level 9</span></h2>\n<p style=\"box-sizing: border-box; user-select: text; color: #191813;\"><span style=\"color: #191813;\">You execute your finishing moves with spectacular flair, adding special effects to </span><span style=\"color: #191813;\">your finishers. If a Strike you make as part of a finisher hits a foe, you add one of the </span><span style=\"color: #191813;\">following effects to the Strike, depending on your swashbuckler's style.</span></p>\n<ul>\n<li style=\"box-sizing: border-box; user-select: text; color: #191813;\"> </li>\n<li style=\"box-sizing: border-box; user-select: text; color: #191813;\"><span style=\"color: #191813;\">Battledancer: You can Step as a free action immediately after the finisher.</span></li>\n<li style=\"box-sizing: border-box; user-select: text; color: #191813;\"><span style=\"color: #191813;\">Braggart: If the foe was temporarily immune to your Demoralize, their temporary immunity ends.</span></li>\n<li style=\"box-sizing: border-box; user-select: text; color: #191813;\"><span style=\"color: #191813;\">Fencer: The foe is flat-footed until your next turn.</span></li>\n<li style=\"box-sizing: border-box; user-select: text; color: #191813;\"><span style=\"color: #191813;\">Gymnast: If the foe is grabbed, restrained, or prone, you gain a circumstance bonus to the damage roll equal to twice the number of weapon damage dice.</span></li>\n<li style=\"box-sizing: border-box; user-select: text; color: #191813;\"><span style=\"color: #191813;\">Wit: The foe takes a -2 circumstance penalty to attack rolls against you until the start of your next turn.</span></li>\n</ul>\n<h2 class=\"title\">Swashbuckler Expertise<span style=\"float: right;\">Level 9</span></h2>\n<p style=\"box-sizing: border-box; user-select: text; color: #191813;\"><span style=\"color: #191813;\">You perform swashbuckling techniques with exceptional </span><span style=\"color: #191813;\">flair, making them harder to resist. Your proficiency rank </span><span style=\"color: #191813;\">for your swashbuckler class DC increases to expert.</span></p>\n<h2 class=\"title\">Continuous Flair<span style=\"float: right;\">Level 11</span></h2>\n<p style=\"box-sizing: border-box; user-select: text; color: #191813;\"><span style=\"color: #191813;\">While not equal to the heights of your panache in combat, </span><span style=\"color: #191813;\">you have a dramatic flair about you in any situation. </span><span style=\"color: #191813;\">Whenever you succeed at a check during exploration that </span><span style=\"color: #191813;\">would have granted you panache in combat, you gain a +1 </span><span style=\"color: #191813;\">circumstance bonus to further checks for actions that would </span><span style=\"color: #191813;\">grant you panache in combat. This benefit ends when the </span><span style=\"color: #191813;\">exploration changes to a different scene (as determined by </span><span style=\"color: #191813;\">the GM) or shifts to an encounter or downtime.</span></p>\n<h2 class=\"title\">Vigailant Senses<span style=\"float: right;\">Level 11</span></h2>\n<p style=\"box-sizing: border-box; user-select: text; color: #191813;\"><span style=\"color: #191813;\">Through your adventures, you've developed keen </span><span style=\"color: #191813;\">awareness and attention to detail. Your proficiency rank </span><span style=\"color: #191813;\">for Perception increases to master.</span></p>\n<h2 class=\"title\">Improved Evasion<span style=\"float: right;\">Level 13</span></h2>\n<p style=\"box-sizing: border-box; user-select: text; color: #191813;\"><span style=\"color: #191813;\">Your ability to elude danger is matchless. Your proficiency </span><span style=\"color: #191813;\">rank for Reflex saves increases to legendary. When you </span><span style=\"color: #191813;\">roll a critical failure on a Reflex save, you get a failure </span><span style=\"color: #191813;\">instead. When you roll a failure on a Reflex save against </span><span style=\"color: #191813;\">a damaging effect, you take half damage.</span></p>\n<h2 class=\"title\">Light Armor Expertise<span style=\"float: right;\">Level 13</span></h2>\n<p style=\"box-sizing: border-box; user-select: text; color: #191813;\"><span style=\"color: #191813;\">You've learned how to dodge while wearing light or </span><span style=\"color: #191813;\">no armor. Your proficiency ranks for light armor and </span><span style=\"color: #191813;\">unarmored defense increase to expert.</span></p>\n<h2 class=\"title\">Weapon Mastery<span style=\"float: right;\">Level 15</span></h2>\n<p style=\"box-sizing: border-box; user-select: text; color: #191813;\"><span style=\"color: #191813;\">You fully understand your weapons. Your proficiency </span><span style=\"color: #191813;\">ranks for simple and martial weapons and unarmed </span><span style=\"color: #191813;\">attacks increase to master.</span></p>\n<h2 class=\"title\">Greater Weapon Specialization<span style=\"float: right;\">Level 15</span></h2>\n<p style=\"box-sizing: border-box; user-select: text; color: #191813;\">Your damage from weapon specialization increases to 4 with weapons and unarmed attacks in which you're an expert, 6 if you're a master, and 8 if you're legendary.</p>\n<h2 class=\"title\">Keen Flair<span style=\"float: right;\">Level 15</span></h2>\n<p style=\"box-sizing: border-box; user-select: text; color: #191813;\"><span style=\"color: #191813;\">You inflict particularly devastating attacks on even </span><span style=\"color: #191813;\">well-defended foes. When you Strike with a weapon or </span><span style=\"color: #191813;\">unarmed attack with which you have master proficiency, </span><span style=\"color: #191813;\">if you roll a 19 on the die and the roll is a success, you </span><span style=\"color: #191813;\">critically succeed instead.</span></p>\n<h2 class=\"title\">Resolve<span style=\"float: right;\">Level 17</span></h2>\n<p style=\"box-sizing: border-box; user-select: text; color: #191813;\"><span style=\"color: #191813;\">You've steeled your mind with resolve. Your proficiency </span><span style=\"color: #191813;\">rank for Will saves increases to master. When you roll a </span><span style=\"color: #191813;\">success on a Will save, you get a critical success instead.</span></p>\n<h2 class=\"title\">Eternal Confidence<span style=\"float: right;\">Level 17</span></h2>\n<p style=\"box-sizing: border-box; user-select: text; color: #191813;\"><span style=\"color: #191813;\">As a swashbuckler at the peak of your skill, you swell </span><span style=\"color: #191813;\">with confidence and bravado in every attack. Your </span><span style=\"color: #191813;\">proficiency rank for your swashbuckler class DC </span><span style=\"color: #191813;\">increases to master.</span></p>\n<p style=\"box-sizing: border-box; user-select: text; color: #191813;\"><span style=\"color: #191813;\">When you Strike as part of a finisher or Opportune </span><span style=\"color: #191813;\">Riposte, you can give the Strike the failure effect from </span><span style=\"color: #191813;\">the Confident Finisher action, including the increase from </span><span style=\"color: #191813;\">Precise Finisher (page 91) if you have that feat. You can </span><span style=\"color: #191813;\">do so only if the Strike uses a weapon or unarmed attack </span><span style=\"color: #191813;\">that you could use for Confident Finisher.</span></p>\n<h2 class=\"title\">Light Armor Mastery<span style=\"float: right;\">Level 19</span></h2>\n<p style=\"box-sizing: border-box; user-select: text; color: #191813;\"><span style=\"color: #191813;\">Your skill with light armor improves, increasing your </span><span style=\"color: #191813;\">ability to dodge blows. Your proficiency ranks for light </span><span style=\"color: #191813;\">armor and unarmored defense increase to master.</span></p>",
    "flags": {},
    "name": "Swashbuckler",
    "permission": {
        "default": 0
    }
}